<?xml version="1.0" encoding="UTF-8" standalone="no"?>
<svg
   viewBox="0 0 48 48"
   id="svg2"
   version="1.1"
   inkscape:version="1.1.2 (0a00cf5339, 2022-02-04)"
   width="100%"
   height="100%"
   sodipodi:docname="com_coolclever_app.svg"
   xmlns:inkscape="http://www.inkscape.org/namespaces/inkscape"
   xmlns:sodipodi="http://sodipodi.sourceforge.net/DTD/sodipodi-0.dtd"
   xmlns="http://www.w3.org/2000/svg"
   xmlns:svg="http://www.w3.org/2000/svg"
   xmlns:rdf="http://www.w3.org/1999/02/22-rdf-syntax-ns#"
   xmlns:cc="http://creativecommons.org/ns#"
   xmlns:dc="http://purl.org/dc/elements/1.1/">
  <metadata
     id="metadata71">
    <rdf:RDF>
      <cc:Work
         rdf:about="">
        <dc:format>image/svg+xml</dc:format>
        <dc:type
           rdf:resource="http://purl.org/dc/dcmitype/StillImage" />
      </cc:Work>
    </rdf:RDF>
  </metadata>
  <sodipodi:namedview
     pagecolor="#ffffff"
     bordercolor="#666666"
     borderopacity="1"
     objecttolerance="10"
     gridtolerance="10"
     guidetolerance="10"
     inkscape:pageopacity="0"
     inkscape:pageshadow="2"
     inkscape:window-width="1530"
     inkscape:window-height="854"
     id="namedview69"
     showgrid="false"
     inkscape:zoom="9.7039122"
     inkscape:cx="34.522159"
     inkscape:cy="24.577716"
     inkscape:window-x="0"
     inkscape:window-y="0"
     inkscape:window-maximized="1"
     inkscape:current-layer="svg2"
     inkscape:pagecheckerboard="1" />
  <defs
     id="defs4">
    <linearGradient
       id="linearGradient3764"
       y1="47"
       x2="0"
       y2="1"
       gradientUnits="userSpaceOnUse">
      <stop
         stop-color="#e5e5e5"
         stop-opacity="1"
         id="stop7" />
      <stop
         offset="1"
         stop-color="#efefef"
         stop-opacity="1"
         id="stop9" />
    </linearGradient>
    <clipPath
       id="clipPath-468622755">
      <g
         transform="translate(0,-1004.3622)"
         id="g12">
        <path
           d="m -24 13 c 0 1.105 -0.672 2 -1.5 2 -0.828 0 -1.5 -0.895 -1.5 -2 0 -1.105 0.672 -2 1.5 -2 0.828 0 1.5 0.895 1.5 2 z"
           transform="matrix(15.333333,0,0,11.5,414.99999,878.8622)"
           fill="#1890d0"
           id="path14" />
      </g>
    </clipPath>
    <clipPath
       id="clipPath-476930736">
      <g
         transform="translate(0,-1004.3622)"
         id="g17">
        <path
           d="m -24 13 c 0 1.105 -0.672 2 -1.5 2 -0.828 0 -1.5 -0.895 -1.5 -2 0 -1.105 0.672 -2 1.5 -2 0.828 0 1.5 0.895 1.5 2 z"
           transform="matrix(15.333333,0,0,11.5,414.99999,878.8622)"
           fill="#1890d0"
           id="path19" />
      </g>
    </clipPath>
    <clipPath
       clipPathUnits="userSpaceOnUse"
       id="clipPath840">
      <circle
         style="opacity:1;vector-effect:none;fill:#4db6ac;fill-opacity:1;fill-rule:evenodd;stroke-width:0.67672724;stroke-linecap:butt;stroke-linejoin:miter;stroke-miterlimit:4;stroke-dasharray:none;stroke-dashoffset:0;stroke-opacity:1"
         id="circle842"
         cx="215.72563"
         cy="129.96146"
         r="23" />
    </clipPath>
  </defs>
  <g
     id="g21">
    <path
       d="m 36.31 5 c 5.859 4.062 9.688 10.831 9.688 18.5 c 0 12.426 -10.07 22.5 -22.5 22.5 c -7.669 0 -14.438 -3.828 -18.5 -9.688 c 1.037 1.822 2.306 3.499 3.781 4.969 c 4.085 3.712 9.514 5.969 15.469 5.969 c 12.703 0 23 -10.298 23 -23 c 0 -5.954 -2.256 -11.384 -5.969 -15.469 c -1.469 -1.475 -3.147 -2.744 -4.969 -3.781 z m 4.969 3.781 c 3.854 4.113 6.219 9.637 6.219 15.719 c 0 12.703 -10.297 23 -23 23 c -6.081 0 -11.606 -2.364 -15.719 -6.219 c 4.16 4.144 9.883 6.719 16.219 6.719 c 12.703 0 23 -10.298 23 -23 c 0 -6.335 -2.575 -12.06 -6.719 -16.219 z"
       opacity="0.05"
       id="path23" />
    <path
       d="m 41.28 8.781 c 3.712 4.085 5.969 9.514 5.969 15.469 c 0 12.703 -10.297 23 -23 23 c -5.954 0 -11.384 -2.256 -15.469 -5.969 c 4.113 3.854 9.637 6.219 15.719 6.219 c 12.703 0 23 -10.298 23 -23 c 0 -6.081 -2.364 -11.606 -6.219 -15.719 z"
       opacity="0.1"
       id="path25" />
    <path
       d="m 31.25 2.375 c 8.615 3.154 14.75 11.417 14.75 21.13 c 0 12.426 -10.07 22.5 -22.5 22.5 c -9.708 0 -17.971 -6.135 -21.12 -14.75 a 23 23 0 0 0 44.875 -7 a 23 23 0 0 0 -16 -21.875 z"
       opacity="0.2"
       id="path27" />
  </g>
  <g
     id="g29"
     style="fill:#fff9e0;fill-opacity:1">
    <path
       d="m 24 1 c 12.703 0 23 10.297 23 23 c 0 12.703 -10.297 23 -23 23 -12.703 0 -23 -10.297 -23 -23 0 -12.703 10.297 -23 23 -23 z"
       fill="url(#linearGradient3764)"
       fill-opacity="1"
       id="path31"
       style="fill:#fff9e0;fill-opacity:1" />
  </g>
  <g
     id="g65">
    <path
       d="m 40.03 7.531 c 3.712 4.084 5.969 9.514 5.969 15.469 0 12.703 -10.297 23 -23 23 c -5.954 0 -11.384 -2.256 -15.469 -5.969 4.178 4.291 10.01 6.969 16.469 6.969 c 12.703 0 23 -10.298 23 -23 0 -6.462 -2.677 -12.291 -6.969 -16.469 z"
       opacity="0.1"
       id="path67" />
  </g>
  <path
     fill="#000000"
     d="m 37.000314,21.017225 c 0,-1.543125 -2.456774,-2.487825 -5.46555,-2.078475 -2.105699,0.31485 -4.7412,2.204325 -4.7412,2.204325 v 0 L 26.442639,20.82815 v 0 c 0,0 2.74395,-1.7634 3.659625,-3.574049 1.276201,-2.519326 1.052851,-4.966126 -0.5424,-5.466901 -0.82965,-0.314849 -1.8825,0.02775 -2.903475,0.787275 C 25.922589,11.566851 25.029189,11 24.103914,11 c -1.659074,0 -2.680125,2.3304 -2.23335,5.08575 0.350926,1.9524 2.360925,4.4118 2.360925,4.4118 0,0 0,0 0,0 0,0 -0.350924,0.31485 -0.350924,0.31485 -0.0098,-0.0195 -0.0285,0 -0.0285,0 0,0 -1.882425,-2.550675 -3.838276,-3.404025 -2.712001,-1.1967 -5.341051,-0.976275 -5.880301,0.503775 -0.350925,0.787275 0,1.794975 0.893474,2.708175 -1.084875,0.692775 -1.6911,1.511625 -1.6911,2.361825 0,1.54305 2.488725,2.48775 5.46555,2.0784 0.414751,0 0.797626,-0.315 1.276201,-0.315 -1.531426,1.0707 -3.44265,2.67675 -4.887976,4.81185 -1.786725,2.645175 -2.488649,5.4699 -2.073899,8.4426 h 1.116674 c -0.446699,-3.2184 0.542476,-6.25095 2.871525,-9.015675 1.27635,-1.511625 2.775826,-2.708325 4.131826,-3.5931 -0.4467,0.472275 -0.8295,0.9762 -1.116676,1.479975 -1.276199,2.51925 -1.052849,4.96605 0.542401,5.4699 0.893324,0.31485 1.914375,-0.02775 2.903474,-0.818775 0.7338,1.0077 1.627126,1.57455 2.520525,1.57455 1.659075,0 2.680051,-2.298825 2.233425,-5.08575 -0.351,-1.9524 -2.361,-4.4118 -2.361,-4.4118 v 0 c 0,0 0.350925,-0.31485 0.382876,-0.31485 v 0.31485 c 0,0 1.946175,2.55075 3.838275,3.404175 2.712,1.19655 5.340975,0.976125 5.883449,-0.503925 0.350925,-0.818625 0,-1.794975 -0.82965,-2.7081 1.084875,-0.661425 1.6911,-1.511625 1.6911,-2.330325 z"
     id="path1706-3"
     style="fill:#000003;fill-opacity:0.0588235;stroke-width:0.294573" />
  <path
     fill="#000000"
     d="m 36.000314,20.017225 c 0,-1.543125 -2.456774,-2.487825 -5.46555,-2.078475 -2.105699,0.31485 -4.7412,2.204325 -4.7412,2.204325 v 0 L 25.442639,19.82815 v 0 c 0,0 2.74395,-1.7634 3.659625,-3.574049 1.276201,-2.519326 1.052851,-4.966126 -0.5424,-5.466901 -0.82965,-0.314849 -1.8825,0.02775 -2.903475,0.787275 C 24.922589,10.566851 24.029189,10 23.103914,10 c -1.659074,0 -2.680125,2.3304 -2.23335,5.08575 0.350926,1.9524 2.360925,4.4118 2.360925,4.4118 0,0 0,0 0,0 0,0 -0.350924,0.31485 -0.350924,0.31485 -0.0098,-0.0195 -0.0285,0 -0.0285,0 0,0 -1.882425,-2.550675 -3.838276,-3.404025 -2.712001,-1.1967 -5.341051,-0.976275 -5.880301,0.503775 -0.350925,0.787275 0,1.794975 0.893474,2.708175 -1.084875,0.692775 -1.6911,1.511625 -1.6911,2.361825 0,1.54305 2.488725,2.48775 5.46555,2.0784 0.414751,0 0.797626,-0.315 1.276201,-0.315 -1.531426,1.0707 -3.44265,2.67675 -4.887976,4.81185 -1.786725,2.645175 -2.488649,5.4699 -2.073899,8.4426 h 1.116674 c -0.446699,-3.2184 0.542476,-6.25095 2.871525,-9.015675 1.27635,-1.511625 2.775826,-2.708325 4.131826,-3.5931 -0.4467,0.472275 -0.8295,0.9762 -1.116676,1.479975 -1.276199,2.51925 -1.052849,4.96605 0.542401,5.4699 0.893324,0.31485 1.914375,-0.02775 2.903474,-0.818775 0.7338,1.0077 1.627126,1.57455 2.520525,1.57455 1.659075,0 2.680051,-2.298825 2.233425,-5.08575 -0.351,-1.9524 -2.361,-4.4118 -2.361,-4.4118 v 0 c 0,0 0.350925,-0.31485 0.382876,-0.31485 v 0.31485 c 0,0 1.946175,2.55075 3.838275,3.404175 2.712,1.19655 5.340975,0.976125 5.883449,-0.503925 0.350925,-0.818625 0,-1.794975 -0.82965,-2.7081 1.084875,-0.661425 1.6911,-1.511625 1.6911,-2.330325 z"
     id="path1706"
     style="fill:#689f38;fill-opacity:1;stroke-width:0.294573" />
</svg>
