<?xml version="1.0" encoding="UTF-8" standalone="no"?>
<svg
   xmlns:dc="http://purl.org/dc/elements/1.1/"
   xmlns:cc="http://creativecommons.org/ns#"
   xmlns:rdf="http://www.w3.org/1999/02/22-rdf-syntax-ns#"
   xmlns:svg="http://www.w3.org/2000/svg"
   xmlns="http://www.w3.org/2000/svg"
   xmlns:sodipodi="http://sodipodi.sourceforge.net/DTD/sodipodi-0.dtd"
   xmlns:inkscape="http://www.inkscape.org/namespaces/inkscape"
   viewBox="0 0 48 48"
   id="svg2"
   version="1.1"
   inkscape:version="0.92.4 (unknown)"
   width="100%"
   height="100%"
   sodipodi:docname="com_loyaltyplant_partner_unaitedketeringgrupp.svg">
  <metadata
     id="metadata71">
    <rdf:RDF>
      <cc:Work
         rdf:about="">
        <dc:format>image/svg+xml</dc:format>
        <dc:type
           rdf:resource="http://purl.org/dc/dcmitype/StillImage" />
        <dc:title></dc:title>
      </cc:Work>
    </rdf:RDF>
  </metadata>
  <sodipodi:namedview
     pagecolor="#ffffff"
     bordercolor="#666666"
     borderopacity="1"
     objecttolerance="10"
     gridtolerance="10"
     guidetolerance="10"
     inkscape:pageopacity="0"
     inkscape:pageshadow="2"
     inkscape:window-width="3200"
     inkscape:window-height="1676"
     id="namedview69"
     showgrid="true"
     inkscape:zoom="14.771745"
     inkscape:cx="24.499"
     inkscape:cy="6.7505309"
     inkscape:window-x="0"
     inkscape:window-y="82"
     inkscape:window-maximized="1"
     inkscape:current-layer="svg2">
    <inkscape:grid
       type="xygrid"
       id="grid1969"
       empspacing="4" />
  </sodipodi:namedview>
  <defs
     id="defs4">
    <linearGradient
       id="linearGradient3764"
       y1="47"
       x2="0"
       y2="1"
       gradientUnits="userSpaceOnUse">
      <stop
         stop-color="#e5e5e5"
         stop-opacity="1"
         id="stop7" />
      <stop
         offset="1"
         stop-color="#efefef"
         stop-opacity="1"
         id="stop9" />
    </linearGradient>
    <clipPath
       id="clipPath-468622755">
      <g
         transform="translate(0,-1004.3622)"
         id="g12">
        <path
           d="m -24 13 c 0 1.105 -0.672 2 -1.5 2 -0.828 0 -1.5 -0.895 -1.5 -2 0 -1.105 0.672 -2 1.5 -2 0.828 0 1.5 0.895 1.5 2 z"
           transform="matrix(15.333333,0,0,11.5,414.99999,878.8622)"
           fill="#1890d0"
           id="path14" />
      </g>
    </clipPath>
    <clipPath
       id="clipPath-476930736">
      <g
         transform="translate(0,-1004.3622)"
         id="g17">
        <path
           d="m -24 13 c 0 1.105 -0.672 2 -1.5 2 -0.828 0 -1.5 -0.895 -1.5 -2 0 -1.105 0.672 -2 1.5 -2 0.828 0 1.5 0.895 1.5 2 z"
           transform="matrix(15.333333,0,0,11.5,414.99999,878.8622)"
           fill="#1890d0"
           id="path19" />
      </g>
    </clipPath>
  </defs>
  <g
     id="g21">
    <path
       d="m 36.31 5 c 5.859 4.062 9.688 10.831 9.688 18.5 c 0 12.426 -10.07 22.5 -22.5 22.5 c -7.669 0 -14.438 -3.828 -18.5 -9.688 c 1.037 1.822 2.306 3.499 3.781 4.969 c 4.085 3.712 9.514 5.969 15.469 5.969 c 12.703 0 23 -10.298 23 -23 c 0 -5.954 -2.256 -11.384 -5.969 -15.469 c -1.469 -1.475 -3.147 -2.744 -4.969 -3.781 z m 4.969 3.781 c 3.854 4.113 6.219 9.637 6.219 15.719 c 0 12.703 -10.297 23 -23 23 c -6.081 0 -11.606 -2.364 -15.719 -6.219 c 4.16 4.144 9.883 6.719 16.219 6.719 c 12.703 0 23 -10.298 23 -23 c 0 -6.335 -2.575 -12.06 -6.719 -16.219 z"
       opacity="0.05"
       id="path23" />
    <path
       d="m 41.28 8.781 c 3.712 4.085 5.969 9.514 5.969 15.469 c 0 12.703 -10.297 23 -23 23 c -5.954 0 -11.384 -2.256 -15.469 -5.969 c 4.113 3.854 9.637 6.219 15.719 6.219 c 12.703 0 23 -10.298 23 -23 c 0 -6.081 -2.364 -11.606 -6.219 -15.719 z"
       opacity="0.1"
       id="path25" />
    <path
       d="m 31.25 2.375 c 8.615 3.154 14.75 11.417 14.75 21.13 c 0 12.426 -10.07 22.5 -22.5 22.5 c -9.708 0 -17.971 -6.135 -21.12 -14.75 a 23 23 0 0 0 44.875 -7 a 23 23 0 0 0 -16 -21.875 z"
       opacity="0.2"
       id="path27" />
  </g>
  <g
     id="g29"
     style="fill:#f4efd3;fill-opacity:1">
    <path
       d="m 24 1 c 12.703 0 23 10.297 23 23 c 0 12.703 -10.297 23 -23 23 -12.703 0 -23 -10.297 -23 -23 0 -12.703 10.297 -23 23 -23 z"
       fill="url(#linearGradient3764)"
       fill-opacity="1"
       id="path31"
       style="fill:#f4efd3;fill-opacity:1" />
  </g>
  <path
     style="opacity:1;vector-effect:none;fill:none;fill-opacity:1;fill-rule:evenodd;stroke:#000000;stroke-width:1.59287381;stroke-linecap:butt;stroke-linejoin:miter;stroke-miterlimit:4;stroke-dasharray:none;stroke-dashoffset:0;stroke-opacity:0.12941176"
     d="m 13.825598,20.250034 v 13.545495 c -10e-7,1.403439 1.465164,2.533319 3.284696,2.533319 h 14.779413 c 1.819532,0 3.284696,-1.12988 3.284696,-2.533319 V 20.250034 Z"
     id="rect2003-7"
     inkscape:connector-curvature="0" />
  <path
     style="opacity:1;vector-effect:none;fill:#757575;fill-opacity:1;fill-rule:evenodd;stroke-width:0.95801556;stroke-linecap:butt;stroke-linejoin:miter;stroke-miterlimit:4;stroke-dasharray:none;stroke-dashoffset:0;stroke-opacity:1"
     d="m 12.911765,19.808857 v 3.432702 h 0.174566 v 0.0095 c 0.0514,-0.0046 0.110614,-0.0078 0.189161,-0.0082 0.556178,-0.0038 1.681149,0.0828 1.778493,0.07519 l 1.303457,0.08132 2.402548,0.265682 1.622174,0.254541 1.791875,0.40827 2.729777,0.613798 3.087425,0.579823 3.264422,0.352016 2.832572,0.111952 V 19.80904 Z"
     id="rect1946"
     inkscape:connector-curvature="0" />
  <path
     style="opacity:1;vector-effect:none;fill:#ffd54f;fill-opacity:1;fill-rule:evenodd;stroke-width:0.56071168;stroke-linecap:butt;stroke-linejoin:miter;stroke-miterlimit:4;stroke-dasharray:none;stroke-dashoffset:0;stroke-opacity:1"
     d="m 13.246131,22.456033 c -0.185153,0.0011 -0.306787,0.0119 -0.306756,0.03809 l 0.0052,4.121312 c -6.4e-5,0.0036 -0.0018,0.0075 -0.0018,0.01111 v 3.307203 h -0.03101 v 4.875117 h 21.176471 v -1.112453 -3.762659 h -0.02069 l -0.0034,-0.53639 v -2.770816 c 0,-0.03714 -0.009,-0.07361 -0.01551,-0.109495 l -0.0087,-1.529821 -2.836625,-0.104733 -3.260531,-0.32375 -3.083065,-0.534802 -2.726333,-0.566542 -1.790556,-0.376107 -1.618221,-0.234868 -2.400621,-0.245978 -1.301127,-0.07458 c -0.09722,0.0069 -1.221306,-0.07335 -1.776768,-0.06983 z"
     id="rect1390-8"
     inkscape:connector-curvature="0" />
  <g
     id="g2095-0"
     style="fill:#000000;fill-opacity:0.12941176"
     transform="matrix(0.88235294,0,0,0.88235294,3.3235294,5.4265038)">
    <rect
       y="18.5"
       x="7"
       height="2"
       width="4"
       id="rect2070-9"
       style="opacity:1;vector-effect:none;fill:#000000;fill-opacity:0.12941176;fill-rule:evenodd;stroke-width:1.35266495;stroke-linecap:butt;stroke-linejoin:miter;stroke-miterlimit:4;stroke-dasharray:none;stroke-dashoffset:0;stroke-opacity:1" />
    <rect
       y="18.5"
       x="37"
       height="2"
       width="4"
       id="rect2070-6-7"
       style="opacity:1;vector-effect:none;fill:#000000;fill-opacity:0.12941176;fill-rule:evenodd;stroke-width:1.35266495;stroke-linecap:butt;stroke-linejoin:miter;stroke-miterlimit:4;stroke-dasharray:none;stroke-dashoffset:0;stroke-opacity:1" />
  </g>
  <path
     style="opacity:1;vector-effect:none;fill:none;fill-opacity:1;fill-rule:evenodd;stroke:#9e9e9e;stroke-width:1.7647059;stroke-linecap:butt;stroke-linejoin:miter;stroke-miterlimit:4;stroke-dasharray:none;stroke-dashoffset:0;stroke-opacity:1"
     d="m 12.825279,19.346191 v 13.525708 c 0,1.401388 1.465208,2.529617 3.284795,2.529617 h 14.779854 c 1.819585,0 3.284794,-1.128229 3.284794,-2.529617 V 19.346191 Z"
     id="rect2003"
     inkscape:connector-curvature="0" />
  <path
     style="opacity:1;vector-effect:none;fill:#000000;fill-opacity:0.12941176;fill-rule:evenodd;stroke-width:1.03853095;stroke-linecap:butt;stroke-linejoin:miter;stroke-miterlimit:4;stroke-dasharray:none;stroke-dashoffset:0;stroke-opacity:1"
     d="M 32.255988,13.877109 30.279297,18.5 h 1.09375 l 1.708272,-4 -0.352772,0.212956 L 32.251552,14.5 Z"
     id="rect2124-5"
     inkscape:connector-curvature="0"
     sodipodi:nodetypes="ccccccc" />
  <g
     id="g65">
    <path
       d="m 40.03 7.531 c 3.712 4.084 5.969 9.514 5.969 15.469 0 12.703 -10.297 23 -23 23 c -5.954 0 -11.384 -2.256 -15.469 -5.969 4.178 4.291 10.01 6.969 16.469 6.969 c 12.703 0 23 -10.298 23 -23 0 -6.462 -2.677 -12.291 -6.969 -16.469 z"
       opacity="0.1"
       id="path67" />
  </g>
  <g
     id="g2095"
     transform="matrix(0.88235294,0,0,0.88235294,2.3235294,3.044151)">
    <rect
       y="18.5"
       x="7"
       height="2"
       width="4"
       id="rect2070"
       style="opacity:1;vector-effect:none;fill:#9e9e9e;fill-opacity:1;fill-rule:evenodd;stroke-width:1.35266495;stroke-linecap:butt;stroke-linejoin:miter;stroke-miterlimit:4;stroke-dasharray:none;stroke-dashoffset:0;stroke-opacity:1" />
    <rect
       y="18.5"
       x="37"
       height="2"
       width="4"
       id="rect2070-6"
       style="opacity:1;vector-effect:none;fill:#9e9e9e;fill-opacity:1;fill-rule:evenodd;stroke-width:1.35266495;stroke-linecap:butt;stroke-linejoin:miter;stroke-miterlimit:4;stroke-dasharray:none;stroke-dashoffset:0;stroke-opacity:1" />
  </g>
  <path
     style="opacity:1;vector-effect:none;fill:#9e9e9e;fill-opacity:1;fill-rule:evenodd;stroke-width:1.73905194;stroke-linecap:butt;stroke-linejoin:miter;stroke-miterlimit:4;stroke-dasharray:none;stroke-dashoffset:0;stroke-opacity:1"
     d="m 16.182448,25.992591 a 5,5 0 0 0 -0.190986,1.990341 5,5 0 0 0 5.500709,4.44322 A 5,5 0 0 0 25.849464,28.5 Z"
     id="path2118"
     inkscape:connector-curvature="0" />
  <rect
     style="opacity:1;vector-effect:none;fill:#9e9e9e;fill-opacity:1;fill-rule:evenodd;stroke-width:1.03853095;stroke-linecap:butt;stroke-linejoin:miter;stroke-miterlimit:4;stroke-dasharray:none;stroke-dashoffset:0;stroke-opacity:1"
     id="rect2124"
     width="1"
     height="18"
     x="34.318203"
     y="-1.4104798"
     transform="rotate(23.954014)" />
  <path
     style="opacity:1;vector-effect:none;fill:none;fill-opacity:1;fill-rule:evenodd;stroke:#000000;stroke-width:1;stroke-linecap:round;stroke-linejoin:round;stroke-miterlimit:4;stroke-dasharray:12, 1;stroke-dashoffset:0;stroke-opacity:0.12941176"
     d="m 32.756088,14.160896 c 0.27813,-1.06898 1.370179,-1.71009 2.43916,-1.431958 1.068979,0.27813 1.710088,1.37018 1.431958,2.439158"
     id="path2126-9"
     inkscape:connector-curvature="0"
     sodipodi:nodetypes="csc" />
  <path
     style="opacity:1;vector-effect:none;fill:none;fill-opacity:1;fill-rule:evenodd;stroke:#9e9e9e;stroke-width:1;stroke-linecap:round;stroke-linejoin:round;stroke-miterlimit:4;stroke-dasharray:12, 1;stroke-dashoffset:0;stroke-opacity:1"
     d="m 32.19118,13.305201 c 0.27813,-1.06898 1.370179,-1.710089 2.439159,-1.431958 1.068979,0.27813 1.710088,1.37018 1.431958,2.439158"
     id="path2126"
     inkscape:connector-curvature="0"
     sodipodi:nodetypes="csc" />
</svg>
