<?xml version="1.0" encoding="UTF-8" standalone="no"?>
<svg
   xmlns:dc="http://purl.org/dc/elements/1.1/"
   xmlns:cc="http://creativecommons.org/ns#"
   xmlns:rdf="http://www.w3.org/1999/02/22-rdf-syntax-ns#"
   xmlns:svg="http://www.w3.org/2000/svg"
   xmlns="http://www.w3.org/2000/svg"
   xmlns:sodipodi="http://sodipodi.sourceforge.net/DTD/sodipodi-0.dtd"
   xmlns:inkscape="http://www.inkscape.org/namespaces/inkscape"
   viewBox="0 0 48 48"
   id="svg2"
   version="1.1"
   inkscape:version="0.48.5 r10040"
   width="100%"
   height="100%"
   sodipodi:docname="com_android_deskclock.svg">
  <metadata
     id="metadata75">
    <rdf:RDF>
      <cc:Work
         rdf:about="">
        <dc:format>image/svg+xml</dc:format>
        <dc:type
           rdf:resource="http://purl.org/dc/dcmitype/StillImage" />
      </cc:Work>
    </rdf:RDF>
  </metadata>
  <sodipodi:namedview
     pagecolor="#ffffff"
     bordercolor="#666666"
     borderopacity="1"
     objecttolerance="10"
     gridtolerance="10"
     guidetolerance="10"
     inkscape:pageopacity="0"
     inkscape:pageshadow="2"
     inkscape:window-width="1920"
     inkscape:window-height="1008"
     id="namedview73"
     showgrid="false"
     inkscape:zoom="13.906433"
     inkscape:cx="9.6758551"
     inkscape:cy="23.78552"
     inkscape:window-x="0"
     inkscape:window-y="34"
     inkscape:window-maximized="1"
     inkscape:current-layer="g55" />
  <defs
     id="defs4">
    <linearGradient
       id="linearGradient3764"
       y1="47"
       x2="0"
       y2="1"
       gradientUnits="userSpaceOnUse">
      <stop
         stop-color="#2e9e8a"
         stop-opacity="1"
         id="stop7" />
      <stop
         offset="1"
         stop-color="#32ad98"
         stop-opacity="1"
         id="stop9" />
    </linearGradient>
    <clipPath
       id="clipPath-232152332">
      <g
         transform="translate(0,-1004.3622)"
         id="g12">
        <path
           d="m -24 13 c 0 1.105 -0.672 2 -1.5 2 -0.828 0 -1.5 -0.895 -1.5 -2 0 -1.105 0.672 -2 1.5 -2 0.828 0 1.5 0.895 1.5 2 z"
           transform="matrix(15.333333,0,0,11.5,414.99999,878.8622)"
           fill="#1890d0"
           id="path14" />
      </g>
    </clipPath>
    <clipPath
       id="clipPath-250416042">
      <g
         transform="translate(0,-1004.3622)"
         id="g17">
        <path
           d="m -24 13 c 0 1.105 -0.672 2 -1.5 2 -0.828 0 -1.5 -0.895 -1.5 -2 0 -1.105 0.672 -2 1.5 -2 0.828 0 1.5 0.895 1.5 2 z"
           transform="matrix(15.333333,0,0,11.5,414.99999,878.8622)"
           fill="#1890d0"
           id="path19" />
      </g>
    </clipPath>
  </defs>
  <g
     id="g21">
    <path
       d="m 36.31 5 c 5.859 4.062 9.688 10.831 9.688 18.5 c 0 12.426 -10.07 22.5 -22.5 22.5 c -7.669 0 -14.438 -3.828 -18.5 -9.688 c 1.037 1.822 2.306 3.499 3.781 4.969 c 4.085 3.712 9.514 5.969 15.469 5.969 c 12.703 0 23 -10.298 23 -23 c 0 -5.954 -2.256 -11.384 -5.969 -15.469 c -1.469 -1.475 -3.147 -2.744 -4.969 -3.781 z m 4.969 3.781 c 3.854 4.113 6.219 9.637 6.219 15.719 c 0 12.703 -10.297 23 -23 23 c -6.081 0 -11.606 -2.364 -15.719 -6.219 c 4.16 4.144 9.883 6.719 16.219 6.719 c 12.703 0 23 -10.298 23 -23 c 0 -6.335 -2.575 -12.06 -6.719 -16.219 z"
       opacity="0.05"
       id="path23" />
    <path
       d="m 41.28 8.781 c 3.712 4.085 5.969 9.514 5.969 15.469 c 0 12.703 -10.297 23 -23 23 c -5.954 0 -11.384 -2.256 -15.469 -5.969 c 4.113 3.854 9.637 6.219 15.719 6.219 c 12.703 0 23 -10.298 23 -23 c 0 -6.081 -2.364 -11.606 -6.219 -15.719 z"
       opacity="0.1"
       id="path25" />
    <path
       d="m 31.25 2.375 c 8.615 3.154 14.75 11.417 14.75 21.13 c 0 12.426 -10.07 22.5 -22.5 22.5 c -9.708 0 -17.971 -6.135 -21.12 -14.75 a 23 23 0 0 0 44.875 -7 a 23 23 0 0 0 -16 -21.875 z"
       opacity="0.2"
       id="path27" />
  </g>
  <g
     id="g29">
    <path
       d="m 24 1 c 12.703 0 23 10.297 23 23 c 0 12.703 -10.297 23 -23 23 -12.703 0 -23 -10.297 -23 -23 0 -12.703 10.297 -23 23 -23 z"
       fill="url(#linearGradient3764)"
       fill-opacity="1"
       id="path31" />
  </g>
  <g
     id="g33">
    <g
       clip-path="url(#clipPath-232152332)"
       id="g35">
      <g
         transform="translate(1,1)"
         id="g37">
        <g
           opacity="0.1"
           id="g39">
          <!-- color: #32ad98 -->
          <rect
             width="36"
             x="6"
             y="6"
             rx="18"
             height="36"
             fill-rule="evenodd"
             fill="#000"
             id="rect41" />
          <g
             id="g43">
            <path
               d="m 22.438 23.73 l -5.168 -5.168 c -0.359 -0.359 -0.359 -0.938 0 -1.293 c 0.355 -0.359 0.934 -0.359 1.293 0 l 5.168 5.168 c 0.359 0.359 0.359 0.938 0 1.293 c -0.355 0.359 -0.934 0.359 -1.293 0 m 0 0"
               fill="#000"
               id="path45" />
            <path
               d="m 23.934 23 l 13.13 0 c 0.516 0 0.938 0.418 0.938 0.934 l 0 0.129 c 0 0.516 -0.422 0.934 -0.938 0.934 l -13.13 0 c -0.516 0 -0.934 -0.418 -0.934 -0.934 l 0 -0.129 c 0 -0.516 0.418 -0.934 0.934 -0.934 m 0 0"
               fill="#000"
               id="path47" />
            <path
               d="m 16.555 36.25 l 7.06 -13 c 0.133 -0.238 0.418 -0.32 0.645 -0.184 c 0.227 0.137 0.301 0.445 0.172 0.684 l -7.06 13 c -0.129 0.238 -0.418 0.32 -0.645 0.184 c -0.223 -0.141 -0.301 -0.445 -0.172 -0.684 m 0 0"
               fill="#000"
               id="path49" />
            <path
               d="m 27 24 c 0 1.656 -1.344 2.996 -3 2.996 c -1.656 0 -3 -1.34 -3 -2.996 c 0 -1.66 1.344 -3 3 -3 c 1.66 0 3 1.344 3 3 m 0 0"
               fill="#000"
               id="path51" />
          </g>
        </g>
      </g>
    </g>
  </g>
  <g
     id="g53">
    <g
       clip-path="url(#clipPath-250416042)"
       id="g55">
      <!-- color: #32ad98 -->
      <rect
         width="36"
         x="6"
         y="6"
         rx="18"
         height="36"
         fill="#eaeaea"
         fill-rule="evenodd"
         id="rect57" />
      <g
         id="g3052"
         transform="translate(1.0003142,1.0003477)"
         style="fill:#c2c2c2;fill-opacity:1">
        <path
           id="path3054"
           d="M 22.438,23.73 17.27,18.562 c -0.359,-0.359 -0.359,-0.938 0,-1.293 0.355,-0.359 0.934,-0.359 1.293,0 l 5.168,5.168 c 0.359,0.359 0.359,0.938 0,1.293 -0.355,0.359 -0.934,0.359 -1.293,0 m 0,0"
           inkscape:connector-curvature="0"
           style="fill:#c2c2c2;fill-opacity:1" />
        <path
           id="path3056"
           d="m 23.934,23 13.13,0 c 0.516,0 0.938,0.418 0.938,0.934 l 0,0.129 c 0,0.516 -0.422,0.934 -0.938,0.934 l -13.13,0 C 23.418,24.997 23,24.579 23,24.063 l 0,-0.129 C 23,23.418 23.418,23 23.934,23 m 0,0"
           inkscape:connector-curvature="0"
           style="fill:#c2c2c2;fill-opacity:1" />
        <path
           id="path3058"
           d="m 16.555,36.25 7.06,-13 c 0.133,-0.238 0.418,-0.32 0.645,-0.184 0.227,0.137 0.301,0.445 0.172,0.684 l -7.06,13 c -0.129,0.238 -0.418,0.32 -0.645,0.184 -0.223,-0.141 -0.301,-0.445 -0.172,-0.684 m 0,0"
           inkscape:connector-curvature="0"
           style="fill:#c2c2c2;fill-opacity:1" />
        <path
           id="path3060"
           d="m 27,24 c 0,1.656 -1.344,2.996 -3,2.996 -1.656,0 -3,-1.34 -3,-2.996 0,-1.66 1.344,-3 3,-3 1.66,0 3,1.344 3,3 m 0,0"
           inkscape:connector-curvature="0"
           style="fill:#c2c2c2;fill-opacity:1" />
      </g>
      <g
         id="g59">
        <path
           d="m 22.438 23.73 l -5.168 -5.168 c -0.359 -0.359 -0.359 -0.938 0 -1.293 c 0.355 -0.359 0.934 -0.359 1.293 0 l 5.168 5.168 c 0.359 0.359 0.359 0.938 0 1.293 c -0.355 0.359 -0.934 0.359 -1.293 0 m 0 0"
           id="path61"
           fill="#2d2d2d" />
        <path
           d="m 23.934 23 l 13.13 0 c 0.516 0 0.938 0.418 0.938 0.934 l 0 0.129 c 0 0.516 -0.422 0.934 -0.938 0.934 l -13.13 0 c -0.516 0 -0.934 -0.418 -0.934 -0.934 l 0 -0.129 c 0 -0.516 0.418 -0.934 0.934 -0.934 m 0 0"
           id="path63"
           fill="#2d2d2d" />
        <path
           d="m 16.555 36.25 l 7.06 -13 c 0.133 -0.238 0.418 -0.32 0.645 -0.184 c 0.227 0.137 0.301 0.445 0.172 0.684 l -7.06 13 c -0.129 0.238 -0.418 0.32 -0.645 0.184 c -0.223 -0.141 -0.301 -0.445 -0.172 -0.684 m 0 0"
           id="path65"
           fill="#3085ab" />
        <path
           d="m 27 24 c 0 1.656 -1.344 2.996 -3 2.996 c -1.656 0 -3 -1.34 -3 -2.996 c 0 -1.66 1.344 -3 3 -3 c 1.66 0 3 1.344 3 3 m 0 0"
           id="path67"
           fill="#2d2d2d" />
      </g>
    </g>
  </g>
  <g
     id="g69">
    <path
       d="m 40.03 7.531 c 3.712 4.084 5.969 9.514 5.969 15.469 0 12.703 -10.297 23 -23 23 c -5.954 0 -11.384 -2.256 -15.469 -5.969 4.178 4.291 10.01 6.969 16.469 6.969 c 12.703 0 23 -10.298 23 -23 0 -6.462 -2.677 -12.291 -6.969 -16.469 z"
       opacity="0.1"
       id="path71" />
  </g>
</svg>
