<?xml version="1.0" encoding="UTF-8" standalone="no"?>
<svg
   xmlns:dc="http://purl.org/dc/elements/1.1/"
   xmlns:cc="http://creativecommons.org/ns#"
   xmlns:rdf="http://www.w3.org/1999/02/22-rdf-syntax-ns#"
   xmlns:svg="http://www.w3.org/2000/svg"
   xmlns="http://www.w3.org/2000/svg"
   xmlns:sodipodi="http://sodipodi.sourceforge.net/DTD/sodipodi-0.dtd"
   xmlns:inkscape="http://www.inkscape.org/namespaces/inkscape"
   viewBox="0 0 48 48"
   id="svg2"
   version="1.1"
   inkscape:version="0.92.3 (2405546, 2018-03-11)"
   width="100%"
   height="100%"
   sodipodi:docname="com_soundbrenner_pulse.svg">
  <metadata
     id="metadata67">
    <rdf:RDF>
      <cc:Work
         rdf:about="">
        <dc:format>image/svg+xml</dc:format>
        <dc:type
           rdf:resource="http://purl.org/dc/dcmitype/StillImage" />
        <dc:title></dc:title>
      </cc:Work>
    </rdf:RDF>
  </metadata>
  <sodipodi:namedview
     pagecolor="#ffffff"
     bordercolor="#666666"
     borderopacity="1"
     objecttolerance="10"
     gridtolerance="10"
     guidetolerance="10"
     inkscape:pageopacity="0"
     inkscape:pageshadow="2"
     inkscape:window-width="3200"
     inkscape:window-height="1650"
     id="namedview65"
     showgrid="false"
     inkscape:zoom="17.386667"
     inkscape:cx="24"
     inkscape:cy="24"
     inkscape:window-x="0"
     inkscape:window-y="82"
     inkscape:window-maximized="1"
     inkscape:current-layer="svg2" />
  <defs
     id="defs4">
    <linearGradient
       id="linearGradient3764"
       y1="47"
       x2="0"
       y2="1"
       gradientUnits="userSpaceOnUse">
      <stop
         stop-color="#5c5c5c"
         stop-opacity="1"
         id="stop7" />
      <stop
         offset="1"
         stop-color="#666"
         stop-opacity="1"
         id="stop9" />
    </linearGradient>
    <clipPath
       id="clipPath-686886115">
      <g
         transform="translate(0,-1004.3622)"
         id="g12">
        <path
           d="m -24 13 c 0 1.105 -0.672 2 -1.5 2 -0.828 0 -1.5 -0.895 -1.5 -2 0 -1.105 0.672 -2 1.5 -2 0.828 0 1.5 0.895 1.5 2 z"
           transform="matrix(15.333333,0,0,11.5,414.99999,878.8622)"
           fill="#1890d0"
           id="path14" />
      </g>
    </clipPath>
    <clipPath
       id="clipPath-711547148">
      <g
         transform="translate(0,-1004.3622)"
         id="g17">
        <path
           d="m -24 13 c 0 1.105 -0.672 2 -1.5 2 -0.828 0 -1.5 -0.895 -1.5 -2 0 -1.105 0.672 -2 1.5 -2 0.828 0 1.5 0.895 1.5 2 z"
           transform="matrix(15.333333,0,0,11.5,414.99999,878.8622)"
           fill="#1890d0"
           id="path19" />
      </g>
    </clipPath>
  </defs>
  <g
     id="g21">
    <path
       d="m 36.31 5 c 5.859 4.062 9.688 10.831 9.688 18.5 c 0 12.426 -10.07 22.5 -22.5 22.5 c -7.669 0 -14.438 -3.828 -18.5 -9.688 c 1.037 1.822 2.306 3.499 3.781 4.969 c 4.085 3.712 9.514 5.969 15.469 5.969 c 12.703 0 23 -10.298 23 -23 c 0 -5.954 -2.256 -11.384 -5.969 -15.469 c -1.469 -1.475 -3.147 -2.744 -4.969 -3.781 z m 4.969 3.781 c 3.854 4.113 6.219 9.637 6.219 15.719 c 0 12.703 -10.297 23 -23 23 c -6.081 0 -11.606 -2.364 -15.719 -6.219 c 4.16 4.144 9.883 6.719 16.219 6.719 c 12.703 0 23 -10.298 23 -23 c 0 -6.335 -2.575 -12.06 -6.719 -16.219 z"
       opacity="0.05"
       id="path23" />
    <path
       d="m 41.28 8.781 c 3.712 4.085 5.969 9.514 5.969 15.469 c 0 12.703 -10.297 23 -23 23 c -5.954 0 -11.384 -2.256 -15.469 -5.969 c 4.113 3.854 9.637 6.219 15.719 6.219 c 12.703 0 23 -10.298 23 -23 c 0 -6.081 -2.364 -11.606 -6.219 -15.719 z"
       opacity="0.1"
       id="path25" />
    <path
       d="m 31.25 2.375 c 8.615 3.154 14.75 11.417 14.75 21.13 c 0 12.426 -10.07 22.5 -22.5 22.5 c -9.708 0 -17.971 -6.135 -21.12 -14.75 a 23 23 0 0 0 44.875 -7 a 23 23 0 0 0 -16 -21.875 z"
       opacity="0.2"
       id="path27" />
  </g>
  <g
     id="g29">
    <path
       d="m 24 1 c 12.703 0 23 10.297 23 23 c 0 12.703 -10.297 23 -23 23 -12.703 0 -23 -10.297 -23 -23 0 -12.703 10.297 -23 23 -23 z"
       fill="url(#linearGradient3764)"
       fill-opacity="1"
       id="path31" />
  </g>
  <g
     id="g61">
    <path
       d="m 40.03 7.531 c 3.712 4.084 5.969 9.514 5.969 15.469 0 12.703 -10.297 23 -23 23 c -5.954 0 -11.384 -2.256 -15.469 -5.969 4.178 4.291 10.01 6.969 16.469 6.969 c 12.703 0 23 -10.298 23 -23 0 -6.462 -2.677 -12.291 -6.969 -16.469 z"
       opacity="0.1"
       id="path63" />
  </g>
  <path
     style="fill:#000000;fill-opacity:0.2;stroke-width:0.04642081;image-rendering:optimizeQuality;shape-rendering:geometricPrecision;text-rendering:geometricPrecision"
     inkscape:connector-curvature="0"
     id="path8-5"
     d="m 12,23.617021 v 2.765957 c 0,1.106383 1.682804,1.106383 1.682804,0 V 23.617021 C 13.729544,22.556737 12,22.510638 12,23.617021 Z"
     class="fil0" />
  <path
     style="fill:#000000;fill-opacity:0.2;stroke-width:0.04642081;image-rendering:optimizeQuality;shape-rendering:geometricPrecision;text-rendering:geometricPrecision"
     inkscape:connector-curvature="0"
     id="path10-3"
     d="m 15.818864,22.464539 v 5.117021 c 0,1.106383 1.682805,1.106383 1.682805,0 v -5.117021 c 0,-1.106383 -1.682805,-1.106383 -1.682805,0 z"
     class="fil0" />
  <path
     style="fill:#000000;fill-opacity:0.2;stroke-width:0.04642081;image-rendering:optimizeQuality;shape-rendering:geometricPrecision;text-rendering:geometricPrecision"
     inkscape:connector-curvature="0"
     id="path14-6-5"
     d="m 19.871451,18.638298 v 12.769503 c 0,1.106383 1.682805,1.106383 1.682805,0 V 18.638298 c 0,-1.106383 -1.682805,-1.106383 -1.682805,0 z"
     class="fil0" />
  <path
     style="fill:#000000;fill-opacity:0.2;stroke-width:0.04466843;image-rendering:optimizeQuality;shape-rendering:geometricPrecision;text-rendering:geometricPrecision"
     inkscape:connector-curvature="0"
     id="path16-6"
     d="m 23.728713,13.694247 v 22.53743 c 0,1.02443 1.682804,1.02443 1.682804,0 v -22.53743 c 0,-1.024425 -1.682804,-1.024425 -1.682804,0 z"
     class="fil0" />
  <path
     style="fill:#000000;fill-opacity:0.2;stroke-width:0.04642081;image-rendering:optimizeQuality;shape-rendering:geometricPrecision;text-rendering:geometricPrecision"
     inkscape:connector-curvature="0"
     id="path20-9"
     d="m 27.819697,19.053191 v 11.939716 c 0,1.060284 1.682805,1.060284 1.682805,0 V 19.053191 c 0,-1.106383 -1.682805,-1.106383 -1.682805,0 z"
     class="fil0" />
  <path
     style="fill:#000000;fill-opacity:0.2;stroke-width:0.04642081;image-rendering:optimizeQuality;shape-rendering:geometricPrecision;text-rendering:geometricPrecision"
     inkscape:connector-curvature="0"
     id="path24-1"
     d="m 32.115189,22.602837 v 4.794326 c 0,1.106383 1.682805,1.106383 1.682805,0 v -4.794326 c 0,-1.060284 -1.682805,-1.060284 -1.682805,0 z"
     class="fil0" />
  <path
     style="fill:#000000;fill-opacity:0.2;stroke-width:0.04642081;image-rendering:optimizeQuality;shape-rendering:geometricPrecision;text-rendering:geometricPrecision"
     inkscape:connector-curvature="0"
     id="path26-2"
     d="m 36.317192,23.617021 v 2.765957 c 0,1.106383 1.682805,1.106383 1.682805,0 v -2.765957 c 0,-1.060284 -1.682805,-1.060284 -1.682805,0 z"
     class="fil0" />
  <path
     style="fill:#f5f5f5;fill-opacity:0.94117647;stroke-width:0.04642081;image-rendering:optimizeQuality;shape-rendering:geometricPrecision;text-rendering:geometricPrecision"
     inkscape:connector-curvature="0"
     id="path8"
     d="m 11,22.617018 v 2.765957 c 0,1.106383 1.682804,1.106383 1.682804,0 V 22.617018 C 12.729544,21.556734 11,21.510635 11,22.617018 Z"
     class="fil0" />
  <path
     style="fill:#f5f5f5;fill-opacity:0.94117647;stroke-width:0.04642081;image-rendering:optimizeQuality;shape-rendering:geometricPrecision;text-rendering:geometricPrecision"
     inkscape:connector-curvature="0"
     id="path10"
     d="m 14.818864,21.464536 v 5.117021 c 0,1.106383 1.682805,1.106383 1.682805,0 v -5.117021 c 0,-1.106383 -1.682805,-1.106383 -1.682805,0 z"
     class="fil0" />
  <path
     style="fill:#f5f5f5;fill-opacity:0.94117647;stroke-width:0.04642081;image-rendering:optimizeQuality;shape-rendering:geometricPrecision;text-rendering:geometricPrecision"
     inkscape:connector-curvature="0"
     id="path14-6"
     d="m 18.871452,17.638295 v 12.769503 c 0,1.106383 1.682804,1.106383 1.682804,0 V 17.638295 c 0,-1.106383 -1.682804,-1.106383 -1.682804,0 z"
     class="fil0" />
  <path
     style="fill:#f5f5f5;fill-opacity:0.94117647;stroke-width:0.04466843;image-rendering:optimizeQuality;shape-rendering:geometricPrecision;text-rendering:geometricPrecision"
     inkscape:connector-curvature="0"
     id="path16"
     d="m 22.728713,12.768322 v 22.537425 c 0,1.02443 1.682805,1.02443 1.682805,0 V 12.768322 c 0,-1.02443 -1.682805,-1.02443 -1.682805,0 z"
     class="fil0" />
  <path
     style="fill:#f5f5f5;fill-opacity:0.94117647;stroke-width:0.04642081;image-rendering:optimizeQuality;shape-rendering:geometricPrecision;text-rendering:geometricPrecision"
     inkscape:connector-curvature="0"
     id="path20"
     d="m 26.819697,18.053188 v 11.939716 c 0,1.060284 1.682805,1.060284 1.682805,0 V 18.053188 c 0,-1.106383 -1.682805,-1.106383 -1.682805,0 z"
     class="fil0" />
  <path
     style="fill:#f5f5f5;fill-opacity:0.94117647;stroke-width:0.04642081;image-rendering:optimizeQuality;shape-rendering:geometricPrecision;text-rendering:geometricPrecision"
     inkscape:connector-curvature="0"
     id="path24"
     d="m 31.11519,21.602834 v 4.794326 c 0,1.106383 1.682804,1.106383 1.682804,0 v -4.794326 c 0,-1.060284 -1.682804,-1.060284 -1.682804,0 z"
     class="fil0" />
  <path
     style="fill:#f5f5f5;fill-opacity:0.94117647;stroke-width:0.04642081;image-rendering:optimizeQuality;shape-rendering:geometricPrecision;text-rendering:geometricPrecision"
     inkscape:connector-curvature="0"
     id="path26"
     d="m 35.317193,22.617018 v 2.765957 c 0,1.106383 1.682804,1.106383 1.682804,0 v -2.765957 c 0,-1.060284 -1.682804,-1.060284 -1.682804,0 z"
     class="fil0" />
</svg>
