<?xml version="1.0" encoding="UTF-8" standalone="no"?>
<svg
   xmlns:dc="http://purl.org/dc/elements/1.1/"
   xmlns:cc="http://creativecommons.org/ns#"
   xmlns:rdf="http://www.w3.org/1999/02/22-rdf-syntax-ns#"
   xmlns:svg="http://www.w3.org/2000/svg"
   xmlns="http://www.w3.org/2000/svg"
   xmlns:sodipodi="http://sodipodi.sourceforge.net/DTD/sodipodi-0.dtd"
   xmlns:inkscape="http://www.inkscape.org/namespaces/inkscape"
   viewBox="0 0 48 48"
   id="svg2"
   version="1.1"
   inkscape:version="0.92.3 (2405546, 2018-03-11)"
   width="100%"
   height="100%"
   sodipodi:docname="com_sololearn.svg">
  <metadata
     id="metadata67">
    <rdf:RDF>
      <cc:Work
         rdf:about="">
        <dc:format>image/svg+xml</dc:format>
        <dc:type
           rdf:resource="http://purl.org/dc/dcmitype/StillImage" />
        <dc:title></dc:title>
      </cc:Work>
    </rdf:RDF>
  </metadata>
  <sodipodi:namedview
     pagecolor="#ffffff"
     bordercolor="#666666"
     borderopacity="1"
     objecttolerance="10"
     gridtolerance="10"
     guidetolerance="10"
     inkscape:pageopacity="0"
     inkscape:pageshadow="2"
     inkscape:window-width="3200"
     inkscape:window-height="1666"
     id="namedview65"
     showgrid="true"
     inkscape:zoom="22.05"
     inkscape:cx="48.507678"
     inkscape:cy="18.84517"
     inkscape:window-x="0"
     inkscape:window-y="82"
     inkscape:window-maximized="1"
     inkscape:current-layer="svg2">
    <inkscape:grid
       type="xygrid"
       id="grid855"
       empspacing="4" />
  </sodipodi:namedview>
  <defs
     id="defs4">
    <linearGradient
       id="linearGradient3764"
       y1="47"
       x2="0"
       y2="1"
       gradientUnits="userSpaceOnUse">
      <stop
         stop-color="#5c5c5c"
         stop-opacity="1"
         id="stop7" />
      <stop
         offset="1"
         stop-color="#666"
         stop-opacity="1"
         id="stop9" />
    </linearGradient>
    <clipPath
       id="clipPath-686886115">
      <g
         transform="translate(0,-1004.3622)"
         id="g12">
        <path
           d="m -24 13 c 0 1.105 -0.672 2 -1.5 2 -0.828 0 -1.5 -0.895 -1.5 -2 0 -1.105 0.672 -2 1.5 -2 0.828 0 1.5 0.895 1.5 2 z"
           transform="matrix(15.333333,0,0,11.5,414.99999,878.8622)"
           fill="#1890d0"
           id="path14" />
      </g>
    </clipPath>
    <clipPath
       id="clipPath-711547148">
      <g
         transform="translate(0,-1004.3622)"
         id="g17">
        <path
           d="m -24 13 c 0 1.105 -0.672 2 -1.5 2 -0.828 0 -1.5 -0.895 -1.5 -2 0 -1.105 0.672 -2 1.5 -2 0.828 0 1.5 0.895 1.5 2 z"
           transform="matrix(15.333333,0,0,11.5,414.99999,878.8622)"
           fill="#1890d0"
           id="path19" />
      </g>
    </clipPath>
  </defs>
  <g
     id="g21">
    <path
       d="m 36.31 5 c 5.859 4.062 9.688 10.831 9.688 18.5 c 0 12.426 -10.07 22.5 -22.5 22.5 c -7.669 0 -14.438 -3.828 -18.5 -9.688 c 1.037 1.822 2.306 3.499 3.781 4.969 c 4.085 3.712 9.514 5.969 15.469 5.969 c 12.703 0 23 -10.298 23 -23 c 0 -5.954 -2.256 -11.384 -5.969 -15.469 c -1.469 -1.475 -3.147 -2.744 -4.969 -3.781 z m 4.969 3.781 c 3.854 4.113 6.219 9.637 6.219 15.719 c 0 12.703 -10.297 23 -23 23 c -6.081 0 -11.606 -2.364 -15.719 -6.219 c 4.16 4.144 9.883 6.719 16.219 6.719 c 12.703 0 23 -10.298 23 -23 c 0 -6.335 -2.575 -12.06 -6.719 -16.219 z"
       id="path23"
       opacity="0.05" />
    <path
       d="m 41.28 8.781 c 3.712 4.085 5.969 9.514 5.969 15.469 c 0 12.703 -10.297 23 -23 23 c -5.954 0 -11.384 -2.256 -15.469 -5.969 c 4.113 3.854 9.637 6.219 15.719 6.219 c 12.703 0 23 -10.298 23 -23 c 0 -6.081 -2.364 -11.606 -6.219 -15.719 z"
       id="path25"
       opacity="0.1" />
    <path
       d="m 31.25 2.375 c 8.615 3.154 14.75 11.417 14.75 21.13 c 0 12.426 -10.07 22.5 -22.5 22.5 c -9.708 0 -17.971 -6.135 -21.12 -14.75 a 23 23 0 0 0 44.875 -7 a 23 23 0 0 0 -16 -21.875 z"
       id="path27"
       opacity="0.2" />
  </g>
  <g
     id="g29">
    <path
       d="M 24,1 C 36.703,1 47,11.297 47,24 47,36.703 36.703,47 24,47 11.297,47 1,36.703 1,24 1,11.297 11.297,1 24,1 Z"
       id="path31"
       style="fill:url(#linearGradient3764);fill-opacity:1"
       inkscape:connector-curvature="0" />
  </g>
  <g
     id="g61">
    <path
       d="m 40.03 7.531 c 3.712 4.084 5.969 9.514 5.969 15.469 0 12.703 -10.297 23 -23 23 c -5.954 0 -11.384 -2.256 -15.469 -5.969 4.178 4.291 10.01 6.969 16.469 6.969 c 12.703 0 23 -10.298 23 -23 0 -6.462 -2.677 -12.291 -6.969 -16.469 z"
       id="path63"
       opacity="0.1" />
  </g>
  <g
     id="g1771-7"
     style="fill:#000000;fill-opacity:0.12941176"
     transform="matrix(0.99997127,0,0,0.99978225,1.0011064,1.0048131)" />
  <g
     id="g2723"
     transform="matrix(1,0,0,0.99765236,0.5,0.5281717)">
    <path
       id="path2-2"
       d="m 16.062543,13 c -0.275528,0 -0.551877,0.09723 -0.751953,0.291482 -0.41412,0.402082 -0.41412,1.057298 0,1.45938 l 1.861328,1.807975 c -0.748202,1.01307 -1.214476,2.146465 -1.404297,3.332349 h 18.236328 c -0.18244,-1.135089 -0.612344,-2.225015 -1.30664,-3.204332 l 1.992187,-1.935992 c 0.20023,-0.19411 0.310547,-0.452615 0.310547,-0.728705 0,-0.276094 -0.110325,-0.536565 -0.310547,-0.730675 -0.399531,-0.388518 -1.101803,-0.388518 -1.501953,0 l -1.904297,1.849334 c -0.007,-0.006 -0.01442,-0.01169 -0.02148,-0.01773 v 0.03348 H 18.611371 V 15.040374 L 16.812543,13.291482 C 16.612778,13.097223 16.338071,13 16.062543,13 Z m 4.1875,3.36189 a 1.25,1.2604629 0 0 1 1.25,1.260463 1.25,1.2604629 0 0 1 -1.25,1.260463 1.25,1.2604629 0 0 1 -1.25,-1.260463 1.25,1.2604629 0 0 1 1.25,-1.260463 z m 9,0 a 1.25,1.2604629 0 0 1 1.25,1.260463 1.25,1.2604629 0 0 1 -1.25,1.260463 1.25,1.2604629 0 0 1 -1.25,-1.260463 1.25,1.2604629 0 0 1 1.25,-1.260463 z m -13.587891,5.546037 v 0.212704 1.804036 h 0.0039 l 0.01758,7.263418 c 2.02e-4,0.0832 0.06884,0.822249 0.49414,1.254554 C 16.603084,32.874948 17.38491,33 17.470746,33 h 15.046875 c 0.08584,0 0.795691,-0.111896 1.173828,-0.569178 0.378138,-0.457281 0.423828,-1.259992 0.423828,-1.34318 V 23.91679 h 0.0039 l -0.0039,-1.796159 v -0.212704 z"
       style="fill:#000000;fill-opacity:0.12941176;stroke-width:0.30589002"
       inkscape:connector-curvature="0" />
    <path
       inkscape:connector-curvature="0"
       id="path2"
       d="m 15.0625,12 c -0.275528,0 -0.551877,0.09722 -0.751953,0.291482 -0.41412,0.402082 -0.41412,1.057298 0,1.45938 l 1.861328,1.807975 c -0.748202,1.01307 -1.214476,2.146465 -1.404297,3.332349 h 18.236328 c -0.18244,-1.135089 -0.612344,-2.225015 -1.30664,-3.204332 l 1.992187,-1.935992 C 33.889683,13.556752 34,13.298247 34,13.022157 c 0,-0.276094 -0.110325,-0.536565 -0.310547,-0.730675 -0.399531,-0.388518 -1.101803,-0.388518 -1.501953,0 l -1.904297,1.849334 c -0.007,-0.0061 -0.01442,-0.01169 -0.02148,-0.01772 v 0.03348 H 17.611328 V 14.040374 L 15.8125,12.291482 C 15.612735,12.097223 15.338028,12 15.0625,12 Z M 19.25,15.36189 A 1.25,1.2604629 0 0 1 20.5,16.622353 1.25,1.2604629 0 0 1 19.25,17.882816 1.25,1.2604629 0 0 1 18,16.622353 1.25,1.2604629 0 0 1 19.25,15.36189 Z m 9,0 A 1.25,1.2604629 0 0 1 29.5,16.622353 1.25,1.2604629 0 0 1 28.25,17.882816 1.25,1.2604629 0 0 1 27,16.622353 1.25,1.2604629 0 0 1 28.25,15.36189 Z m -13.587891,5.546037 v 0.212704 1.804036 h 0.0039 l 0.01758,7.263418 c 2.02e-4,0.0832 0.06884,0.822249 0.49414,1.254554 C 15.603041,31.874948 16.384867,32 16.470703,32 h 15.046875 c 0.08584,0 0.795691,-0.111896 1.173828,-0.569178 0.378138,-0.457281 0.423828,-1.259992 0.423828,-1.34318 V 22.91679 h 0.0039 l -0.0039,-1.796159 v -0.212704 z"
       style="fill:#9ccc65;fill-opacity:1;stroke-width:0.30589002" />
    <rect
       transform="matrix(0.53697826,0.84359608,-0.88588281,0.46390909,0,0)"
       rx="1.5300132"
       y="-8.9317598"
       x="41.03524"
       height="9.638011"
       width="3.0600264"
       id="rect882-3-1"
       style="opacity:1;vector-effect:none;fill:#000000;fill-opacity:0.12941176;fill-rule:evenodd;stroke-width:1.49948096;stroke-linecap:butt;stroke-linejoin:miter;stroke-miterlimit:4;stroke-dasharray:none;stroke-dashoffset:0;stroke-opacity:1" />
    <rect
       transform="matrix(0.53697826,0.84359608,-0.88588281,0.46390909,0,0)"
       rx="1.5300132"
       y="-8.6240473"
       x="39.680618"
       height="9.638011"
       width="3.0600264"
       id="rect882-3"
       style="opacity:1;vector-effect:none;fill:#7cb342;fill-opacity:1;fill-rule:evenodd;stroke-width:1.49948096;stroke-linecap:butt;stroke-linejoin:miter;stroke-miterlimit:4;stroke-dasharray:none;stroke-dashoffset:0;stroke-opacity:1" />
    <rect
       transform="matrix(0.53697062,-0.84360094,0.885879,0.46391636,0,0)"
       rx="1.5300232"
       y="33.43042"
       x="-20.868792"
       height="9.6379814"
       width="3.0600464"
       id="rect882-3-6-6"
       style="opacity:1;vector-effect:none;fill:#000000;fill-opacity:0.12941176;fill-rule:evenodd;stroke-width:1.49948335;stroke-linecap:butt;stroke-linejoin:miter;stroke-miterlimit:4;stroke-dasharray:none;stroke-dashoffset:0;stroke-opacity:1" />
    <rect
       transform="matrix(0.53697062,-0.84360094,0.885879,0.46391636,0,0)"
       rx="1.5300232"
       y="32.01321"
       x="-20.393019"
       height="9.6379814"
       width="3.0600464"
       id="rect882-3-6"
       style="opacity:1;vector-effect:none;fill:#8bc34a;fill-opacity:1;fill-rule:evenodd;stroke-width:1.49948335;stroke-linecap:butt;stroke-linejoin:miter;stroke-miterlimit:4;stroke-dasharray:none;stroke-dashoffset:0;stroke-opacity:1" />
    <rect
       transform="matrix(0.49682987,-0.86784796,0.86418346,0.50317685,0,0)"
       rx="1.6496551"
       y="23.192879"
       x="-14.375664"
       height="9.8561382"
       width="3.2993102"
       id="rect882-35-7"
       style="opacity:1;vector-effect:none;fill:#000000;fill-opacity:0.12941176;fill-rule:evenodd;stroke-width:1.57452512;stroke-linecap:butt;stroke-linejoin:miter;stroke-miterlimit:4;stroke-dasharray:none;stroke-dashoffset:0;stroke-opacity:1" />
    <rect
       transform="matrix(0.49682987,-0.86784796,0.86418346,0.50317685,0,0)"
       rx="1.6496551"
       y="21.828163"
       x="-14.014647"
       height="9.8561382"
       width="3.2993102"
       id="rect882-35"
       style="opacity:1;vector-effect:none;fill:#8bc34a;fill-opacity:1;fill-rule:evenodd;stroke-width:1.57452512;stroke-linecap:butt;stroke-linejoin:miter;stroke-miterlimit:4;stroke-dasharray:none;stroke-dashoffset:0;stroke-opacity:1" />
    <rect
       transform="matrix(0.49684559,0.86783896,-0.86419265,0.50316107,0,0)"
       inkscape:transform-center-y="4.156768"
       inkscape:transform-center-x="-2.3159558"
       rx="1.649603"
       y="-19.295567"
       x="35.711441"
       height="9.8560352"
       width="3.299206"
       id="rect882-5-3"
       style="opacity:1;vector-effect:none;fill:#000000;fill-opacity:0.12941176;fill-rule:evenodd;stroke-width:1.57449198;stroke-linecap:butt;stroke-linejoin:miter;stroke-miterlimit:4;stroke-dasharray:none;stroke-dashoffset:0;stroke-opacity:1" />
    <rect
       transform="matrix(0.49684559,0.86783896,-0.86419265,0.50316107,0,0)"
       inkscape:transform-center-y="4.156768"
       inkscape:transform-center-x="-2.3159558"
       rx="1.649603"
       y="-18.924562"
       x="34.344051"
       height="9.8560352"
       width="3.299206"
       id="rect882-5"
       style="opacity:1;vector-effect:none;fill:#8bc34a;fill-opacity:1;fill-rule:evenodd;stroke-width:1.57449198;stroke-linecap:butt;stroke-linejoin:miter;stroke-miterlimit:4;stroke-dasharray:none;stroke-dashoffset:0;stroke-opacity:1" />
    <g
       style="fill:#000000;fill-opacity:0.12941176"
       id="g8-9"
       transform="matrix(0.31111111,0,0,0.11736527,8.4444444,9.9580838)">
      <g
         style="fill:#000000;fill-opacity:0.12941176"
         id="g6-2">
        <g
           style="fill:#000000;fill-opacity:0.12941176"
           id="g4-2">
          <path
             sodipodi:nodetypes="cccccc"
             inkscape:connector-curvature="0"
             id="polygon2-8"
             d="M 5,60 V 55 L 50.000002,25.918367 95,55 v 5 z"
             style="fill:#000000;fill-opacity:0.12941176" />
        </g>
      </g>
    </g>
    <g
       style="fill:#ffe082;fill-opacity:1"
       id="g8"
       transform="matrix(0.31111111,0,0,0.11736527,8.444444,8.9580838)">
      <g
         style="fill:#ffe082;fill-opacity:1"
         id="g6">
        <g
           style="fill:#ffe082;fill-opacity:1"
           id="g4">
          <path
             sodipodi:nodetypes="cccccc"
             inkscape:connector-curvature="0"
             id="polygon2"
             d="M 5,60 V 55 L 50.000002,25.918367 95,55 v 5 z"
             style="fill:#ffe082;fill-opacity:1" />
        </g>
      </g>
    </g>
  </g>
</svg>
