<?xml version="1.0" encoding="UTF-8" standalone="no"?>
<svg
   xmlns:dc="http://purl.org/dc/elements/1.1/"
   xmlns:cc="http://creativecommons.org/ns#"
   xmlns:rdf="http://www.w3.org/1999/02/22-rdf-syntax-ns#"
   xmlns:svg="http://www.w3.org/2000/svg"
   xmlns="http://www.w3.org/2000/svg"
   xmlns:sodipodi="http://sodipodi.sourceforge.net/DTD/sodipodi-0.dtd"
   xmlns:inkscape="http://www.inkscape.org/namespaces/inkscape"
   viewBox="0 0 48 48"
   id="svg2"
   version="1.1"
   inkscape:version="0.92.4 (unknown)"
   width="100%"
   height="100%"
   sodipodi:docname="com_aurora_adroid.svg">
  <metadata
     id="metadata67">
    <rdf:RDF>
      <cc:Work
         rdf:about="">
        <dc:format>image/svg+xml</dc:format>
        <dc:type
           rdf:resource="http://purl.org/dc/dcmitype/StillImage" />
        <dc:title />
      </cc:Work>
    </rdf:RDF>
  </metadata>
  <sodipodi:namedview
     pagecolor="#ffffff"
     bordercolor="#666666"
     borderopacity="1"
     objecttolerance="10"
     gridtolerance="10"
     guidetolerance="10"
     inkscape:pageopacity="0"
     inkscape:pageshadow="2"
     inkscape:window-width="3200"
     inkscape:window-height="1676"
     id="namedview65"
     showgrid="true"
     inkscape:zoom="6.9835162"
     inkscape:cx="37.46539"
     inkscape:cy="25"
     inkscape:window-x="0"
     inkscape:window-y="82"
     inkscape:window-maximized="1"
     inkscape:current-layer="svg2"
     inkscape:lockguides="true">
    <inkscape:grid
       type="xygrid"
       id="grid922"
       empspacing="4" />
  </sodipodi:namedview>
  <defs
     id="defs4">
    <linearGradient
       id="linearGradient3764"
       y1="47"
       x2="0"
       y2="1"
       gradientUnits="userSpaceOnUse">
      <stop
         stop-color="#5c5c5c"
         stop-opacity="1"
         id="stop7" />
      <stop
         offset="1"
         stop-color="#666"
         stop-opacity="1"
         id="stop9" />
    </linearGradient>
    <clipPath
       id="clipPath-686886115">
      <g
         transform="translate(0,-1004.3622)"
         id="g12">
        <path
           d="m -24 13 c 0 1.105 -0.672 2 -1.5 2 -0.828 0 -1.5 -0.895 -1.5 -2 0 -1.105 0.672 -2 1.5 -2 0.828 0 1.5 0.895 1.5 2 z"
           transform="matrix(15.333333,0,0,11.5,414.99999,878.8622)"
           fill="#1890d0"
           id="path14" />
      </g>
    </clipPath>
    <clipPath
       id="clipPath-711547148">
      <g
         transform="translate(0,-1004.3622)"
         id="g17">
        <path
           d="m -24 13 c 0 1.105 -0.672 2 -1.5 2 -0.828 0 -1.5 -0.895 -1.5 -2 0 -1.105 0.672 -2 1.5 -2 0.828 0 1.5 0.895 1.5 2 z"
           transform="matrix(15.333333,0,0,11.5,414.99999,878.8622)"
           fill="#1890d0"
           id="path19" />
      </g>
    </clipPath>
  </defs>
  <g
     id="g21">
    <path
       d="m 36.31 5 c 5.859 4.062 9.688 10.831 9.688 18.5 c 0 12.426 -10.07 22.5 -22.5 22.5 c -7.669 0 -14.438 -3.828 -18.5 -9.688 c 1.037 1.822 2.306 3.499 3.781 4.969 c 4.085 3.712 9.514 5.969 15.469 5.969 c 12.703 0 23 -10.298 23 -23 c 0 -5.954 -2.256 -11.384 -5.969 -15.469 c -1.469 -1.475 -3.147 -2.744 -4.969 -3.781 z m 4.969 3.781 c 3.854 4.113 6.219 9.637 6.219 15.719 c 0 12.703 -10.297 23 -23 23 c -6.081 0 -11.606 -2.364 -15.719 -6.219 c 4.16 4.144 9.883 6.719 16.219 6.719 c 12.703 0 23 -10.298 23 -23 c 0 -6.335 -2.575 -12.06 -6.719 -16.219 z"
       opacity="0.05"
       id="path23" />
    <path
       d="m 41.28 8.781 c 3.712 4.085 5.969 9.514 5.969 15.469 c 0 12.703 -10.297 23 -23 23 c -5.954 0 -11.384 -2.256 -15.469 -5.969 c 4.113 3.854 9.637 6.219 15.719 6.219 c 12.703 0 23 -10.298 23 -23 c 0 -6.081 -2.364 -11.606 -6.219 -15.719 z"
       opacity="0.1"
       id="path25" />
    <path
       d="m 31.25 2.375 c 8.615 3.154 14.75 11.417 14.75 21.13 c 0 12.426 -10.07 22.5 -22.5 22.5 c -9.708 0 -17.971 -6.135 -21.12 -14.75 a 23 23 0 0 0 44.875 -7 a 23 23 0 0 0 -16 -21.875 z"
       opacity="0.2"
       id="path27" />
  </g>
  <g
     id="g874"
     transform="translate(-68,17)">
    <path
       d="m 92,-16 c 12.703,0 23,10.297 23,23 0,12.703 -10.297,23 -23,23 C 79.297,30 69,19.703 69,7 69,-5.703 79.297,-16 92,-16 Z"
       id="path31"
       style="fill:#5d5b6a;fill-opacity:1"
       inkscape:connector-curvature="0" />
    <path
       inkscape:connector-curvature="0"
       id="path31-7"
       d="M 92,30 C 79.297,30 69,19.703 69,7 69,5.281938 69.193595,3.610518 69.550781,2 H 114.44922 C 114.8064,3.610518 115,5.281938 115,7 115,19.703 104.703,30 92,30 Z"
       style="fill:#353341;fill-opacity:1" />
  </g>
  <g
     id="g61">
    <path
       d="m 40.03 7.531 c 3.712 4.084 5.969 9.514 5.969 15.469 0 12.703 -10.297 23 -23 23 c -5.954 0 -11.384 -2.256 -15.469 -5.969 4.178 4.291 10.01 6.969 16.469 6.969 c 12.703 0 23 -10.298 23 -23 0 -6.462 -2.677 -12.291 -6.969 -16.469 z"
       opacity="0.1"
       id="path63" />
  </g>
  <g
     id="g940"
     transform="translate(-36,-0.5)"
     style="fill:#000000;fill-opacity:0.12941176">
    <path
       style="fill:#000000;fill-opacity:0.12941176;stroke-width:0.1865461"
       inkscape:connector-curvature="0"
       id="path2-0-5"
       d="m 60.4305,13.148362 c -1.51628,0 -2.89485,0.533728 -3.89558,1.39382 l 10e-4,-0.0014 -1.24158,-1.169296 c -0.18108,-0.170533 -0.47745,-0.170533 -0.65853,0 -0.18108,0.170535 -0.18108,0.449649 0,0.620184 l 1.26972,1.19546 0.0113,-0.01167 c -0.63435,0.774462 -1.00919,1.716905 -1.00919,2.731418 v 0.241497 h 11.04513 v -0.24185 c 0,-0.977583 -0.34709,-1.888218 -0.93973,-2.646207 l 0.002,0.0018 1.34934,-1.270419 c 0.18108,-0.170535 0.18108,-0.449648 0,-0.620183 -0.18108,-0.170533 -0.47745,-0.170533 -0.65853,0 l -1.30873,1.23294 0.0109,0.01167 C 63.40134,13.713353 61.98955,13.148451 60.4306,13.148451 Z M 58.17823,16 c 0.41771,0 0.75614,0.318727 0.75614,0.712113 0,0.393387 -0.33824,0.712467 -0.75614,0.712467 -0.41771,0 -0.75652,-0.31908 -0.75652,-0.712467 C 57.42171,16.318727 57.76052,16 58.17823,16 Z m 4.50455,0 c 0.41771,0 0.75651,0.318727 0.75651,0.712113 0,0.393387 -0.33861,0.712467 -0.75651,0.712467 -0.41771,0 -0.75614,-0.31908 -0.75614,-0.712467 C 61.92664,16.318727 62.26507,16 62.68278,16 Z" />
    <rect
       y="19"
       x="55"
       height="10"
       width="11"
       id="rect1764-1"
       style="opacity:1;vector-effect:none;fill:#000000;fill-opacity:0.12941176;fill-rule:evenodd;stroke-width:1.51232541;stroke-linecap:butt;stroke-linejoin:miter;stroke-miterlimit:4;stroke-dasharray:none;stroke-dashoffset:0;stroke-opacity:1" />
  </g>
  <g
     id="g936"
     transform="translate(0.003755,-1)">
    <path
       style="fill:#8bc34a;fill-opacity:1;stroke-width:0.1865461"
       inkscape:connector-curvature="0"
       id="path2-0"
       d="m 23.930405,13.148362 c -1.51628,0 -2.89485,0.533728 -3.89558,1.39382 l 10e-4,-0.0014 -1.24158,-1.169296 c -0.18108,-0.170533 -0.47745,-0.170533 -0.65853,0 -0.18108,0.170535 -0.18108,0.449649 0,0.620184 l 1.26972,1.19546 0.0113,-0.01167 c -0.63435,0.774462 -1.00919,1.716905 -1.00919,2.731418 v 0.241497 h 11.04513 v -0.24185 c 0,-0.977583 -0.34709,-1.888218 -0.93973,-2.646207 l 0.002,0.0018 1.34934,-1.270419 c 0.18108,-0.170535 0.18108,-0.449648 0,-0.620183 -0.18108,-0.170533 -0.47745,-0.170533 -0.65853,0 l -1.30873,1.23294 0.0109,0.01167 c -1.00668,-0.902773 -2.41847,-1.467675 -3.97742,-1.467675 z M 21.678135,16 c 0.41771,0 0.75614,0.318727 0.75614,0.712113 0,0.393387 -0.33824,0.712467 -0.75614,0.712467 -0.41771,0 -0.75652,-0.31908 -0.75652,-0.712467 0,-0.393386 0.33881,-0.712113 0.75652,-0.712113 z m 4.50455,0 c 0.41771,0 0.75651,0.318727 0.75651,0.712113 0,0.393387 -0.33861,0.712467 -0.75651,0.712467 -0.41771,0 -0.75614,-0.31908 -0.75614,-0.712467 0,-0.393386 0.33843,-0.712113 0.75614,-0.712113 z" />
    <rect
       y="19"
       x="18.499905"
       height="10"
       width="11"
       id="rect1764"
       style="opacity:1;vector-effect:none;fill:#8bc34a;fill-opacity:1;fill-rule:evenodd;stroke-width:1.51232541;stroke-linecap:butt;stroke-linejoin:miter;stroke-miterlimit:4;stroke-dasharray:none;stroke-dashoffset:0;stroke-opacity:1" />
    <path
       inkscape:connector-curvature="0"
       id="path2-0-0"
       d="m 18.462133,13.244692 c -0.119281,0 -0.239538,0.04169 -0.330078,0.126953 -0.18108,0.170535 -0.18108,0.448606 0,0.619141 l 1.269531,1.197265 0.01172,-0.01172 c -0.02185,0.02667 -0.03737,0.05692 -0.05859,0.08398 h 0.07617 a 5.5045519,5.5045519 0 0 1 0.609375,-0.724609 c -0.0024,0.0021 -0.0054,0.0038 -0.0078,0.0059 h -0.002 L 18.790227,13.37168 c -0.09054,-0.08527 -0.208844,-0.126953 -0.328125,-0.126953 z m 11.070313,0 c -0.119282,0 -0.239539,0.04169 -0.330079,0.126953 l -1.308593,1.232422 0.0098,0.01172 a 5.5045519,5.5045519 0 0 1 0.525391,0.644531 h 0.08398 l 1.347656,-1.269531 c 0.18108,-0.170535 0.181082,-0.448606 0,-0.619141 -0.09054,-0.08527 -0.208843,-0.126953 -0.328124,-0.126953 z"
       style="fill:#72a537;fill-opacity:1;stroke-width:0.1865461" />
  </g>
  <g
     transform="translate(0.8769531)"
     id="g879-1"
     style="fill:#000000;fill-opacity:0.12941176">
    <path
       inkscape:connector-curvature="0"
       id="rect1572-2-0"
       d="m 17.455078,21.300781 v 6 H 13.529297 13 9.9296875 L 8.1230469,35 H 13.529297 15.900391 20 34.464844 a 3.4746715,3.4746715 0 0 0 0.24414,-0.01172 V 35 H 39 v -4.603516 h -1 v -1.501953 h -7.544922 v -7.59375 h -3 v 7.490235 l -2,-0.423828 v -7.066407 h -3 v 6.429688 l -2,-0.423828 v -6.00586 z m -3.414062,8.111328 a 0.26245054,0.26245054 0 0 1 0.0098,0 h 3.003907 a 0.26245054,0.26245054 0 0 1 0,0.523438 h -3.003907 a 0.26245054,0.26245054 0 0 1 -0.0098,-0.523438 z"
       style="opacity:1;vector-effect:none;fill:#000000;fill-opacity:0.12941176;fill-rule:evenodd;stroke-width:1.46104515;stroke-linecap:butt;stroke-linejoin:miter;stroke-miterlimit:4;stroke-dasharray:none;stroke-dashoffset:0;stroke-opacity:1" />
    <path
       inkscape:connector-curvature="0"
       id="path1802-8"
       d="m 9.060876,23.060547 c -0.236322,-0.01646 -0.449393,0.08557 -0.529297,0.277343 -0.106539,0.255693 0.06515,0.569952 0.384766,0.703125 l 3.255859,1.355469 a 2,2 0 0 0 -0.216797,0.904297 h 4 a 2,2 0 0 0 -2,-2 2,2 0 0 0 -1.087891,0.324219 c -0.03487,-0.02163 -0.06383,-0.04792 -0.103515,-0.06445 L 9.30111,23.11719 C 9.22121,23.0839 9.13965,23.06603 9.060876,23.06055 Z"
       style="opacity:1;vector-effect:none;fill:#000000;fill-opacity:0.12941176;fill-rule:evenodd;stroke-width:1.27530468;stroke-linecap:butt;stroke-linejoin:miter;stroke-miterlimit:4;stroke-dasharray:none;stroke-dashoffset:0;stroke-opacity:1" />
    <path
       inkscape:connector-curvature="0"
       id="path1802-5-5"
       d="m 39.248376,24.496093 c -0.07852,0.0084 -0.159658,0.03019 -0.238281,0.06641 l -3.40625,1.568359 c -0.04589,0.02114 -0.08021,0.05227 -0.119141,0.08008 a 2,2 0 0 0 -1.029297,-0.289067 2,2 0 0 0 -2,2 h 4 a 2,2 0 0 0 -0.25,-0.966797 l 3.224609,-1.484375 c 0.314496,-0.144851 0.473303,-0.463248 0.357422,-0.714844 -0.08691,-0.188697 -0.303506,-0.284912 -0.539062,-0.259766 z"
       style="opacity:1;vector-effect:none;fill:#000000;fill-opacity:0.12941176;fill-rule:evenodd;stroke-width:1.27530468;stroke-linecap:butt;stroke-linejoin:miter;stroke-miterlimit:4;stroke-dasharray:none;stroke-dashoffset:0;stroke-opacity:1" />
  </g>
  <g
     id="g879"
     transform="translate(-0.1230469,-1)">
    <path
       id="rect1572-2"
       d="m 17.455078,21.300781 v 6 H 13.529297 13 9.9296875 L 8.1230469,35 H 13.529297 15.900391 20 34.464844 a 3.4746715,3.4746715 0 0 0 0.24414,-0.01172 V 35 H 39 v -4.603516 h -1 v -1.501953 h -7.544922 v -7.59375 h -3 v 7.490235 l -2,-0.423828 v -7.066407 h -3 v 6.429688 l -2,-0.423828 v -6.00586 z m -3.414062,8.111328 a 0.26245054,0.26245054 0 0 1 0.0098,0 h 3.003907 a 0.26245054,0.26245054 0 0 1 0,0.523438 h -3.003907 a 0.26245054,0.26245054 0 0 1 -0.0098,-0.523438 z"
       style="opacity:1;vector-effect:none;fill:#0277bd;fill-opacity:1;fill-rule:evenodd;stroke-width:1.46104515;stroke-linecap:butt;stroke-linejoin:miter;stroke-miterlimit:4;stroke-dasharray:none;stroke-dashoffset:0;stroke-opacity:1"
       inkscape:connector-curvature="0" />
    <path
       inkscape:connector-curvature="0"
       id="path1802"
       d="m 9.060876,23.060547 c -0.236322,-0.01646 -0.449393,0.08557 -0.529297,0.277343 -0.106539,0.255693 0.06515,0.569952 0.384766,0.703125 l 3.255859,1.355469 a 2,2 0 0 0 -0.216797,0.904297 h 4 a 2,2 0 0 0 -2,-2 2,2 0 0 0 -1.087891,0.324219 c -0.03487,-0.02163 -0.06383,-0.04792 -0.103515,-0.06445 L 9.30111,23.11719 C 9.22121,23.0839 9.13965,23.06603 9.060876,23.06055 Z"
       style="opacity:1;vector-effect:none;fill:#0277bd;fill-opacity:1;fill-rule:evenodd;stroke-width:1.27530468;stroke-linecap:butt;stroke-linejoin:miter;stroke-miterlimit:4;stroke-dasharray:none;stroke-dashoffset:0;stroke-opacity:1" />
    <path
       inkscape:connector-curvature="0"
       id="path1802-5"
       d="m 39.248376,24.496093 c -0.07852,0.0084 -0.159658,0.03019 -0.238281,0.06641 l -3.40625,1.568359 c -0.04589,0.02114 -0.08021,0.05227 -0.119141,0.08008 a 2,2 0 0 0 -1.029297,-0.289067 2,2 0 0 0 -2,2 h 4 a 2,2 0 0 0 -0.25,-0.966797 l 3.224609,-1.484375 c 0.314496,-0.144851 0.473303,-0.463248 0.357422,-0.714844 -0.08691,-0.188697 -0.303506,-0.284912 -0.539062,-0.259766 z"
       style="opacity:1;vector-effect:none;fill:#0277bd;fill-opacity:1;fill-rule:evenodd;stroke-width:1.27530468;stroke-linecap:butt;stroke-linejoin:miter;stroke-miterlimit:4;stroke-dasharray:none;stroke-dashoffset:0;stroke-opacity:1" />
  </g>
</svg>
