<?xml version="1.0" encoding="UTF-8" standalone="no"?>
<svg
   xmlns:dc="http://purl.org/dc/elements/1.1/"
   xmlns:cc="http://creativecommons.org/ns#"
   xmlns:rdf="http://www.w3.org/1999/02/22-rdf-syntax-ns#"
   xmlns:svg="http://www.w3.org/2000/svg"
   xmlns="http://www.w3.org/2000/svg"
   xmlns:sodipodi="http://sodipodi.sourceforge.net/DTD/sodipodi-0.dtd"
   xmlns:inkscape="http://www.inkscape.org/namespaces/inkscape"
   viewBox="0 0 48 48"
   id="svg2"
   version="1.1"
   inkscape:version="0.92.3 (2405546, 2018-03-11)"
   width="100%"
   height="100%"
   sodipodi:docname="com_calm_android.svg">
  <metadata
     id="metadata71">
    <rdf:RDF>
      <cc:Work
         rdf:about="">
        <dc:format>image/svg+xml</dc:format>
        <dc:type
           rdf:resource="http://purl.org/dc/dcmitype/StillImage" />
        <dc:title></dc:title>
      </cc:Work>
    </rdf:RDF>
  </metadata>
  <sodipodi:namedview
     pagecolor="#ffffff"
     bordercolor="#666666"
     borderopacity="1"
     objecttolerance="10"
     gridtolerance="10"
     guidetolerance="10"
     inkscape:pageopacity="0"
     inkscape:pageshadow="2"
     inkscape:window-width="3200"
     inkscape:window-height="1666"
     id="namedview69"
     showgrid="false"
     inkscape:zoom="27.5625"
     inkscape:cx="24"
     inkscape:cy="24"
     inkscape:window-x="0"
     inkscape:window-y="82"
     inkscape:window-maximized="1"
     inkscape:current-layer="svg2" />
  <defs
     id="defs4">
    <linearGradient
       id="linearGradient3764"
       y1="47"
       x2="0"
       y2="1"
       gradientUnits="userSpaceOnUse">
      <stop
         stop-color="#e5e5e5"
         stop-opacity="1"
         id="stop7" />
      <stop
         offset="1"
         stop-color="#efefef"
         stop-opacity="1"
         id="stop9" />
    </linearGradient>
    <clipPath
       id="clipPath-468622755">
      <g
         transform="translate(0,-1004.3622)"
         id="g12">
        <path
           d="m -24 13 c 0 1.105 -0.672 2 -1.5 2 -0.828 0 -1.5 -0.895 -1.5 -2 0 -1.105 0.672 -2 1.5 -2 0.828 0 1.5 0.895 1.5 2 z"
           transform="matrix(15.333333,0,0,11.5,414.99999,878.8622)"
           fill="#1890d0"
           id="path14" />
      </g>
    </clipPath>
    <clipPath
       id="clipPath-476930736">
      <g
         transform="translate(0,-1004.3622)"
         id="g17">
        <path
           d="m -24 13 c 0 1.105 -0.672 2 -1.5 2 -0.828 0 -1.5 -0.895 -1.5 -2 0 -1.105 0.672 -2 1.5 -2 0.828 0 1.5 0.895 1.5 2 z"
           transform="matrix(15.333333,0,0,11.5,414.99999,878.8622)"
           fill="#1890d0"
           id="path19" />
      </g>
    </clipPath>
  </defs>
  <g
     id="g21">
    <path
       d="m 36.31 5 c 5.859 4.062 9.688 10.831 9.688 18.5 c 0 12.426 -10.07 22.5 -22.5 22.5 c -7.669 0 -14.438 -3.828 -18.5 -9.688 c 1.037 1.822 2.306 3.499 3.781 4.969 c 4.085 3.712 9.514 5.969 15.469 5.969 c 12.703 0 23 -10.298 23 -23 c 0 -5.954 -2.256 -11.384 -5.969 -15.469 c -1.469 -1.475 -3.147 -2.744 -4.969 -3.781 z m 4.969 3.781 c 3.854 4.113 6.219 9.637 6.219 15.719 c 0 12.703 -10.297 23 -23 23 c -6.081 0 -11.606 -2.364 -15.719 -6.219 c 4.16 4.144 9.883 6.719 16.219 6.719 c 12.703 0 23 -10.298 23 -23 c 0 -6.335 -2.575 -12.06 -6.719 -16.219 z"
       opacity="0.05"
       id="path23" />
    <path
       d="m 41.28 8.781 c 3.712 4.085 5.969 9.514 5.969 15.469 c 0 12.703 -10.297 23 -23 23 c -5.954 0 -11.384 -2.256 -15.469 -5.969 c 4.113 3.854 9.637 6.219 15.719 6.219 c 12.703 0 23 -10.298 23 -23 c 0 -6.081 -2.364 -11.606 -6.219 -15.719 z"
       opacity="0.1"
       id="path25" />
    <path
       d="m 31.25 2.375 c 8.615 3.154 14.75 11.417 14.75 21.13 c 0 12.426 -10.07 22.5 -22.5 22.5 c -9.708 0 -17.971 -6.135 -21.12 -14.75 a 23 23 0 0 0 44.875 -7 a 23 23 0 0 0 -16 -21.875 z"
       opacity="0.2"
       id="path27" />
  </g>
  <path
     inkscape:connector-curvature="0"
     style="fill:#63aebb;fill-opacity:1"
     id="path31"
     d="M 24,1 C 36.703,1 47,11.297 47,24 47,36.703 36.703,47 24,47 11.297,47 1,36.703 1,24 1,11.297 11.297,1 24,1 Z" />
  <g
     id="g65">
    <path
       d="m 40.03 7.531 c 3.712 4.084 5.969 9.514 5.969 15.469 0 12.703 -10.297 23 -23 23 c -5.954 0 -11.384 -2.256 -15.469 -5.969 4.178 4.291 10.01 6.969 16.469 6.969 c 12.703 0 23 -10.298 23 -23 0 -6.462 -2.677 -12.291 -6.969 -16.469 z"
       opacity="0.1"
       id="path67" />
  </g>
  <g
     id="g1792">
    <path
       sodipodi:nodetypes="cccccccccccc"
       inkscape:connector-curvature="0"
       id="path1618-3"
       d="m 22.594839,26.472793 c -1.252765,0.09549 -2.86782,0.510315 -4.746968,1.218812 L 15,28.764501 V 33.382251 38 H 24.999227 35 v -4.617749 -4.616033 l -3.10129,-1.14843 c -2.305208,-0.853425 -3.507904,-1.148428 -4.683613,-1.148428 -1.62791,-0.366704 -2.979248,-0.142231 -4.620258,0.0034 z"
       style="fill:#000000;fill-opacity:0.12941176;stroke-width:0.26684344" />
    <path
       inkscape:connector-curvature="0"
       id="path1618-6-7"
       d="m 24.955218,10.000002 c -0.459376,0 -3.318796,4.530881 -4.330078,6.861476 -1.320755,3.0438 -0.53551,5.44792 2.230468,6.829021 1.647834,1.001844 2.925138,0.667676 4.232422,-0.084 2.780793,-1.290584 3.528641,-4.062449 1.976563,-7.32158 C 27.894593,13.82809 25.39168,10 24.955218,10 Z"
       style="fill:#000000;fill-opacity:0.12941176;stroke-width:0.31637684" />
    <g
       transform="matrix(1,0,0,0.97748349,-26.804548,3.7975762)"
       id="g1713">
      <path
         style="fill:#f57c00;fill-opacity:1;stroke-width:0.31999999"
         d="m 50.759766,5.3222656 c -0.459376,0 -3.318795,4.6352492 -4.330078,7.0195314 -1.320754,3.113914 -0.53551,5.573413 2.230468,6.986328 1.647834,1.024922 2.925138,0.683054 4.232422,-0.08594 2.780793,-1.320313 3.528641,-4.156029 1.976563,-7.490235 -1.17,-2.513418 -3.672913,-6.4296874 -4.109375,-6.4296874 z m 0.08203,2.171875 c 0.06441,-0.01067 0.119422,0.0023 0.166015,0.041016 0.211577,0.175592 1.079959,1.6342924 1.927735,3.2421874 2.034843,3.859307 2.027067,5.744722 -0.02539,7.171875 -0.715195,0.497302 -2.254392,0.781555 -3.21289,0.591797 -1.198364,-0.237242 -2.656438,-2.192366 -2.648438,-3.550782 0.01133,-1.917306 2.826807,-7.335964 3.792969,-7.496093 z m -0.04492,4.7695314 -0.763672,1.248047 c -1.379387,2.255521 -1.41322,3.537594 -0.109375,4.197265 1.007185,0.509578 0.995513,0.509562 1.845703,-0.08594 0.969478,-0.67905 0.921288,-2.12652 -0.130859,-3.921875 z"
         id="path1618-6"
         inkscape:connector-curvature="0"
         sodipodi:nodetypes="ssccsscccscccccsccc" />
      <path
         style="fill:#ff9933;fill-opacity:1;stroke-width:0.31999999"
         d="m 50.841796,7.494136 c 0.06441,-0.01067 0.119422,0.0023 0.166015,0.04102 0.211577,0.175592 1.079959,1.634293 1.927735,3.242188 2.034843,3.859307 2.027067,5.744722 -0.02539,7.171875 -0.715195,0.497302 -2.254392,0.781555 -3.21289,0.591797 -1.198364,-0.237242 -2.656438,-2.192366 -2.648438,-3.550782 0.01133,-1.917306 2.826807,-7.335964 3.792969,-7.496093 z"
         id="path1618-6-9-1"
         inkscape:connector-curvature="0"
         sodipodi:nodetypes="ccsccccc" />
      <path
         style="fill:#ffd54f;fill-opacity:1;stroke-width:0.13662426"
         d="m 50.639292,12.929931 c 0.02609,-0.0048 0.04837,10e-4 0.06724,0.01846 0.08569,0.07903 0.437417,0.735524 0.780794,1.459166 0.824176,1.736905 0.821026,2.585447 -0.01029,3.227746 -0.289676,0.223813 -0.913101,0.351743 -1.301323,0.266341 -0.485376,-0.106772 -1.075941,-0.986687 -1.072701,-1.59805 0.0046,-0.862895 1.144946,-3.301595 1.536273,-3.373662 z"
         id="path1618-6-9"
         inkscape:connector-curvature="0"
         sodipodi:nodetypes="ccsccccc" />
    </g>
    <path
       sodipodi:nodetypes="cccccccccccc"
       inkscape:connector-curvature="0"
       id="path1618"
       d="m 21.594839,25.472793 c -1.252765,0.09549 -2.86782,0.510315 -4.746968,1.218812 L 14,27.764501 V 32.382251 37 H 23.999227 34 v -4.617749 -4.616033 l -3.10129,-1.14843 c -2.305208,-0.853425 -3.507904,-1.148429 -4.683613,-1.148429 -1.62791,-0.366703 -2.979248,-0.14223 -4.620258,0.0034 z"
       style="fill:#e6e6d4;fill-opacity:1;stroke-width:0.26684344" />
  </g>
</svg>
