<?xml version="1.0" encoding="UTF-8" standalone="no"?>
<svg
   xmlns:dc="http://purl.org/dc/elements/1.1/"
   xmlns:cc="http://creativecommons.org/ns#"
   xmlns:rdf="http://www.w3.org/1999/02/22-rdf-syntax-ns#"
   xmlns:svg="http://www.w3.org/2000/svg"
   xmlns="http://www.w3.org/2000/svg"
   xmlns:sodipodi="http://sodipodi.sourceforge.net/DTD/sodipodi-0.dtd"
   xmlns:inkscape="http://www.inkscape.org/namespaces/inkscape"
   viewBox="0 0 48 48"
   id="svg2"
   version="1.1"
   inkscape:version="0.92.2 (5c3e80d, 2017-08-06)"
   width="100%"
   height="100%"
   sodipodi:docname="com_vonglasow_michael_satstat.svg">
  <metadata
     id="metadata71">
    <rdf:RDF>
      <cc:Work
         rdf:about="">
        <dc:format>image/svg+xml</dc:format>
        <dc:type
           rdf:resource="http://purl.org/dc/dcmitype/StillImage" />
        <dc:title></dc:title>
      </cc:Work>
    </rdf:RDF>
  </metadata>
  <sodipodi:namedview
     pagecolor="#ffffff"
     bordercolor="#666666"
     borderopacity="1"
     objecttolerance="10"
     gridtolerance="10"
     guidetolerance="10"
     inkscape:pageopacity="0"
     inkscape:pageshadow="2"
     inkscape:window-width="3005"
     inkscape:window-height="1635"
     id="namedview69"
     showgrid="true"
     inkscape:zoom="18.755595"
     inkscape:cx="25.704238"
     inkscape:cy="22.635524"
     inkscape:window-x="2"
     inkscape:window-y="82"
     inkscape:window-maximized="0"
     inkscape:current-layer="svg2">
    <inkscape:grid
       type="xygrid"
       id="grid896" />
  </sodipodi:namedview>
  <defs
     id="defs4">
    <linearGradient
       id="linearGradient3764"
       y1="47"
       x2="0"
       y2="1"
       gradientUnits="userSpaceOnUse">
      <stop
         stop-color="#e5e5e5"
         stop-opacity="1"
         id="stop7" />
      <stop
         offset="1"
         stop-color="#efefef"
         stop-opacity="1"
         id="stop9" />
    </linearGradient>
    <clipPath
       id="clipPath-468622755">
      <g
         transform="translate(0,-1004.3622)"
         id="g12">
        <path
           d="m -24 13 c 0 1.105 -0.672 2 -1.5 2 -0.828 0 -1.5 -0.895 -1.5 -2 0 -1.105 0.672 -2 1.5 -2 0.828 0 1.5 0.895 1.5 2 z"
           transform="matrix(15.333333,0,0,11.5,414.99999,878.8622)"
           fill="#1890d0"
           id="path14" />
      </g>
    </clipPath>
    <clipPath
       id="clipPath-476930736">
      <g
         transform="translate(0,-1004.3622)"
         id="g17">
        <path
           d="m -24 13 c 0 1.105 -0.672 2 -1.5 2 -0.828 0 -1.5 -0.895 -1.5 -2 0 -1.105 0.672 -2 1.5 -2 0.828 0 1.5 0.895 1.5 2 z"
           transform="matrix(15.333333,0,0,11.5,414.99999,878.8622)"
           fill="#1890d0"
           id="path19" />
      </g>
    </clipPath>
  </defs>
  <g
     id="g21">
    <path
       d="m 36.31 5 c 5.859 4.062 9.688 10.831 9.688 18.5 c 0 12.426 -10.07 22.5 -22.5 22.5 c -7.669 0 -14.438 -3.828 -18.5 -9.688 c 1.037 1.822 2.306 3.499 3.781 4.969 c 4.085 3.712 9.514 5.969 15.469 5.969 c 12.703 0 23 -10.298 23 -23 c 0 -5.954 -2.256 -11.384 -5.969 -15.469 c -1.469 -1.475 -3.147 -2.744 -4.969 -3.781 z m 4.969 3.781 c 3.854 4.113 6.219 9.637 6.219 15.719 c 0 12.703 -10.297 23 -23 23 c -6.081 0 -11.606 -2.364 -15.719 -6.219 c 4.16 4.144 9.883 6.719 16.219 6.719 c 12.703 0 23 -10.298 23 -23 c 0 -6.335 -2.575 -12.06 -6.719 -16.219 z"
       opacity="0.05"
       id="path23" />
    <path
       d="m 41.28 8.781 c 3.712 4.085 5.969 9.514 5.969 15.469 c 0 12.703 -10.297 23 -23 23 c -5.954 0 -11.384 -2.256 -15.469 -5.969 c 4.113 3.854 9.637 6.219 15.719 6.219 c 12.703 0 23 -10.298 23 -23 c 0 -6.081 -2.364 -11.606 -6.219 -15.719 z"
       opacity="0.1"
       id="path25" />
    <path
       d="m 31.25 2.375 c 8.615 3.154 14.75 11.417 14.75 21.13 c 0 12.426 -10.07 22.5 -22.5 22.5 c -9.708 0 -17.971 -6.135 -21.12 -14.75 a 23 23 0 0 0 44.875 -7 a 23 23 0 0 0 -16 -21.875 z"
       opacity="0.2"
       id="path27" />
  </g>
  <g
     id="g29"
     style="stroke:none;stroke-opacity:1"
     transform="matrix(0.97549667,0,0,0.97549667,0.01225166,0.01225166)">
    <path
       d="M 24,1 C 36.703,1 47,11.297 47,24 47,36.703 36.703,47 24,47 11.297,47 1,36.703 1,24 1,11.297 11.297,1 24,1 Z"
       id="path31"
       style="fill:url(#linearGradient3764);fill-opacity:1;stroke:none;stroke-opacity:1"
       inkscape:connector-curvature="0" />
  </g>
  <g
     id="g65">
    <path
       d="m 40.03 7.531 c 3.712 4.084 5.969 9.514 5.969 15.469 0 12.703 -10.297 23 -23 23 c -5.954 0 -11.384 -2.256 -15.469 -5.969 4.178 4.291 10.01 6.969 16.469 6.969 c 12.703 0 23 -10.298 23 -23 0 -6.462 -2.677 -12.291 -6.969 -16.469 z"
       opacity="0.1"
       id="path67" />
  </g>
  <circle
     style="fill:#000000;fill-opacity:0.12941176;fill-rule:evenodd;stroke-width:0.85999459"
     id="path953-0"
     cx="24.5"
     cy="24.5"
     r="20.469166" />
  <circle
     style="fill:#424242;fill-opacity:1;fill-rule:evenodd;stroke-width:0.85999459"
     id="path953"
     cx="23.5"
     cy="23.5"
     r="20.469166" />
  <path
     style="fill:none;stroke:#ff8f00;stroke-width:1px;stroke-linecap:butt;stroke-linejoin:miter;stroke-opacity:1"
     d="M 24,3 V 43.871099"
     id="path959"
     inkscape:connector-curvature="0" />
  <path
     style="fill:#ffa000;stroke:#ff8f0f;stroke-width:0.98216122px;stroke-linecap:butt;stroke-linejoin:miter;stroke-opacity:0.94117647;fill-opacity:1"
     d="M 3.2729852,23 H 44"
     id="path955"
     inkscape:connector-curvature="0" />
  <circle
     style="fill:#26c6da;fill-opacity:1;fill-rule:evenodd;stroke:none;stroke-width:0.58087361;stroke-opacity:0.94117647"
     id="path961-9-4"
     cx="10.339314"
     cy="13.920368"
     r="1.32417" />
  <circle
     style="fill:#26c6da;fill-opacity:1;fill-rule:evenodd;stroke:none;stroke-width:0.58087361;stroke-opacity:0.94117647"
     id="path961-9"
     cx="15.873899"
     cy="15.172496"
     r="1.32417" />
  <circle
     style="fill:#26c6da;fill-opacity:1;fill-rule:evenodd;stroke:none;stroke-width:0.58087361;stroke-opacity:0.94117647"
     id="path961-9-46"
     cx="21.122269"
     cy="20.121386"
     r="1.32417" />
  <circle
     style="fill:#26c6da;fill-opacity:1;fill-rule:evenodd;stroke:none;stroke-width:0.58087361;stroke-opacity:0.94117647"
     id="path961-9-0"
     cx="26.36113"
     cy="25.715628"
     r="1.32417" />
  <circle
     style="fill:#26c6da;fill-opacity:1;fill-rule:evenodd;stroke:none;stroke-width:0.58087361;stroke-opacity:0.94117647"
     id="path961-9-7"
     cx="27.103327"
     cy="32.508053"
     r="1.32417" />
  <circle
     style="fill:#26c6da;fill-opacity:1;fill-rule:evenodd;stroke:none;stroke-width:0.58087361;stroke-opacity:0.94117647"
     id="path961-9-79"
     cx="40.815163"
     cy="27.913311"
     r="1.32417" />
  <circle
     style="fill:#26c6da;fill-opacity:1;fill-rule:evenodd;stroke:none;stroke-width:0.58087361;stroke-opacity:0.94117647"
     id="path961-9-43"
     cx="37.218964"
     cy="34.522774"
     r="1.32417" />
</svg>
