<?xml version="1.0" encoding="UTF-8" standalone="no"?>
<svg
   xmlns:dc="http://purl.org/dc/elements/1.1/"
   xmlns:cc="http://creativecommons.org/ns#"
   xmlns:rdf="http://www.w3.org/1999/02/22-rdf-syntax-ns#"
   xmlns:svg="http://www.w3.org/2000/svg"
   xmlns="http://www.w3.org/2000/svg"
   xmlns:sodipodi="http://sodipodi.sourceforge.net/DTD/sodipodi-0.dtd"
   xmlns:inkscape="http://www.inkscape.org/namespaces/inkscape"
   viewBox="0 0 48 48"
   id="svg2"
   version="1.1"
   inkscape:version="0.92.2 (5c3e80d, 2017-08-06)"
   sodipodi:docname="com_android_dialer.svg">
  <metadata
     id="metadata59">
    <rdf:RDF>
      <cc:Work
         rdf:about="">
        <dc:format>image/svg+xml</dc:format>
        <dc:type
           rdf:resource="http://purl.org/dc/dcmitype/StillImage" />
        <dc:title />
      </cc:Work>
    </rdf:RDF>
  </metadata>
  <sodipodi:namedview
     pagecolor="#ffffff"
     bordercolor="#666666"
     borderopacity="1"
     objecttolerance="10"
     gridtolerance="10"
     guidetolerance="10"
     inkscape:pageopacity="0"
     inkscape:pageshadow="2"
     inkscape:window-width="3200"
     inkscape:window-height="1644"
     id="namedview57"
     showgrid="false"
     inkscape:zoom="9.8333332"
     inkscape:cx="-4.7512517"
     inkscape:cy="35.037559"
     inkscape:window-x="0"
     inkscape:window-y="82"
     inkscape:window-maximized="1"
     inkscape:current-layer="g29" />
  <defs
     id="defs4">
    <linearGradient
       id="linearGradient3764"
       y1="47"
       x2="0"
       y2="1"
       gradientUnits="userSpaceOnUse">
      <stop
         stop-color="#e1281f"
         stop-opacity="1"
         id="stop7"
         style="stop-color:#0282c8;stop-opacity:1" />
      <stop
         offset="1"
         stop-color="#e33a31"
         stop-opacity="1"
         id="stop9"
         style="stop-color:#028fdc;stop-opacity:1" />
    </linearGradient>
    <clipPath
       id="clipPath-969391619">
      <g
         transform="translate(0,-1004.3622)"
         id="g12">
        <path
           d="m -24 13 c 0 1.105 -0.672 2 -1.5 2 -0.828 0 -1.5 -0.895 -1.5 -2 0 -1.105 0.672 -2 1.5 -2 0.828 0 1.5 0.895 1.5 2 z"
           transform="matrix(15.333333,0,0,11.5,414.99999,878.8622)"
           fill="#1890d0"
           id="path14" />
      </g>
    </clipPath>
    <clipPath
       id="clipPath-977581465">
      <g
         transform="translate(0,-1004.3622)"
         id="g17">
        <path
           d="m -24 13 c 0 1.105 -0.672 2 -1.5 2 -0.828 0 -1.5 -0.895 -1.5 -2 0 -1.105 0.672 -2 1.5 -2 0.828 0 1.5 0.895 1.5 2 z"
           transform="matrix(15.333333,0,0,11.5,414.99999,878.8622)"
           fill="#1890d0"
           id="path19" />
      </g>
    </clipPath>
  </defs>
  <g
     id="g21">
    <path
       d="m 36.31 5 c 5.859 4.062 9.688 10.831 9.688 18.5 c 0 12.426 -10.07 22.5 -22.5 22.5 c -7.669 0 -14.438 -3.828 -18.5 -9.688 c 1.037 1.822 2.306 3.499 3.781 4.969 c 4.085 3.712 9.514 5.969 15.469 5.969 c 12.703 0 23 -10.298 23 -23 c 0 -5.954 -2.256 -11.384 -5.969 -15.469 c -1.469 -1.475 -3.147 -2.744 -4.969 -3.781 z m 4.969 3.781 c 3.854 4.113 6.219 9.637 6.219 15.719 c 0 12.703 -10.297 23 -23 23 c -6.081 0 -11.606 -2.364 -15.719 -6.219 c 4.16 4.144 9.883 6.719 16.219 6.719 c 12.703 0 23 -10.298 23 -23 c 0 -6.335 -2.575 -12.06 -6.719 -16.219 z"
       opacity="0.05"
       id="path23" />
    <path
       d="m 41.28 8.781 c 3.712 4.085 5.969 9.514 5.969 15.469 c 0 12.703 -10.297 23 -23 23 c -5.954 0 -11.384 -2.256 -15.469 -5.969 c 4.113 3.854 9.637 6.219 15.719 6.219 c 12.703 0 23 -10.298 23 -23 c 0 -6.081 -2.364 -11.606 -6.219 -15.719 z"
       opacity="0.1"
       id="path25" />
    <path
       d="m 31.25 2.375 c 8.615 3.154 14.75 11.417 14.75 21.13 c 0 12.426 -10.07 22.5 -22.5 22.5 c -9.708 0 -17.971 -6.135 -21.12 -14.75 a 23 23 0 0 0 44.875 -7 a 23 23 0 0 0 -16 -21.875 z"
       opacity="0.2"
       id="path27" />
  </g>
  <g
     id="g29">
    <path
       d="m 24 1 c 12.703 0 23 10.297 23 23 c 0 12.703 -10.297 23 -23 23 -12.703 0 -23 -10.297 -23 -23 0 -12.703 10.297 -23 23 -23 z"
       id="path31"
       fill-opacity="1"
       fill="url(#linearGradient3764)"
       style="fill:#bf360c;fill-opacity:1" />
    <path
       sodipodi:nodetypes="csssssssscscssssc"
       inkscape:connector-curvature="0"
       id="path4150"
       d="m 13.218517,13.483112 c -0.5666,0.793044 0.0095,5.420362 1.256371,8.714588 1.250269,3.303155 2.722059,5.48965 5.388804,8.194309 2.603404,2.640419 5.173225,4.228946 9.068447,5.513444 3.472593,1.145129 6.93541,1.372374 7.751105,0.830186 0.438664,-0.291579 0.301575,-1.898247 0.278085,-3.669318 -0.0235,-1.771073 0.04429,-3.41617 -0.291172,-3.717594 -0.56244,-0.505376 -1.648445,-0.280268 -3.178356,-0.533604 -1.393505,-0.230748 -2.449138,-0.770699 -2.884148,-0.701459 -0.951561,0.151458 -3.18219,2.932649 -3.18219,2.932649 0,0 -1.944153,-0.710363 -4.914872,-3.658593 -2.662269,-2.642117 -3.481817,-4.817065 -3.481817,-4.817065 0,0 2.608215,-2.237894 2.782836,-3.000787 0.165813,-0.724406 -0.319072,-1.408487 -0.58538,-3.015457 -0.2654,-1.601482 -0.0063,-2.624206 -0.491408,-3.182982 -0.429891,-0.495193 -2.089513,-0.378927 -3.825249,-0.368862 -1.735736,0.01003 -3.24249,-0.147294 -3.691056,0.480545 z"
       style="fill:#000000;fill-opacity:0.12941177;fill-rule:evenodd;stroke:none;stroke-width:1px;stroke-linecap:butt;stroke-linejoin:miter;stroke-opacity:1" />
    <path
       style="fill:#f9f9f9;fill-opacity:1;fill-rule:evenodd;stroke:none;stroke-width:1px;stroke-linecap:butt;stroke-linejoin:miter;stroke-opacity:1"
       d="m 12.218516,12.483275 c -0.5666,0.793044 0.0095,5.420362 1.256371,8.714588 1.250269,3.303155 2.722059,5.48965 5.388804,8.194309 2.603404,2.640419 5.173225,4.228946 9.068447,5.513444 3.472593,1.145129 6.93541,1.372374 7.751105,0.830186 0.438664,-0.291579 0.301575,-1.898247 0.278085,-3.669318 -0.0235,-1.771073 0.04429,-3.41617 -0.291172,-3.717594 -0.56244,-0.505376 -1.648445,-0.280268 -3.178356,-0.533604 -1.393505,-0.230748 -2.449138,-0.770699 -2.884148,-0.701459 -0.951561,0.151458 -3.18219,2.932649 -3.18219,2.932649 0,0 -1.944153,-0.710363 -4.914872,-3.658593 -2.662269,-2.642117 -3.481817,-4.817065 -3.481817,-4.817065 0,0 2.608215,-2.237894 2.782836,-3.000787 0.165813,-0.724406 -0.319072,-1.408487 -0.58538,-3.015457 -0.2654,-1.601482 -0.0063,-2.624206 -0.491408,-3.182982 -0.429891,-0.495193 -2.089513,-0.378927 -3.825249,-0.368862 -1.735736,0.01003 -3.24249,-0.147294 -3.691056,0.480545 z"
       id="path4138"
       inkscape:connector-curvature="0"
       sodipodi:nodetypes="csssssssscscssssc" />
  </g>
  <g
     id="g53">
    <path
       d="m 40.03 7.531 c 3.712 4.084 5.969 9.514 5.969 15.469 0 12.703 -10.297 23 -23 23 c -5.954 0 -11.384 -2.256 -15.469 -5.969 4.178 4.291 10.01 6.969 16.469 6.969 c 12.703 0 23 -10.298 23 -23 0 -6.462 -2.677 -12.291 -6.969 -16.469 z"
       opacity="0.1"
       id="path55" />
  </g>
</svg>
