<?xml version="1.0" encoding="UTF-8" standalone="no"?>
<svg
   xmlns:dc="http://purl.org/dc/elements/1.1/"
   xmlns:cc="http://creativecommons.org/ns#"
   xmlns:rdf="http://www.w3.org/1999/02/22-rdf-syntax-ns#"
   xmlns:svg="http://www.w3.org/2000/svg"
   xmlns="http://www.w3.org/2000/svg"
   xmlns:sodipodi="http://sodipodi.sourceforge.net/DTD/sodipodi-0.dtd"
   xmlns:inkscape="http://www.inkscape.org/namespaces/inkscape"
   viewBox="0 0 48 48"
   id="svg2"
   version="1.1"
   inkscape:version="0.92.2 (5c3e80d, 2017-08-06)"
   width="100%"
   height="100%"
   sodipodi:docname="com_github_axet_maps.svg">
  <metadata
     id="metadata71">
    <rdf:RDF>
      <cc:Work
         rdf:about="">
        <dc:format>image/svg+xml</dc:format>
        <dc:type
           rdf:resource="http://purl.org/dc/dcmitype/StillImage" />
        <dc:title></dc:title>
      </cc:Work>
    </rdf:RDF>
  </metadata>
  <sodipodi:namedview
     pagecolor="#ffffff"
     bordercolor="#666666"
     borderopacity="1"
     objecttolerance="10"
     gridtolerance="10"
     guidetolerance="10"
     inkscape:pageopacity="0"
     inkscape:pageshadow="2"
     inkscape:window-width="3200"
     inkscape:window-height="1644"
     id="namedview69"
     showgrid="false"
     inkscape:zoom="15.004476"
     inkscape:cx="20.32825"
     inkscape:cy="24"
     inkscape:window-x="0"
     inkscape:window-y="82"
     inkscape:window-maximized="1"
     inkscape:current-layer="svg2" />
  <defs
     id="defs4">
    <linearGradient
       id="linearGradient3764"
       y1="47"
       x2="0"
       y2="1"
       gradientUnits="userSpaceOnUse">
      <stop
         stop-color="#e5e5e5"
         stop-opacity="1"
         id="stop7" />
      <stop
         offset="1"
         stop-color="#efefef"
         stop-opacity="1"
         id="stop9" />
    </linearGradient>
    <clipPath
       id="clipPath-468622755">
      <g
         transform="translate(0,-1004.3622)"
         id="g12">
        <path
           d="m -24 13 c 0 1.105 -0.672 2 -1.5 2 -0.828 0 -1.5 -0.895 -1.5 -2 0 -1.105 0.672 -2 1.5 -2 0.828 0 1.5 0.895 1.5 2 z"
           transform="matrix(15.333333,0,0,11.5,414.99999,878.8622)"
           fill="#1890d0"
           id="path14" />
      </g>
    </clipPath>
    <clipPath
       id="clipPath-476930736">
      <g
         transform="translate(0,-1004.3622)"
         id="g17">
        <path
           d="m -24 13 c 0 1.105 -0.672 2 -1.5 2 -0.828 0 -1.5 -0.895 -1.5 -2 0 -1.105 0.672 -2 1.5 -2 0.828 0 1.5 0.895 1.5 2 z"
           transform="matrix(15.333333,0,0,11.5,414.99999,878.8622)"
           fill="#1890d0"
           id="path19" />
      </g>
    </clipPath>
  </defs>
  <g
     id="g21">
    <path
       d="m 36.31 5 c 5.859 4.062 9.688 10.831 9.688 18.5 c 0 12.426 -10.07 22.5 -22.5 22.5 c -7.669 0 -14.438 -3.828 -18.5 -9.688 c 1.037 1.822 2.306 3.499 3.781 4.969 c 4.085 3.712 9.514 5.969 15.469 5.969 c 12.703 0 23 -10.298 23 -23 c 0 -5.954 -2.256 -11.384 -5.969 -15.469 c -1.469 -1.475 -3.147 -2.744 -4.969 -3.781 z m 4.969 3.781 c 3.854 4.113 6.219 9.637 6.219 15.719 c 0 12.703 -10.297 23 -23 23 c -6.081 0 -11.606 -2.364 -15.719 -6.219 c 4.16 4.144 9.883 6.719 16.219 6.719 c 12.703 0 23 -10.298 23 -23 c 0 -6.335 -2.575 -12.06 -6.719 -16.219 z"
       opacity="0.05"
       id="path23" />
    <path
       d="m 41.28 8.781 c 3.712 4.085 5.969 9.514 5.969 15.469 c 0 12.703 -10.297 23 -23 23 c -5.954 0 -11.384 -2.256 -15.469 -5.969 c 4.113 3.854 9.637 6.219 15.719 6.219 c 12.703 0 23 -10.298 23 -23 c 0 -6.081 -2.364 -11.606 -6.219 -15.719 z"
       opacity="0.1"
       id="path25" />
    <path
       d="m 31.25 2.375 c 8.615 3.154 14.75 11.417 14.75 21.13 c 0 12.426 -10.07 22.5 -22.5 22.5 c -9.708 0 -17.971 -6.135 -21.12 -14.75 a 23 23 0 0 0 44.875 -7 a 23 23 0 0 0 -16 -21.875 z"
       opacity="0.2"
       id="path27" />
  </g>
  <g
     id="g29">
    <path
       d="m 24 1 c 12.703 0 23 10.297 23 23 c 0 12.703 -10.297 23 -23 23 -12.703 0 -23 -10.297 -23 -23 0 -12.703 10.297 -23 23 -23 z"
       fill="url(#linearGradient3764)"
       fill-opacity="1"
       id="path31" />
  </g>
  <g
     id="g65">
    <path
       d="m 40.03 7.531 c 3.712 4.084 5.969 9.514 5.969 15.469 0 12.703 -10.297 23 -23 23 c -5.954 0 -11.384 -2.256 -15.469 -5.969 4.178 4.291 10.01 6.969 16.469 6.969 c 12.703 0 23 -10.298 23 -23 0 -6.462 -2.677 -12.291 -6.969 -16.469 z"
       opacity="0.1"
       id="path67" />
  </g>
  <g
     id="g1442"
     transform="translate(-0.22834151,-0.15286329)">
    <path
       inkscape:connector-curvature="0"
       id="path844-3"
       d="m 23.821029,33.62276 c -0.18764,-0.204761 -1.509467,-3.938305 -2.937391,-8.296765 -1.427925,-4.35846 -2.680532,-7.924474 -2.783572,-7.924474 -0.103039,0 -0.118429,3.087354 -0.03419,6.860786 0.173894,7.79039 0.203221,7.932124 1.606561,7.764157 1.294556,-0.154945 1.830544,0.138602 1.749107,0.957946 l -0.06874,0.691533 -4.3661,-0.0057 c -3.889649,-0.0051 -4.392108,-0.04576 -4.604445,-0.372291 -0.451732,-0.694672 0.09694,-1.104171 1.572975,-1.173977 0.891046,-0.04214 1.425841,-0.175629 1.622042,-0.404873 0.230301,-0.269088 0.29271,-1.759045 0.29271,-6.988197 0,-6.344774 -0.01986,-6.667492 -0.438065,-7.115859 -0.365312,-0.391666 -0.601839,-0.451762 -1.424194,-0.361849 -1.138352,0.124462 -1.756401,-0.120046 -1.756401,-0.694853 0,-0.870506 0.40903,-0.966694 3.963269,-0.932011 4.074214,0.03976 3.649403,-0.01336 3.92775,0.491143 0.212729,0.385569 2.840035,8.565133 4.102393,12.771934 0.29844,0.994549 0.623516,1.88964 0.722392,1.989093 0.09888,0.09945 0.335196,-0.331343 0.525154,-0.957319 1.517078,-4.999289 4.563422,-13.936524 4.810046,-14.111512 0.342663,-0.243132 6.736177,-0.263676 7.137742,-0.02294 0.338752,0.203084 0.321185,1.34159 -0.02261,1.465298 -0.150777,0.05425 -0.718249,0.05427 -1.261048,3.4e-5 -0.670435,-0.06699 -1.127562,0.0039 -1.425533,0.220823 -0.41969,0.305641 -0.441384,0.605919 -0.502531,6.955567 -0.07585,7.876231 -0.147812,7.596694 1.981061,7.695004 l 1.372535,0.06339 v 0.744581 0.744581 h -4.495914 -4.495911 v -0.744634 -0.744581 l 1.263207,-0.06386 c 2.059274,-0.104109 2.014224,0.06832 2.092752,-8.010301 0.03882,-3.993338 -0.01457,-6.729337 -0.12886,-6.604726 -0.107318,0.117006 -1.351481,3.706953 -2.764807,7.977659 -1.792426,5.416247 -2.706086,7.877529 -3.020645,8.137211 -0.248028,0.20476 -0.770149,0.372291 -1.160268,0.372291 -0.399357,0 -0.858389,-0.162683 -1.050471,-0.372291 z"
       style="fill:#000000;fill-opacity:0.12941176;stroke-width:0.21600014" />
    <path
       inkscape:connector-curvature="0"
       id="path844"
       d="m 22.364345,32.317033 c -0.18764,-0.204761 -1.509467,-3.938305 -2.937391,-8.296766 -1.427925,-4.35846 -2.680532,-7.924474 -2.783572,-7.924474 -0.103039,0 -0.118429,3.087354 -0.03419,6.860786 0.173894,7.790391 0.203221,7.932125 1.606561,7.764158 1.294556,-0.154945 1.830544,0.138602 1.749107,0.957946 l -0.06874,0.691533 -4.3661,-0.0057 c -3.889649,-0.0051 -4.392108,-0.04576 -4.604445,-0.372291 -0.451732,-0.694672 0.09694,-1.104171 1.572975,-1.173977 0.891046,-0.04214 1.425841,-0.175629 1.622042,-0.404873 0.230301,-0.269088 0.29271,-1.759045 0.29271,-6.988198 0,-6.344774 -0.01986,-6.667492 -0.438065,-7.115859 -0.365312,-0.391666 -0.601839,-0.451762 -1.424194,-0.361849 -1.138352,0.124462 -1.756401,-0.120046 -1.756401,-0.694853 0,-0.870506 0.40903,-0.966694 3.963269,-0.932011 4.074214,0.03976 3.649403,-0.01336 3.92775,0.491143 0.212729,0.385569 2.840035,8.565133 4.102393,12.771935 0.29844,0.994549 0.623516,1.88964 0.722392,1.989093 0.09888,0.09945 0.335196,-0.331343 0.525154,-0.957319 1.517078,-4.99929 4.563422,-13.936525 4.810046,-14.111513 0.342663,-0.243132 6.736177,-0.263676 7.137742,-0.02294 0.338752,0.203084 0.321185,1.34159 -0.02261,1.465298 -0.150777,0.05425 -0.718249,0.05427 -1.261048,3.4e-5 -0.670435,-0.06699 -1.127562,0.0039 -1.425533,0.220823 -0.41969,0.305641 -0.441384,0.605919 -0.502531,6.955567 -0.07585,7.876232 -0.147812,7.596695 1.981061,7.695005 l 1.372535,0.06339 v 0.744581 0.744581 h -4.495914 -4.495911 v -0.744634 -0.744581 l 1.263207,-0.06386 c 2.059274,-0.104109 2.014224,0.06832 2.092752,-8.010302 0.03882,-3.993338 -0.01457,-6.729337 -0.12886,-6.604726 -0.107318,0.117006 -1.351481,3.706953 -2.764807,7.977659 -1.792426,5.416248 -2.706086,7.87753 -3.020645,8.137212 -0.248028,0.20476 -0.770149,0.372291 -1.160268,0.372291 -0.399357,0 -0.858389,-0.162683 -1.050471,-0.372291 z"
       style="fill:#000000;stroke-width:0.21600014" />
  </g>
</svg>
