<?xml version="1.0" encoding="UTF-8" standalone="no"?>
<svg
   xmlns:dc="http://purl.org/dc/elements/1.1/"
   xmlns:cc="http://creativecommons.org/ns#"
   xmlns:rdf="http://www.w3.org/1999/02/22-rdf-syntax-ns#"
   xmlns:svg="http://www.w3.org/2000/svg"
   xmlns="http://www.w3.org/2000/svg"
   xmlns:sodipodi="http://sodipodi.sourceforge.net/DTD/sodipodi-0.dtd"
   xmlns:inkscape="http://www.inkscape.org/namespaces/inkscape"
   viewBox="0 0 48 48"
   id="svg2"
   version="1.1"
   inkscape:version="1.0beta2 (unknown)"
   width="100%"
   height="100%"
   sodipodi:docname="com_lamoda_lite.svg">
  <metadata
     id="metadata71">
    <rdf:RDF>
      <cc:Work
         rdf:about="">
        <dc:format>image/svg+xml</dc:format>
        <dc:type
           rdf:resource="http://purl.org/dc/dcmitype/StillImage" />
        <dc:title />
      </cc:Work>
    </rdf:RDF>
  </metadata>
  <sodipodi:namedview
     pagecolor="#ffffff"
     bordercolor="#666666"
     borderopacity="1"
     objecttolerance="10"
     gridtolerance="10"
     guidetolerance="10"
     inkscape:pageopacity="0"
     inkscape:pageshadow="2"
     inkscape:window-width="1600"
     inkscape:window-height="834"
     id="namedview69"
     showgrid="true"
     inkscape:zoom="4.9867262"
     inkscape:cx="30.464688"
     inkscape:cy="25.805693"
     inkscape:window-x="0"
     inkscape:window-y="0"
     inkscape:window-maximized="1"
     inkscape:current-layer="g2230"
     inkscape:document-rotation="0">
    <inkscape:grid
       type="xygrid"
       id="grid2325"
       empspacing="4" />
  </sodipodi:namedview>
  <defs
     id="defs4">
    <linearGradient
       id="linearGradient3764"
       y1="47"
       x2="0"
       y2="1"
       gradientUnits="userSpaceOnUse">
      <stop
         stop-color="#e5e5e5"
         stop-opacity="1"
         id="stop7" />
      <stop
         offset="1"
         stop-color="#efefef"
         stop-opacity="1"
         id="stop9" />
    </linearGradient>
    <clipPath
       id="clipPath-468622755">
      <g
         transform="translate(0,-1004.3622)"
         id="g12">
        <path
           d="m -24 13 c 0 1.105 -0.672 2 -1.5 2 -0.828 0 -1.5 -0.895 -1.5 -2 0 -1.105 0.672 -2 1.5 -2 0.828 0 1.5 0.895 1.5 2 z"
           transform="matrix(15.333333,0,0,11.5,414.99999,878.8622)"
           fill="#1890d0"
           id="path14" />
      </g>
    </clipPath>
    <clipPath
       id="clipPath-476930736">
      <g
         transform="translate(0,-1004.3622)"
         id="g17">
        <path
           d="m -24 13 c 0 1.105 -0.672 2 -1.5 2 -0.828 0 -1.5 -0.895 -1.5 -2 0 -1.105 0.672 -2 1.5 -2 0.828 0 1.5 0.895 1.5 2 z"
           transform="matrix(15.333333,0,0,11.5,414.99999,878.8622)"
           fill="#1890d0"
           id="path19" />
      </g>
    </clipPath>
  </defs>
  <g
     id="g21">
    <path
       d="m 36.31 5 c 5.859 4.062 9.688 10.831 9.688 18.5 c 0 12.426 -10.07 22.5 -22.5 22.5 c -7.669 0 -14.438 -3.828 -18.5 -9.688 c 1.037 1.822 2.306 3.499 3.781 4.969 c 4.085 3.712 9.514 5.969 15.469 5.969 c 12.703 0 23 -10.298 23 -23 c 0 -5.954 -2.256 -11.384 -5.969 -15.469 c -1.469 -1.475 -3.147 -2.744 -4.969 -3.781 z m 4.969 3.781 c 3.854 4.113 6.219 9.637 6.219 15.719 c 0 12.703 -10.297 23 -23 23 c -6.081 0 -11.606 -2.364 -15.719 -6.219 c 4.16 4.144 9.883 6.719 16.219 6.719 c 12.703 0 23 -10.298 23 -23 c 0 -6.335 -2.575 -12.06 -6.719 -16.219 z"
       opacity="0.05"
       id="path23" />
    <path
       d="m 41.28 8.781 c 3.712 4.085 5.969 9.514 5.969 15.469 c 0 12.703 -10.297 23 -23 23 c -5.954 0 -11.384 -2.256 -15.469 -5.969 c 4.113 3.854 9.637 6.219 15.719 6.219 c 12.703 0 23 -10.298 23 -23 c 0 -6.081 -2.364 -11.606 -6.219 -15.719 z"
       opacity="0.1"
       id="path25" />
    <path
       d="m 31.25 2.375 c 8.615 3.154 14.75 11.417 14.75 21.13 c 0 12.426 -10.07 22.5 -22.5 22.5 c -9.708 0 -17.971 -6.135 -21.12 -14.75 a 23 23 0 0 0 44.875 -7 a 23 23 0 0 0 -16 -21.875 z"
       opacity="0.2"
       id="path27" />
  </g>
  <g
     id="g29"
     style="fill:#d1cebd;fill-opacity:1">
    <path
       d="m 24 1 c 12.703 0 23 10.297 23 23 c 0 12.703 -10.297 23 -23 23 -12.703 0 -23 -10.297 -23 -23 0 -12.703 10.297 -23 23 -23 z"
       fill="url(#linearGradient3764)"
       fill-opacity="1"
       id="path31"
       style="fill:#d1cebd;fill-opacity:1" />
  </g>
  <g
     id="g65">
    <path
       d="m 40.03 7.531 c 3.712 4.084 5.969 9.514 5.969 15.469 0 12.703 -10.297 23 -23 23 c -5.954 0 -11.384 -2.256 -15.469 -5.969 4.178 4.291 10.01 6.969 16.469 6.969 c 12.703 0 23 -10.298 23 -23 0 -6.462 -2.677 -12.291 -6.969 -16.469 z"
       opacity="0.1"
       id="path67" />
  </g>
  <g
     id="g2230-1"
     transform="matrix(1.0090879,0,0,1,1.7468528,1)"
     style="opacity:0.999;fill:#000000;fill-opacity:0.192157">
    <path
       id="path2-29"
       style="fill:#000000;fill-opacity:0.192157;stroke-width:0.543558"
       d="m 30.695312,23.708984 c -0.07541,0.366985 -0.402197,0.666016 -0.787109,0.666016 -0.230446,0 -0.440446,-0.109809 -0.591797,-0.273438 V 26 h 1.378906 z"
       inkscape:connector-curvature="0" />
    <path
       id="path2-7-3"
       style="fill:#000000;fill-opacity:0.192157;stroke-width:0.545455"
       d="m 31.435546,15.419921 c -0.320014,0 -0.607976,0.206663 -0.740234,0.488281 V 26 h 8.376953 c 0.436363,0 0.818359,-0.381996 0.818359,-0.81836 v -2.453125 c 0,-4.145455 -2.946022,-7.308594 -6.21875,-7.308594 z m 3.144531,1.828125 c 0.127841,-0.02131 0.265981,-0.01552 0.402344,0.02539 1.8,0.6 2.94407,2.563707 3.216797,4.527344 0.05455,0.490909 -0.327449,0.982422 -0.818359,0.982422 h -2.671875 c -0.436364,0 -0.81836,-0.381996 -0.81836,-0.818359 v -3.927735 c 0,-0.409091 0.305931,-0.725142 0.689453,-0.789062 z"
       inkscape:connector-curvature="0" />
    <path
       id="path2-2-9"
       style="fill:#000000;fill-opacity:0.192157;stroke-width:0.543558"
       d="m 6.669921,13 c -0.436363,0 -0.818359,0.379167 -0.818359,0.8125 0,0.433334 0.381996,0.8125 0.818359,0.8125 h 6.273438 c 0.6,0 1.089844,0.488151 1.089844,1.083985 0,0.595832 -0.489844,1.082031 -1.089844,1.082031 h -1.363281 c -0.436363,0 -0.81836,0.379168 -0.81836,0.8125 0,0.433334 0.381997,0.8125 0.81836,0.8125 h 1.363281 c 0.6,0 1.089844,0.488151 1.089844,1.083984 0,0.595834 -0.489844,1.083985 -1.089844,1.083985 H 5.033203 c -0.436364,0 -0.81836,0.379166 -0.81836,0.8125 0,0.433332 0.381996,0.812499 0.81836,0.8125 h 7.910156 c 0.6,0 1.089844,0.486198 1.089844,1.082031 0,0.595834 -0.489844,1.083984 -1.089844,1.083984 H 8.30664 c -0.436363,0 -0.818359,0.379166 -0.818359,0.8125 0,0.433334 0.381996,0.8125 0.818359,0.8125 h 21.009766 v -2.392578 c -9.85e-4,-0.01553 -0.0098,-0.02924 -0.0098,-0.04492 v -9.75 C 29.30664,13.379167 28.924644,13 28.488281,13 Z"
       inkscape:connector-curvature="0" />
  </g>
  <g
     id="g2230"
     transform="matrix(1.0090879,0,0,1,0.7468528,0)">
    <path
       d="m 30.695312,23.708984 c -0.07541,0.366985 -0.402197,0.666016 -0.787109,0.666016 -0.230446,0 -0.440446,-0.109809 -0.591797,-0.273438 V 26 h 1.378906 z"
       style="fill:#212121;fill-opacity:1;stroke-width:0.543558"
       id="path2"
       inkscape:connector-curvature="0" />
    <path
       inkscape:connector-curvature="0"
       d="m 31.435546,15.419921 c -0.320014,0 -0.607976,0.206663 -0.740234,0.488281 V 26 h 8.376953 c 0.436363,0 0.818359,-0.381996 0.818359,-0.81836 v -2.453125 c 0,-4.145455 -2.946022,-7.308594 -6.21875,-7.308594 z m 3.144531,1.828125 c 0.127841,-0.02131 0.265981,-0.01552 0.402344,0.02539 1.8,0.6 2.94407,2.563707 3.216797,4.527344 0.05455,0.490909 -0.327449,0.982422 -0.818359,0.982422 h -2.671875 c -0.436364,0 -0.81836,-0.381996 -0.81836,-0.818359 v -3.927735 c 0,-0.409091 0.305931,-0.725142 0.689453,-0.789062 z"
       style="fill:#2e9b97;fill-opacity:1;stroke-width:0.545455"
       id="path2-7" />
    <path
       inkscape:connector-curvature="0"
       d="m 6.669921,13 c -0.436363,0 -0.818359,0.379167 -0.818359,0.8125 0,0.433334 0.381996,0.8125 0.818359,0.8125 h 6.273438 c 0.6,0 1.089844,0.488151 1.089844,1.083985 0,0.595832 -0.489844,1.082031 -1.089844,1.082031 h -1.363281 c -0.436363,0 -0.81836,0.379168 -0.81836,0.8125 0,0.433334 0.381997,0.8125 0.81836,0.8125 h 1.363281 c 0.6,0 1.089844,0.488151 1.089844,1.083984 0,0.595834 -0.489844,1.083985 -1.089844,1.083985 H 5.033203 c -0.436364,0 -0.81836,0.379166 -0.81836,0.8125 0,0.433332 0.381996,0.812499 0.81836,0.8125 h 7.910156 c 0.6,0 1.089844,0.486198 1.089844,1.082031 0,0.595834 -0.489844,1.083984 -1.089844,1.083984 H 8.30664 c -0.436363,0 -0.818359,0.379166 -0.818359,0.8125 0,0.433334 0.381996,0.8125 0.818359,0.8125 h 21.009766 v -2.392578 c -9.85e-4,-0.01553 -0.0098,-0.02924 -0.0098,-0.04492 v -9.75 C 29.30664,13.379167 28.924644,13 28.488281,13 Z"
       style="fill:#f5f5f5;fill-opacity:1;stroke-width:0.543558"
       id="path2-2" />
  </g>
  <rect
     style="opacity:1;vector-effect:none;fill:#0277bd;fill-opacity:1;fill-rule:evenodd;stroke-width:1.91296;stroke-linecap:butt;stroke-linejoin:miter;stroke-miterlimit:4;stroke-dasharray:none;stroke-dashoffset:0;stroke-opacity:1"
     id="rect2221"
     width="0.35145742"
     height="0.053193554"
     x="59.577919"
     y="50.558193" />
  <g
     id="g2257-0"
     transform="translate(2.355307,0.26754)"
     style="fill:#000000;fill-opacity:0.19215687">
    <path
       inkscape:connector-curvature="0"
       d="M 38.562875,27.73246 H 13.908329 c -0.436363,0 -0.763636,0.327273 -0.763636,0.763636 v 3.381819 c 0,0.436363 0.327273,0.763636 0.763636,0.763636 h 0.163637 c 0.381818,0 0.709091,-0.272727 0.763636,-0.654546 0.327273,-1.472727 1.636364,-2.618181 3.218182,-2.618181 1.581818,0 2.890909,1.145454 3.218182,2.618181 0.05455,0.381819 0.381818,0.654546 0.763636,0.654546 h 8.4 c 0.381818,0 0.709091,-0.272727 0.763637,-0.654546 0.327272,-1.472727 1.636363,-2.618181 3.218181,-2.618181 1.581819,0 2.89091,1.145454 3.218182,2.618181 0.05455,0.381819 0.381818,0.654546 0.763637,0.654546 h 0.163636 c 0.436364,0 0.763636,-0.327273 0.763636,-0.763636 v -3.381819 c 0,-0.436363 -0.327272,-0.763636 -0.763636,-0.763636 z"
       id="path6-8"
       style="fill:#000000;fill-opacity:0.19215687;stroke-width:0.545455" />
    <path
       inkscape:connector-curvature="0"
       d="M 34.499999,30 C 33.111111,30 32,31.111111 32,32.499999 32,33.888889 33.111111,35 34.499999,35 35.888889,35 37,33.888889 37,32.499999 37,31.111111 35.888889,30 34.499999,30 Z m 0,3.722222 c -0.666666,0 -1.222222,-0.555555 -1.222222,-1.222223 0,-0.666666 0.555556,-1.222222 1.222222,-1.222222 0.666668,0 1.222223,0.555556 1.222223,1.222222 0,0.666668 -0.555555,1.222223 -1.222223,1.222223 z"
       id="path8-85"
       style="fill:#000000;fill-opacity:0.19215687;stroke-width:0.555556" />
    <path
       style="fill:#000000;fill-opacity:0.19215687;stroke-width:0.555556"
       id="path8-8-0"
       d="M 17.999999,30 C 16.611111,30 15.5,31.111111 15.5,32.499999 15.5,33.888889 16.611111,35 17.999999,35 19.388889,35 20.5,33.888889 20.5,32.499999 20.5,31.111111 19.388889,30 17.999999,30 Z m 0,3.722222 c -0.666666,0 -1.222222,-0.555555 -1.222222,-1.222223 0,-0.666666 0.555556,-1.222222 1.222222,-1.222222 0.666668,0 1.222223,0.555556 1.222223,1.222222 0,0.666668 -0.555555,1.222223 -1.222223,1.222223 z"
       inkscape:connector-curvature="0" />
  </g>
  <g
     id="g2257"
     transform="translate(1.355307,-0.73246)"
     style="fill:#212121;fill-opacity:1">
    <path
       style="stroke-width:0.545455;fill:#212121;fill-opacity:1"
       id="path6"
       d="M 38.562875,27.73246 H 13.908329 c -0.436363,0 -0.763636,0.327273 -0.763636,0.763636 v 3.381819 c 0,0.436363 0.327273,0.763636 0.763636,0.763636 h 0.163637 c 0.381818,0 0.709091,-0.272727 0.763636,-0.654546 0.327273,-1.472727 1.636364,-2.618181 3.218182,-2.618181 1.581818,0 2.890909,1.145454 3.218182,2.618181 0.05455,0.381819 0.381818,0.654546 0.763636,0.654546 h 8.4 c 0.381818,0 0.709091,-0.272727 0.763637,-0.654546 0.327272,-1.472727 1.636363,-2.618181 3.218181,-2.618181 1.581819,0 2.89091,1.145454 3.218182,2.618181 0.05455,0.381819 0.381818,0.654546 0.763637,0.654546 h 0.163636 c 0.436364,0 0.763636,-0.327273 0.763636,-0.763636 v -3.381819 c 0,-0.436363 -0.327272,-0.763636 -0.763636,-0.763636 z"
       inkscape:connector-curvature="0" />
    <path
       style="stroke-width:0.555556;fill:#212121;fill-opacity:1"
       id="path8"
       d="M 34.499999,30 C 33.111111,30 32,31.111111 32,32.499999 32,33.888889 33.111111,35 34.499999,35 35.888889,35 37,33.888889 37,32.499999 37,31.111111 35.888889,30 34.499999,30 Z m 0,3.722222 c -0.666666,0 -1.222222,-0.555555 -1.222222,-1.222223 0,-0.666666 0.555556,-1.222222 1.222222,-1.222222 0.666668,0 1.222223,0.555556 1.222223,1.222222 0,0.666668 -0.555555,1.222223 -1.222223,1.222223 z"
       inkscape:connector-curvature="0" />
    <path
       inkscape:connector-curvature="0"
       d="M 17.999999,30 C 16.611111,30 15.5,31.111111 15.5,32.499999 15.5,33.888889 16.611111,35 17.999999,35 19.388889,35 20.5,33.888889 20.5,32.499999 20.5,31.111111 19.388889,30 17.999999,30 Z m 0,3.722222 c -0.666666,0 -1.222222,-0.555555 -1.222222,-1.222223 0,-0.666666 0.555556,-1.222222 1.222222,-1.222222 0.666668,0 1.222223,0.555556 1.222223,1.222222 0,0.666668 -0.555555,1.222223 -1.222223,1.222223 z"
       id="path8-8"
       style="stroke-width:0.555556;fill:#212121;fill-opacity:1" />
  </g>
  <g
     id="g924"
     transform="matrix(1.0000003,0,0,0.98431054,-45.437529,-1.1925007)">
    <ellipse
       cy="18.482481"
       cx="71.437508"
       id="path4947"
       style="vector-effect:none;fill:#c81912;fill-opacity:1;fill-rule:evenodd;stroke-width:0.964073;stroke-linecap:butt;stroke-linejoin:miter;stroke-miterlimit:4;stroke-dasharray:none;stroke-dashoffset:0;stroke-opacity:1"
       rx="0.9999997"
       ry="1.0159396" />
    <text
       transform="scale(1.0014565,0.99854562)"
       id="text4964"
       y="24.113171"
       x="63.650581"
       style="font-style:normal;font-variant:normal;font-weight:bold;font-stretch:normal;font-size:7.71572px;line-height:1.25;font-family:'Noto Color Emoji';-inkscape-font-specification:'Noto Color Emoji Bold';letter-spacing:-0.60279px;word-spacing:0px;writing-mode:lr-tb;fill:#212121;fill-opacity:1;stroke-width:0.482231"
       xml:space="preserve"><tspan
         style="stroke-width:0.482231"
         y="24.113171"
         x="63.650581"
         id="tspan4962"
         sodipodi:role="line">L</tspan></text>
    <text
       transform="matrix(0.98753455,0.16592127,-0.16640494,0.98466417,0,0)"
       id="text4968"
       y="12.294179"
       x="70.843452"
       style="font-weight:bold;font-size:7.71572px;line-height:1.25;font-family:Roboto;-inkscape-font-specification:'Roboto Bold';letter-spacing:-0.60279px;word-spacing:0px;writing-mode:lr-tb;fill:#212121;fill-opacity:1;stroke-width:0.482231"
       xml:space="preserve"><tspan
         style="stroke-width:0.482231"
         y="12.294179"
         x="70.843452"
         id="tspan4966"
         sodipodi:role="line">a</tspan></text>
  </g>
</svg>
