<?xml version="1.0" encoding="UTF-8" standalone="no"?>
<svg
   xmlns:dc="http://purl.org/dc/elements/1.1/"
   xmlns:cc="http://creativecommons.org/ns#"
   xmlns:rdf="http://www.w3.org/1999/02/22-rdf-syntax-ns#"
   xmlns:svg="http://www.w3.org/2000/svg"
   xmlns="http://www.w3.org/2000/svg"
   xmlns:sodipodi="http://sodipodi.sourceforge.net/DTD/sodipodi-0.dtd"
   xmlns:inkscape="http://www.inkscape.org/namespaces/inkscape"
   viewBox="0 0 48 48"
   id="svg2"
   version="1.1"
   inkscape:version="0.48.5 r10040"
   width="100%"
   height="100%"
   sodipodi:docname="com_android_contacts.svg">
  <metadata
     id="metadata71">
    <rdf:RDF>
      <cc:Work
         rdf:about="">
        <dc:format>image/svg+xml</dc:format>
        <dc:type
           rdf:resource="http://purl.org/dc/dcmitype/StillImage" />
        <dc:title />
      </cc:Work>
    </rdf:RDF>
  </metadata>
  <sodipodi:namedview
     pagecolor="#ffffff"
     bordercolor="#666666"
     borderopacity="1"
     objecttolerance="10"
     gridtolerance="10"
     guidetolerance="10"
     inkscape:pageopacity="0"
     inkscape:pageshadow="2"
     inkscape:window-width="1920"
     inkscape:window-height="1008"
     id="namedview69"
     showgrid="true"
     inkscape:zoom="13.906434"
     inkscape:cx="20.243697"
     inkscape:cy="20.119178"
     inkscape:window-x="0"
     inkscape:window-y="34"
     inkscape:window-maximized="1"
     inkscape:current-layer="svg2" />
  <defs
     id="defs4">
    <linearGradient
       id="linearGradient3764"
       y1="47"
       x2="0"
       y2="1"
       gradientUnits="userSpaceOnUse">
      <stop
         stop-color="#58c4ec"
         stop-opacity="1"
         id="stop7" />
      <stop
         offset="1"
         stop-color="#6ac9ee"
         stop-opacity="1"
         id="stop9" />
    </linearGradient>
    <clipPath
       id="clipPath-189250047">
      <g
         transform="translate(0,-1004.3622)"
         id="g12">
        <path
           d="m -24 13 c 0 1.105 -0.672 2 -1.5 2 -0.828 0 -1.5 -0.895 -1.5 -2 0 -1.105 0.672 -2 1.5 -2 0.828 0 1.5 0.895 1.5 2 z"
           transform="matrix(15.333333,0,0,11.5,414.99999,878.8622)"
           fill="#1890d0"
           id="path14" />
      </g>
    </clipPath>
    <clipPath
       id="clipPath-197844614">
      <g
         transform="translate(0,-1004.3622)"
         id="g17">
        <path
           d="m -24 13 c 0 1.105 -0.672 2 -1.5 2 -0.828 0 -1.5 -0.895 -1.5 -2 0 -1.105 0.672 -2 1.5 -2 0.828 0 1.5 0.895 1.5 2 z"
           transform="matrix(15.333333,0,0,11.5,414.99999,878.8622)"
           fill="#1890d0"
           id="path19" />
      </g>
    </clipPath>
  </defs>
  <g
     id="g21">
    <path
       d="m 36.31 5 c 5.859 4.062 9.688 10.831 9.688 18.5 c 0 12.426 -10.07 22.5 -22.5 22.5 c -7.669 0 -14.438 -3.828 -18.5 -9.688 c 1.037 1.822 2.306 3.499 3.781 4.969 c 4.085 3.712 9.514 5.969 15.469 5.969 c 12.703 0 23 -10.298 23 -23 c 0 -5.954 -2.256 -11.384 -5.969 -15.469 c -1.469 -1.475 -3.147 -2.744 -4.969 -3.781 z m 4.969 3.781 c 3.854 4.113 6.219 9.637 6.219 15.719 c 0 12.703 -10.297 23 -23 23 c -6.081 0 -11.606 -2.364 -15.719 -6.219 c 4.16 4.144 9.883 6.719 16.219 6.719 c 12.703 0 23 -10.298 23 -23 c 0 -6.335 -2.575 -12.06 -6.719 -16.219 z"
       opacity="0.05"
       id="path23" />
    <path
       d="m 41.28 8.781 c 3.712 4.085 5.969 9.514 5.969 15.469 c 0 12.703 -10.297 23 -23 23 c -5.954 0 -11.384 -2.256 -15.469 -5.969 c 4.113 3.854 9.637 6.219 15.719 6.219 c 12.703 0 23 -10.298 23 -23 c 0 -6.081 -2.364 -11.606 -6.219 -15.719 z"
       opacity="0.1"
       id="path25" />
    <path
       d="m 31.25 2.375 c 8.615 3.154 14.75 11.417 14.75 21.13 c 0 12.426 -10.07 22.5 -22.5 22.5 c -9.708 0 -17.971 -6.135 -21.12 -14.75 a 23 23 0 0 0 44.875 -7 a 23 23 0 0 0 -16 -21.875 z"
       opacity="0.2"
       id="path27" />
  </g>
  <g
     id="g29">
    <path
       d="m 24 1 c 12.703 0 23 10.297 23 23 c 0 12.703 -10.297 23 -23 23 -12.703 0 -23 -10.297 -23 -23 0 -12.703 10.297 -23 23 -23 z"
       fill="url(#linearGradient3764)"
       fill-opacity="1"
       id="path31" />
  </g>
  <g
     id="g65">
    <path
       d="m 40.03 7.531 c 3.712 4.084 5.969 9.514 5.969 15.469 0 12.703 -10.297 23 -23 23 c -5.954 0 -11.384 -2.256 -15.469 -5.969 4.178 4.291 10.01 6.969 16.469 6.969 c 12.703 0 23 -10.298 23 -23 0 -6.462 -2.677 -12.291 -6.969 -16.469 z"
       opacity="0.1"
       id="path67" />
  </g>
  <g
     style="fill:#000000;fill-opacity:0.12941177"
     id="g3829"
     transform="matrix(0.38866537,0,0,0.38866537,7.9972753,7.6760112)">
    <path
       style="fill:#000000;fill-opacity:0.12941177;stroke:none"
       d="m 44,13.625 c -0.33677,-0.0028 -0.691038,0.01697 -1.03125,0.03125 -10.991195,0.461203 -19.523703,9.727555 -19.0625,20.71875 0.461203,10.991195 9.758805,19.554953 20.75,19.09375 10.991195,-0.461203 19.523703,-9.758805 19.0625,-20.75 L 63.6875,32.4375 C 63.103114,21.897836 54.439861,13.711252 44,13.625 z m -12.875,25.9375 27.125,0 C 55.742674,47.049868 47.643618,51.101076 40.15625,48.59375 35.90396,47.169768 32.550476,43.814289 31.125,39.5625 z"
       id="path3831"
       inkscape:connector-curvature="0" />
    <path
       style="fill:#000000;fill-opacity:0.12941177;stroke:none"
       d="m 31.375,56.125 c 0,0 -5.771354,1.253074 -10.375,5.875 -5.827163,5.850301 -5.375,10.875 -5.375,10.875 l 56.25,0 c 0,0 -0.544831,-4.47791 -5.544194,-10.595971 C 61.999554,56.978582 55.875,56 55.875,56 c 0,0 -5.90306,3.117417 -12.559359,3.117417 C 38.107489,59.117417 31.375,56.125 31.375,56.125 z"
       id="path3833"
       inkscape:connector-curvature="0"
       sodipodi:nodetypes="csccscsc" />
  </g>
  <g
     transform="matrix(0.38866537,0,0,0.38866537,6.9974759,6.6760112)"
     id="g3762"
     style="fill:#f9f9f9;fill-opacity:1">
    <path
       inkscape:connector-curvature="0"
       id="path2987"
       d="m 44,13.625 c -0.33677,-0.0028 -0.691038,0.01697 -1.03125,0.03125 -10.991195,0.461203 -19.523703,9.727555 -19.0625,20.71875 0.461203,10.991195 9.758805,19.554953 20.75,19.09375 10.991195,-0.461203 19.523703,-9.758805 19.0625,-20.75 L 63.6875,32.4375 C 63.103114,21.897836 54.439861,13.711252 44,13.625 z m -12.875,25.9375 27.125,0 C 55.742674,47.049868 47.643618,51.101076 40.15625,48.59375 35.90396,47.169768 32.550476,43.814289 31.125,39.5625 z"
       style="fill:#f9f9f9;fill-opacity:1;stroke:none" />
    <path
       sodipodi:nodetypes="csccscsc"
       inkscape:connector-curvature="0"
       id="path3759"
       d="m 31.375,56.125 c 0,0 -5.771354,1.253074 -10.375,5.875 -5.827163,5.850301 -5.375,10.875 -5.375,10.875 l 56.25,0 c 0,0 -0.544831,-4.47791 -5.544194,-10.595971 C 61.999554,56.978582 55.875,56 55.875,56 c 0,0 -5.90306,3.117417 -12.559359,3.117417 C 38.107489,59.117417 31.375,56.125 31.375,56.125 z"
       style="fill:#f9f9f9;fill-opacity:1;stroke:none" />
  </g>
</svg>
