<?xml version="1.0" encoding="UTF-8" standalone="no"?>
<svg
   xmlns:dc="http://purl.org/dc/elements/1.1/"
   xmlns:cc="http://creativecommons.org/ns#"
   xmlns:rdf="http://www.w3.org/1999/02/22-rdf-syntax-ns#"
   xmlns:svg="http://www.w3.org/2000/svg"
   xmlns="http://www.w3.org/2000/svg"
   xmlns:sodipodi="http://sodipodi.sourceforge.net/DTD/sodipodi-0.dtd"
   xmlns:inkscape="http://www.inkscape.org/namespaces/inkscape"
   viewBox="0 0 48 48"
   id="svg2"
   version="1.1"
   inkscape:version="0.92.2 (5c3e80d, 2017-08-06)"
   width="100%"
   height="100%"
   sodipodi:docname="com_angrydoughnuts_android_alarmclock.svg">
  <metadata
     id="metadata67">
    <rdf:RDF>
      <cc:Work
         rdf:about="">
        <dc:format>image/svg+xml</dc:format>
        <dc:type
           rdf:resource="http://purl.org/dc/dcmitype/StillImage" />
        <dc:title />
      </cc:Work>
    </rdf:RDF>
  </metadata>
  <sodipodi:namedview
     pagecolor="#ffffff"
     bordercolor="#666666"
     borderopacity="1"
     objecttolerance="10"
     gridtolerance="10"
     guidetolerance="10"
     inkscape:pageopacity="0"
     inkscape:pageshadow="2"
     inkscape:window-width="3200"
     inkscape:window-height="1644"
     id="namedview65"
     showgrid="true"
     inkscape:zoom="23.444494"
     inkscape:cx="24.941754"
     inkscape:cy="24"
     inkscape:window-x="0"
     inkscape:window-y="82"
     inkscape:window-maximized="1"
     inkscape:current-layer="svg2">
    <inkscape:grid
       type="xygrid"
       id="grid4850" />
  </sodipodi:namedview>
  <defs
     id="defs4">
    <linearGradient
       id="linearGradient3764"
       y1="47"
       x2="0"
       y2="1"
       gradientUnits="userSpaceOnUse">
      <stop
         stop-color="#5c5c5c"
         stop-opacity="1"
         id="stop7" />
      <stop
         offset="1"
         stop-color="#666"
         stop-opacity="1"
         id="stop9" />
    </linearGradient>
    <clipPath
       id="clipPath-686886115">
      <g
         transform="translate(0,-1004.3622)"
         id="g12">
        <path
           d="m -24 13 c 0 1.105 -0.672 2 -1.5 2 -0.828 0 -1.5 -0.895 -1.5 -2 0 -1.105 0.672 -2 1.5 -2 0.828 0 1.5 0.895 1.5 2 z"
           transform="matrix(15.333333,0,0,11.5,414.99999,878.8622)"
           fill="#1890d0"
           id="path14" />
      </g>
    </clipPath>
    <clipPath
       id="clipPath-711547148">
      <g
         transform="translate(0,-1004.3622)"
         id="g17">
        <path
           d="m -24 13 c 0 1.105 -0.672 2 -1.5 2 -0.828 0 -1.5 -0.895 -1.5 -2 0 -1.105 0.672 -2 1.5 -2 0.828 0 1.5 0.895 1.5 2 z"
           transform="matrix(15.333333,0,0,11.5,414.99999,878.8622)"
           fill="#1890d0"
           id="path19" />
      </g>
    </clipPath>
  </defs>
  <g
     id="g21">
    <path
       d="m 36.31 5 c 5.859 4.062 9.688 10.831 9.688 18.5 c 0 12.426 -10.07 22.5 -22.5 22.5 c -7.669 0 -14.438 -3.828 -18.5 -9.688 c 1.037 1.822 2.306 3.499 3.781 4.969 c 4.085 3.712 9.514 5.969 15.469 5.969 c 12.703 0 23 -10.298 23 -23 c 0 -5.954 -2.256 -11.384 -5.969 -15.469 c -1.469 -1.475 -3.147 -2.744 -4.969 -3.781 z m 4.969 3.781 c 3.854 4.113 6.219 9.637 6.219 15.719 c 0 12.703 -10.297 23 -23 23 c -6.081 0 -11.606 -2.364 -15.719 -6.219 c 4.16 4.144 9.883 6.719 16.219 6.719 c 12.703 0 23 -10.298 23 -23 c 0 -6.335 -2.575 -12.06 -6.719 -16.219 z"
       opacity="0.05"
       id="path23" />
    <path
       d="m 41.28 8.781 c 3.712 4.085 5.969 9.514 5.969 15.469 c 0 12.703 -10.297 23 -23 23 c -5.954 0 -11.384 -2.256 -15.469 -5.969 c 4.113 3.854 9.637 6.219 15.719 6.219 c 12.703 0 23 -10.298 23 -23 c 0 -6.081 -2.364 -11.606 -6.219 -15.719 z"
       opacity="0.1"
       id="path25" />
    <path
       d="m 31.25 2.375 c 8.615 3.154 14.75 11.417 14.75 21.13 c 0 12.426 -10.07 22.5 -22.5 22.5 c -9.708 0 -17.971 -6.135 -21.12 -14.75 a 23 23 0 0 0 44.875 -7 a 23 23 0 0 0 -16 -21.875 z"
       opacity="0.2"
       id="path27" />
  </g>
  <g
     id="g29">
    <path
       d="m 24 1 c 12.703 0 23 10.297 23 23 c 0 12.703 -10.297 23 -23 23 -12.703 0 -23 -10.297 -23 -23 0 -12.703 10.297 -23 23 -23 z"
       id="path31"
       style="fill:#01579b;fill-opacity:1"
       fill-opacity="1"
       fill="url(#linearGradient3764)" />
    <circle
       style="fill:#000000;fill-opacity:0.12941176;fill-rule:evenodd;stroke-width:0.95645195"
       id="path4902-3"
       cx="25.107265"
       cy="24.607265"
       r="18.650812" />
    <circle
       style="fill:#fdd835;fill-opacity:1;fill-rule:evenodd;stroke-width:0.95645195"
       id="path4902"
       cx="24.150812"
       cy="23.650812"
       r="18.650812" />
  </g>
  <g
     id="g61">
    <path
       d="m 40.03 7.531 c 3.712 4.084 5.969 9.514 5.969 15.469 0 12.703 -10.297 23 -23 23 c -5.954 0 -11.384 -2.256 -15.469 -5.969 4.178 4.291 10.01 6.969 16.469 6.969 c 12.703 0 23 -10.298 23 -23 0 -6.462 -2.677 -12.291 -6.969 -16.469 z"
       id="path63"
       opacity="0.1" />
  </g>
  <circle
     style="fill:#000000;fill-opacity:0.12941176;fill-rule:evenodd;stroke-width:0.95645195"
     id="path4921-1"
     cx="25.107265"
     cy="24.607265"
     r="15.781457" />
  <circle
     style="fill:#f57f15;fill-opacity:1;fill-rule:evenodd;stroke-width:0.95645195"
     id="path4921"
     cx="24.150812"
     cy="23.650812"
     r="15.781457" />
  <circle
     style="fill:#000000;fill-opacity:0.12941176;fill-rule:evenodd;stroke-width:0.82046378"
     id="path4938-9"
     cx="25.107265"
     cy="24.607265"
     r="12.306956" />
  <circle
     style="fill:#c62828;fill-opacity:1;fill-rule:evenodd;stroke-width:0.82046378"
     id="path4938"
     cx="24.150812"
     cy="23.650812"
     r="12.306956" />
  <path
     style="fill:#000000;fill-opacity:0.12941176;stroke-width:0.69988275"
     d="m 29.998047,28.709814 c 0,0.163773 -0.06301,0.326868 -0.18864,0.451096 -0.248459,0.251258 -0.653669,0.251259 -0.904927,0 l -2.850109,-2.850108 c -0.28747,0.147847 -0.609416,0.239218 -0.955503,0.239218 -1.159006,0 -2.096915,-0.940643 -2.096915,-2.099648 0,-0.912993 0.58617,-1.682225 1.399766,-1.971154 v -7.172432 c 0,-0.361139 0.292266,-0.65614 0.653406,-0.65614 h 0.09022 c 0.361139,0 0.653406,0.295001 0.653406,0.65614 v 7.172432 c 0.813502,0.288738 1.399766,1.056552 1.399766,1.971154 0,0.345826 -0.09119,0.667747 -0.239218,0.955503 l 2.850109,2.850109 c 0.125629,0.125629 0.18864,0.290057 0.188639,0.45383 z"
     id="path61-1-0"
     inkscape:connector-curvature="0" />
  <path
     style="fill:#e0e0e0;fill-opacity:1;stroke-width:0.69988275"
     d="m 28.998047,27.709814 c 0,0.163773 -0.06301,0.326868 -0.18864,0.451096 -0.248459,0.251258 -0.653669,0.251259 -0.904927,0 l -2.850109,-2.850108 c -0.28747,0.147847 -0.609416,0.239218 -0.955503,0.239218 -1.159006,0 -2.096915,-0.940643 -2.096915,-2.099648 0,-0.912993 0.58617,-1.682225 1.399766,-1.971154 v -7.172432 c 0,-0.361139 0.292266,-0.65614 0.653406,-0.65614 h 0.09022 c 0.361139,0 0.653406,0.295001 0.653406,0.65614 v 7.172432 c 0.813502,0.288738 1.399766,1.056552 1.399766,1.971154 0,0.345826 -0.09119,0.667747 -0.239218,0.955503 l 2.850109,2.850109 c 0.125629,0.125629 0.18864,0.290057 0.188639,0.45383 z"
     id="path61-1"
     inkscape:connector-curvature="0" />
</svg>
