<?xml version="1.0" encoding="UTF-8" standalone="no"?>
<svg
   xmlns:dc="http://purl.org/dc/elements/1.1/"
   xmlns:cc="http://creativecommons.org/ns#"
   xmlns:rdf="http://www.w3.org/1999/02/22-rdf-syntax-ns#"
   xmlns:svg="http://www.w3.org/2000/svg"
   xmlns="http://www.w3.org/2000/svg"
   xmlns:sodipodi="http://sodipodi.sourceforge.net/DTD/sodipodi-0.dtd"
   xmlns:inkscape="http://www.inkscape.org/namespaces/inkscape"
   viewBox="0 0 48 48"
   id="svg2"
   version="1.1"
   inkscape:version="0.92.3 (2405546, 2018-03-11)"
   width="100%"
   height="100%"
   sodipodi:docname="com_pixlr_express.svg">
  <metadata
     id="metadata67">
    <rdf:RDF>
      <cc:Work
         rdf:about="">
        <dc:format>image/svg+xml</dc:format>
        <dc:type
           rdf:resource="http://purl.org/dc/dcmitype/StillImage" />
        <dc:title></dc:title>
      </cc:Work>
    </rdf:RDF>
  </metadata>
  <sodipodi:namedview
     pagecolor="#ffffff"
     bordercolor="#666666"
     borderopacity="1"
     objecttolerance="10"
     gridtolerance="10"
     guidetolerance="10"
     inkscape:pageopacity="0"
     inkscape:pageshadow="2"
     inkscape:window-width="3200"
     inkscape:window-height="1666"
     id="namedview65"
     showgrid="true"
     inkscape:zoom="3.1466667"
     inkscape:cx="7.7167618"
     inkscape:cy="24"
     inkscape:window-x="0"
     inkscape:window-y="82"
     inkscape:window-maximized="1"
     inkscape:current-layer="svg2">
    <inkscape:grid
       type="xygrid"
       id="grid1400"
       empspacing="4" />
  </sodipodi:namedview>
  <defs
     id="defs4">
    <linearGradient
       id="linearGradient3764"
       y1="47"
       x2="0"
       y2="1"
       gradientUnits="userSpaceOnUse">
      <stop
         stop-color="#5c5c5c"
         stop-opacity="1"
         id="stop7" />
      <stop
         offset="1"
         stop-color="#666"
         stop-opacity="1"
         id="stop9" />
    </linearGradient>
    <clipPath
       id="clipPath-686886115">
      <g
         transform="translate(0,-1004.3622)"
         id="g12">
        <path
           d="m -24 13 c 0 1.105 -0.672 2 -1.5 2 -0.828 0 -1.5 -0.895 -1.5 -2 0 -1.105 0.672 -2 1.5 -2 0.828 0 1.5 0.895 1.5 2 z"
           transform="matrix(15.333333,0,0,11.5,414.99999,878.8622)"
           fill="#1890d0"
           id="path14" />
      </g>
    </clipPath>
    <clipPath
       id="clipPath-711547148">
      <g
         transform="translate(0,-1004.3622)"
         id="g17">
        <path
           d="m -24 13 c 0 1.105 -0.672 2 -1.5 2 -0.828 0 -1.5 -0.895 -1.5 -2 0 -1.105 0.672 -2 1.5 -2 0.828 0 1.5 0.895 1.5 2 z"
           transform="matrix(15.333333,0,0,11.5,414.99999,878.8622)"
           fill="#1890d0"
           id="path19" />
      </g>
    </clipPath>
  </defs>
  <g
     id="g21">
    <path
       d="m 36.31 5 c 5.859 4.062 9.688 10.831 9.688 18.5 c 0 12.426 -10.07 22.5 -22.5 22.5 c -7.669 0 -14.438 -3.828 -18.5 -9.688 c 1.037 1.822 2.306 3.499 3.781 4.969 c 4.085 3.712 9.514 5.969 15.469 5.969 c 12.703 0 23 -10.298 23 -23 c 0 -5.954 -2.256 -11.384 -5.969 -15.469 c -1.469 -1.475 -3.147 -2.744 -4.969 -3.781 z m 4.969 3.781 c 3.854 4.113 6.219 9.637 6.219 15.719 c 0 12.703 -10.297 23 -23 23 c -6.081 0 -11.606 -2.364 -15.719 -6.219 c 4.16 4.144 9.883 6.719 16.219 6.719 c 12.703 0 23 -10.298 23 -23 c 0 -6.335 -2.575 -12.06 -6.719 -16.219 z"
       opacity="0.05"
       id="path23" />
    <path
       d="m 41.28 8.781 c 3.712 4.085 5.969 9.514 5.969 15.469 c 0 12.703 -10.297 23 -23 23 c -5.954 0 -11.384 -2.256 -15.469 -5.969 c 4.113 3.854 9.637 6.219 15.719 6.219 c 12.703 0 23 -10.298 23 -23 c 0 -6.081 -2.364 -11.606 -6.219 -15.719 z"
       opacity="0.1"
       id="path25" />
    <path
       d="m 31.25 2.375 c 8.615 3.154 14.75 11.417 14.75 21.13 c 0 12.426 -10.07 22.5 -22.5 22.5 c -9.708 0 -17.971 -6.135 -21.12 -14.75 a 23 23 0 0 0 44.875 -7 a 23 23 0 0 0 -16 -21.875 z"
       opacity="0.2"
       id="path27" />
  </g>
  <g
     id="g29"
     style="fill:#b2ebf2;fill-opacity:1">
    <path
       d="m 24 1 c 12.703 0 23 10.297 23 23 c 0 12.703 -10.297 23 -23 23 -12.703 0 -23 -10.297 -23 -23 0 -12.703 10.297 -23 23 -23 z"
       fill="url(#linearGradient3764)"
       fill-opacity="1"
       id="path31"
       style="fill:#b2ebf2;fill-opacity:1" />
  </g>
  <g
     id="g61">
    <path
       d="m 40.03 7.531 c 3.712 4.084 5.969 9.514 5.969 15.469 0 12.703 -10.297 23 -23 23 c -5.954 0 -11.384 -2.256 -15.469 -5.969 4.178 4.291 10.01 6.969 16.469 6.969 c 12.703 0 23 -10.298 23 -23 0 -6.462 -2.677 -12.291 -6.969 -16.469 z"
       opacity="0.1"
       id="path63" />
  </g>
  <circle
     cx="24"
     cy="24"
     r="18"
     style="fill:#e0f7fa;stroke-width:0.0703125;fill-opacity:1"
     id="circle2" />
  <g
     id="g16-6"
     transform="matrix(0.07126885,0,0,0.07218436,6.7785857,6.5259287)"
     style="fill:#000000;fill-opacity:0.12941176">
    <path
       inkscape:connector-curvature="0"
       d="m 346.136,115.763 v 190.261 h 70.104 c 5.064,-15.802 7.808,-32.638 7.808,-50.078 0,-58.944 -31.082,-110.657 -77.912,-140.183 z"
       style="fill:#000000;fill-opacity:0.12941176"
       id="path6-0" />
    <path
       inkscape:connector-curvature="0"
       d="m 190.988,409.463 c 19.926,8.177 41.765,12.707 64.67,12.707 68.364,0 127.137,-40.223 153.53,-98.001 h -218.2 z"
       style="fill:#000000;fill-opacity:0.12941176"
       id="path8-6" />
    <path
       inkscape:connector-curvature="0"
       d="m 173.291,110.949 c -51.316,28.493 -85.996,82.723 -85.996,144.995 0,17.878 2.875,35.118 8.183,51.272 L 233.781,170.67 Z"
       style="fill:#000000;fill-opacity:0.12941176"
       id="path10-2" />
    <path
       inkscape:connector-curvature="0"
       d="m 102.666,325.287 c 14.313,30.739 37.832,56.443 67.13,73.646 V 260.39 h -1.436 z"
       style="fill:#000000;fill-opacity:0.12941176"
       id="path12-6" />
    <path
       inkscape:connector-curvature="0"
       d="m 331.786,107.604 c -22.862,-11.442 -48.711,-17.916 -76.13,-17.916 -21.909,0 -42.827,4.176 -62.03,11.694 l 138.16,136.432 z"
       style="fill:#000000;fill-opacity:0.12941176"
       id="path14-3-1" />
  </g>
  <g
     id="g16"
     transform="matrix(0.07126885,0,0,0.07218436,5.7785857,5.5259287)">
    <path
       inkscape:connector-curvature="0"
       d="m 346.136,115.763 v 190.261 h 70.104 c 5.064,-15.802 7.808,-32.638 7.808,-50.078 0,-58.944 -31.082,-110.657 -77.912,-140.183 z"
       style="fill:#ffca28;fill-opacity:1"
       id="path6" />
    <path
       inkscape:connector-curvature="0"
       d="m 190.988,409.463 c 19.926,8.177 41.765,12.707 64.67,12.707 68.364,0 127.137,-40.223 153.53,-98.001 h -218.2 z"
       style="fill:#80deea;fill-opacity:1"
       id="path8" />
    <path
       inkscape:connector-curvature="0"
       d="m 173.291,110.949 c -51.316,28.493 -85.996,82.723 -85.996,144.995 0,17.878 2.875,35.118 8.183,51.272 L 233.781,170.67 Z"
       style="fill:#e57373;fill-opacity:1"
       id="path10" />
    <path
       inkscape:connector-curvature="0"
       d="m 102.666,325.287 c 14.313,30.739 37.832,56.443 67.13,73.646 V 260.39 h -1.436 z"
       style="fill:#b388ff;fill-opacity:1"
       id="path12" />
    <path
       inkscape:connector-curvature="0"
       d="m 331.786,107.604 c -22.862,-11.442 -48.711,-17.916 -76.13,-17.916 -21.909,0 -42.827,4.176 -62.03,11.694 l 138.16,136.432 z"
       style="fill:#9ccc65;fill-opacity:1"
       id="path14-3" />
  </g>
</svg>
