<?xml version="1.0" encoding="UTF-8" standalone="no"?>
<svg
   xmlns:dc="http://purl.org/dc/elements/1.1/"
   xmlns:cc="http://creativecommons.org/ns#"
   xmlns:rdf="http://www.w3.org/1999/02/22-rdf-syntax-ns#"
   xmlns:svg="http://www.w3.org/2000/svg"
   xmlns="http://www.w3.org/2000/svg"
   xmlns:xlink="http://www.w3.org/1999/xlink"
   xmlns:sodipodi="http://sodipodi.sourceforge.net/DTD/sodipodi-0.dtd"
   xmlns:inkscape="http://www.inkscape.org/namespaces/inkscape"
   viewBox="0 0 48 48"
   id="svg2"
   version="1.1"
   inkscape:version="0.92.3 (2405546, 2018-03-11)"
   width="100%"
   height="100%"
   sodipodi:docname="com_zombodroid_MemeGenerator.svg">
  <metadata
     id="metadata67">
    <rdf:RDF>
      <cc:Work
         rdf:about="">
        <dc:format>image/svg+xml</dc:format>
        <dc:type
           rdf:resource="http://purl.org/dc/dcmitype/StillImage" />
        <dc:title></dc:title>
      </cc:Work>
    </rdf:RDF>
  </metadata>
  <sodipodi:namedview
     pagecolor="#ffffff"
     bordercolor="#666666"
     borderopacity="1"
     objecttolerance="10"
     gridtolerance="10"
     guidetolerance="10"
     inkscape:pageopacity="0"
     inkscape:pageshadow="2"
     inkscape:window-width="3200"
     inkscape:window-height="1666"
     id="namedview65"
     showgrid="true"
     inkscape:zoom="27.5625"
     inkscape:cx="24"
     inkscape:cy="24"
     inkscape:window-x="0"
     inkscape:window-y="82"
     inkscape:window-maximized="1"
     inkscape:current-layer="svg2">
    <inkscape:grid
       type="xygrid"
       id="grid836"
       empspacing="4" />
  </sodipodi:namedview>
  <defs
     id="defs4">
    <linearGradient
       id="linearGradient3764"
       y1="47"
       x2="0"
       y2="1"
       gradientUnits="userSpaceOnUse">
      <stop
         stop-color="#5c5c5c"
         stop-opacity="1"
         id="stop7" />
      <stop
         offset="1"
         stop-color="#666"
         stop-opacity="1"
         id="stop9" />
    </linearGradient>
    <clipPath
       id="clipPath-686886115">
      <g
         transform="translate(0,-1004.3622)"
         id="g12">
        <path
           d="m -24 13 c 0 1.105 -0.672 2 -1.5 2 -0.828 0 -1.5 -0.895 -1.5 -2 0 -1.105 0.672 -2 1.5 -2 0.828 0 1.5 0.895 1.5 2 z"
           transform="matrix(15.333333,0,0,11.5,414.99999,878.8622)"
           fill="#1890d0"
           id="path14" />
      </g>
    </clipPath>
    <clipPath
       id="clipPath-711547148">
      <g
         transform="translate(0,-1004.3622)"
         id="g17">
        <path
           d="m -24 13 c 0 1.105 -0.672 2 -1.5 2 -0.828 0 -1.5 -0.895 -1.5 -2 0 -1.105 0.672 -2 1.5 -2 0.828 0 1.5 0.895 1.5 2 z"
           transform="matrix(15.333333,0,0,11.5,414.99999,878.8622)"
           fill="#1890d0"
           id="path19" />
      </g>
    </clipPath>
  </defs>
  <g
     id="g21">
    <path
       d="m 36.31 5 c 5.859 4.062 9.688 10.831 9.688 18.5 c 0 12.426 -10.07 22.5 -22.5 22.5 c -7.669 0 -14.438 -3.828 -18.5 -9.688 c 1.037 1.822 2.306 3.499 3.781 4.969 c 4.085 3.712 9.514 5.969 15.469 5.969 c 12.703 0 23 -10.298 23 -23 c 0 -5.954 -2.256 -11.384 -5.969 -15.469 c -1.469 -1.475 -3.147 -2.744 -4.969 -3.781 z m 4.969 3.781 c 3.854 4.113 6.219 9.637 6.219 15.719 c 0 12.703 -10.297 23 -23 23 c -6.081 0 -11.606 -2.364 -15.719 -6.219 c 4.16 4.144 9.883 6.719 16.219 6.719 c 12.703 0 23 -10.298 23 -23 c 0 -6.335 -2.575 -12.06 -6.719 -16.219 z"
       opacity="0.05"
       id="path23" />
    <path
       d="m 41.28 8.781 c 3.712 4.085 5.969 9.514 5.969 15.469 c 0 12.703 -10.297 23 -23 23 c -5.954 0 -11.384 -2.256 -15.469 -5.969 c 4.113 3.854 9.637 6.219 15.719 6.219 c 12.703 0 23 -10.298 23 -23 c 0 -6.081 -2.364 -11.606 -6.219 -15.719 z"
       opacity="0.1"
       id="path25" />
    <path
       d="m 31.25 2.375 c 8.615 3.154 14.75 11.417 14.75 21.13 c 0 12.426 -10.07 22.5 -22.5 22.5 c -9.708 0 -17.971 -6.135 -21.12 -14.75 a 23 23 0 0 0 44.875 -7 a 23 23 0 0 0 -16 -21.875 z"
       opacity="0.2"
       id="path27" />
  </g>
  <g
     id="g29"
     style="fill:#212121;fill-opacity:1">
    <path
       d="m 24 1 c 12.703 0 23 10.297 23 23 c 0 12.703 -10.297 23 -23 23 -12.703 0 -23 -10.297 -23 -23 0 -12.703 10.297 -23 23 -23 z"
       fill="url(#linearGradient3764)"
       fill-opacity="1"
       id="path31"
       style="fill:#212121;fill-opacity:1" />
  </g>
  <g
     id="g61">
    <path
       d="m 40.03 7.531 c 3.712 4.084 5.969 9.514 5.969 15.469 0 12.703 -10.297 23 -23 23 c -5.954 0 -11.384 -2.256 -15.469 -5.969 4.178 4.291 10.01 6.969 16.469 6.969 c 12.703 0 23 -10.298 23 -23 0 -6.462 -2.677 -12.291 -6.969 -16.469 z"
       opacity="0.1"
       id="path63" />
  </g>
  <image
     width="32"
     height="32"
     preserveAspectRatio="none"
     style="image-rendering:optimizeQuality"
     xlink:href="data:image/png;base64,iVBORw0KGgoAAAANSUhEUgAAAgAAAAIACAYAAAD0eNT6AAAACXBIWXMAAC4jAAAuIwF4pT92AAAK T2lDQ1BQaG90b3Nob3AgSUNDIHByb2ZpbGUAAHjanVNnVFPpFj333vRCS4iAlEtvUhUIIFJCi4AU kSYqIQkQSoghodkVUcERRUUEG8igiAOOjoCMFVEsDIoK2AfkIaKOg6OIisr74Xuja9a89+bN/rXX Pues852zzwfACAyWSDNRNYAMqUIeEeCDx8TG4eQuQIEKJHAAEAizZCFz/SMBAPh+PDwrIsAHvgAB eNMLCADATZvAMByH/w/qQplcAYCEAcB0kThLCIAUAEB6jkKmAEBGAYCdmCZTAKAEAGDLY2LjAFAt AGAnf+bTAICd+Jl7AQBblCEVAaCRACATZYhEAGg7AKzPVopFAFgwABRmS8Q5ANgtADBJV2ZIALC3 AMDOEAuyAAgMADBRiIUpAAR7AGDIIyN4AISZABRG8lc88SuuEOcqAAB4mbI8uSQ5RYFbCC1xB1dX Lh4ozkkXKxQ2YQJhmkAuwnmZGTKBNA/g88wAAKCRFRHgg/P9eM4Ors7ONo62Dl8t6r8G/yJiYuP+ 5c+rcEAAAOF0ftH+LC+zGoA7BoBt/qIl7gRoXgugdfeLZrIPQLUAoOnaV/Nw+H48PEWhkLnZ2eXk 5NhKxEJbYcpXff5nwl/AV/1s+X48/Pf14L7iJIEyXYFHBPjgwsz0TKUcz5IJhGLc5o9H/LcL//wd 0yLESWK5WCoU41EScY5EmozzMqUiiUKSKcUl0v9k4t8s+wM+3zUAsGo+AXuRLahdYwP2SycQWHTA 4vcAAPK7b8HUKAgDgGiD4c93/+8//UegJQCAZkmScQAAXkQkLlTKsz/HCAAARKCBKrBBG/TBGCzA BhzBBdzBC/xgNoRCJMTCQhBCCmSAHHJgKayCQiiGzbAdKmAv1EAdNMBRaIaTcA4uwlW4Dj1wD/ph CJ7BKLyBCQRByAgTYSHaiAFiilgjjggXmYX4IcFIBBKLJCDJiBRRIkuRNUgxUopUIFVIHfI9cgI5 h1xGupE7yAAygvyGvEcxlIGyUT3UDLVDuag3GoRGogvQZHQxmo8WoJvQcrQaPYw2oefQq2gP2o8+ Q8cwwOgYBzPEbDAuxsNCsTgsCZNjy7EirAyrxhqwVqwDu4n1Y8+xdwQSgUXACTYEd0IgYR5BSFhM WE7YSKggHCQ0EdoJNwkDhFHCJyKTqEu0JroR+cQYYjIxh1hILCPWEo8TLxB7iEPENyQSiUMyJ7mQ AkmxpFTSEtJG0m5SI+ksqZs0SBojk8naZGuyBzmULCAryIXkneTD5DPkG+Qh8lsKnWJAcaT4U+Io UspqShnlEOU05QZlmDJBVaOaUt2ooVQRNY9aQq2htlKvUYeoEzR1mjnNgxZJS6WtopXTGmgXaPdp r+h0uhHdlR5Ol9BX0svpR+iX6AP0dwwNhhWDx4hnKBmbGAcYZxl3GK+YTKYZ04sZx1QwNzHrmOeZ D5lvVVgqtip8FZHKCpVKlSaVGyovVKmqpqreqgtV81XLVI+pXlN9rkZVM1PjqQnUlqtVqp1Q61Mb U2epO6iHqmeob1Q/pH5Z/YkGWcNMw09DpFGgsV/jvMYgC2MZs3gsIWsNq4Z1gTXEJrHN2Xx2KruY /R27iz2qqaE5QzNKM1ezUvOUZj8H45hx+Jx0TgnnKKeX836K3hTvKeIpG6Y0TLkxZVxrqpaXllir SKtRq0frvTau7aedpr1Fu1n7gQ5Bx0onXCdHZ4/OBZ3nU9lT3acKpxZNPTr1ri6qa6UbobtEd79u p+6Ynr5egJ5Mb6feeb3n+hx9L/1U/W36p/VHDFgGswwkBtsMzhg8xTVxbzwdL8fb8VFDXcNAQ6Vh lWGX4YSRudE8o9VGjUYPjGnGXOMk423GbcajJgYmISZLTepN7ppSTbmmKaY7TDtMx83MzaLN1pk1 mz0x1zLnm+eb15vft2BaeFostqi2uGVJsuRaplnutrxuhVo5WaVYVVpds0atna0l1rutu6cRp7lO k06rntZnw7Dxtsm2qbcZsOXYBtuutm22fWFnYhdnt8Wuw+6TvZN9un2N/T0HDYfZDqsdWh1+c7Ry FDpWOt6azpzuP33F9JbpL2dYzxDP2DPjthPLKcRpnVOb00dnF2e5c4PziIuJS4LLLpc+Lpsbxt3I veRKdPVxXeF60vWdm7Obwu2o26/uNu5p7ofcn8w0nymeWTNz0MPIQ+BR5dE/C5+VMGvfrH5PQ0+B Z7XnIy9jL5FXrdewt6V3qvdh7xc+9j5yn+M+4zw33jLeWV/MN8C3yLfLT8Nvnl+F30N/I/9k/3r/ 0QCngCUBZwOJgUGBWwL7+Hp8Ib+OPzrbZfay2e1BjKC5QRVBj4KtguXBrSFoyOyQrSH355jOkc5p DoVQfujW0Adh5mGLw34MJ4WHhVeGP45wiFga0TGXNXfR3ENz30T6RJZE3ptnMU85ry1KNSo+qi5q PNo3ujS6P8YuZlnM1VidWElsSxw5LiquNm5svt/87fOH4p3iC+N7F5gvyF1weaHOwvSFpxapLhIs OpZATIhOOJTwQRAqqBaMJfITdyWOCnnCHcJnIi/RNtGI2ENcKh5O8kgqTXqS7JG8NXkkxTOlLOW5 hCepkLxMDUzdmzqeFpp2IG0yPTq9MYOSkZBxQqohTZO2Z+pn5mZ2y6xlhbL+xW6Lty8elQfJa7OQ rAVZLQq2QqboVFoo1yoHsmdlV2a/zYnKOZarnivN7cyzytuQN5zvn//tEsIS4ZK2pYZLVy0dWOa9 rGo5sjxxedsK4xUFK4ZWBqw8uIq2Km3VT6vtV5eufr0mek1rgV7ByoLBtQFr6wtVCuWFfevc1+1d T1gvWd+1YfqGnRs+FYmKrhTbF5cVf9go3HjlG4dvyr+Z3JS0qavEuWTPZtJm6ebeLZ5bDpaql+aX Dm4N2dq0Dd9WtO319kXbL5fNKNu7g7ZDuaO/PLi8ZafJzs07P1SkVPRU+lQ27tLdtWHX+G7R7ht7 vPY07NXbW7z3/T7JvttVAVVN1WbVZftJ+7P3P66Jqun4lvttXa1ObXHtxwPSA/0HIw6217nU1R3S PVRSj9Yr60cOxx++/p3vdy0NNg1VjZzG4iNwRHnk6fcJ3/ceDTradox7rOEH0x92HWcdL2pCmvKa RptTmvtbYlu6T8w+0dbq3nr8R9sfD5w0PFl5SvNUyWna6YLTk2fyz4ydlZ19fi753GDborZ752PO 32oPb++6EHTh0kX/i+c7vDvOXPK4dPKy2+UTV7hXmq86X23qdOo8/pPTT8e7nLuarrlca7nuer21 e2b36RueN87d9L158Rb/1tWeOT3dvfN6b/fF9/XfFt1+cif9zsu72Xcn7q28T7xf9EDtQdlD3YfV P1v+3Njv3H9qwHeg89HcR/cGhYPP/pH1jw9DBY+Zj8uGDYbrnjg+OTniP3L96fynQ89kzyaeF/6i /suuFxYvfvjV69fO0ZjRoZfyl5O/bXyl/erA6xmv28bCxh6+yXgzMV70VvvtwXfcdx3vo98PT+R8 IH8o/2j5sfVT0Kf7kxmTk/8EA5jz/GMzLdsAAAAgY0hSTQAAeiUAAICDAAD5/wAAgOkAAHUwAADq YAAAOpgAABdvkl/FRgAAs2JJREFUeNrsnXtcVHX+/1/cbzIIGhaMGV5SyEiLhFxdLwmbmqZCra5a hmVaRvb9KmqrdtE0L/sNqda01bR0dQvUYrVfaF6yCxhlEYIuGrkOKKgIAwNy//0x5zPzOWdmYAbO DMPM+/l4nAfMwJw5c2bmvF+f99WlpaUFBEEQBEE4F650CgiCIAiCBABBEARBECQACIIgCIJwRNyd +cW7uLjQJ4AgHPTrDcDhE5woh4sgAUAQhLMZd+ltFyP3i2wlt0nvJwgSAARBEF3A6LtyBt8VgEtJ SckoAGhqanLp3bv3N0YMPwA0C783SwRBC4kBggQAQRCEfRp+FwCuX3/9deADDzzwmLu7+yh3d/dI V1fXSIOlvuAWr6+vP1tfX//r9evXv8/Kyjo1Y8aMS4LxbxI2JgSaSAwQTvnlcuYYEuUAEETXMPwV FRWj/fz8ktzd3Se1d4d1dXX5V65c+fT//b//d3jBggVFguFvlAiCZk4Y2L0QoBwAggQACQCCcFjD 7+/v/zdjK/2OoNFosi9duvTpPffcs1cQAQ0SMcC8As32LARIABAkAEgAEIQjGX/XnJycwCFDhmx3 c3ObbM0nrK+vL87Pz08dOnToPgD1ghCQigG7FQIkAAgSACQACMJhjP+VK1fu79Wr1xEXF5cAWz15 XV1dSV5e3jtRUVF7BSFQ35WEAIxXRpjUDWbe59Q4g20kAUAQhL0YLzeNRjPH19f3g846kLq6upLv v/9+7ZgxYw4BqDMhBOwhR8BF8ju/uUrulxr5llY2EgQkAEgAEAThXMafp7KyMmfDhg3L1q5de0EQ AXWcEGiEPlnQ1sZSlCMBwOXy5ctDAwMDR3l4eES6urr2aWlpcQGA5uZmF07Y/KpWq88WFRX9+sc/ /vEXzptB1RAkAEgAEATReca/oqJiakBAwCf2dHCNjY3VFy5c2BMeHv5/AG4Jm9QjYCtvgEFypK+v 75Pu7u6TLQ2VNDY2qioqKv7fgQMHts2bN+93OEA1BAmADrxIZ90Iguh0AeB25cqVB5ubmyta7BS1 Wv2flJSUxwH0BxAKoAcAfwA+ADwAuKHtToQdOUdste9eVVWV0NTU9Itcr626ujrr6NGjfwZwB4Db AHQH0A2ANwBPaHvFuFrx9ZFt7EwbSAKAIIhOMv6uADzkNGjWoqGhoeqHH374G4AIAH0A9BKMpR8A LysZSrYvt2vXrkU1NjaetNbrKy0t3f/4448PAaAEEGzktVlT5JAAIAFAAoAgnMj4uwBwr62tXdPS hSgpKfl63LhxIwAMkHgDvGX2BuhW/TU1NYtt4SFpbGxUf/LJJ3MA9BNeW08ACgC+gjfAqUQACQAS AARBWMn1/9lnn/WyZ9e/KWpqaq6sW7duJoBwwRsQDCBARkOpM/719fUf2fr1HT9+/DXB03EXgNtb 8XSQAOjiGyUBEgRha+MPaLP+X/f19X2lK76IhoYGzfHjx1P+9Kc/fQKgGkAt9EmC0gTBFgvPjwsA 1/r6+h0eHh6zO+P1/f7771+EhYW9AkADoEZ4bawSor2vrcsJAIf/MpIAIAjCxgLAFYB7c3NzqS2b /ViD/Pz8tHvuuWetIAI6aijtwvgzLl68+GX//v1XCK9NI4gcvhzSoUWAM9hGV7oeEQRhaxFQUVHx VFc3/gAQERGRoFKp3hk5cuSd0MbL/aCtDmAZ9Hw4wMUMz4hrXV3dq51t/AGgX79+f/rPf/6zFtoQ AHttLNfBaasDSAAQBEG0b/XvAsDNx8dnkqO8qNDQ0D98/vnn2/7whz8ooU0IZCKAz6B3lRh6o8b/ xo0bYzw9PVfYy2sbMGBA7HffffcitDkO/tDmOfiQCCABQBAE0Z5rjpuHh8dIR3pR3bt373v8+PED K1eujBZWy904EeBhjgj48ssvewQGBn5gb6/toYce+sunn376OOcJ8IG46qG110WQACAIgtAaiTNn zgx1BPe/FA8PD7+VK1emvvLKK8OEFXM3MzwButX/H//4xyQXF5c+9vjaEhISFm3dunW8xBPgBX3V gxuJgK6HO50CgiBsZfwBuAYGBt7V0R3NnD4D2VlZutvhERFQKpWIjolGbFwcQpXKThMBr732Wkpw cPDKRYsWfQ2uZz+0CXQu0Lfc1Rn/zz77rIeXl9dCe37z5syZsyg/P7908+bNP8L4ECE2X8AFNEyo a3whqQqAIAhbGX8AnuXl5a8FBgYmd2Rn+9PSkLx4icm/K5VKzEl8GtMSEqBQKDrlBX/++ecbH3vs sU8BqGGYRc8qBABtSeRrXaEksr6+vmbYsGGJv/zyy2UAFQCqoK9+kFY+dGmoDJAEAEEQ8gkANwCe 165de71nz56LO7rD0SNGQqVStfl/8QkJSFr0Uqd4BQ4ePPi3qVOnfgqgEvp+AbwIAAD3pqam866u rnd2hTfy+vXr/42Li/vfM2fOqCQigH9dXb48kMoACYIg5MWNH1PbEZIWvWTW/6WnpWHUiJFITdkM tVpt0xc7ZcqU/92/f/8TMB47dwfg/uuvv97fVYw/APTs2fPOXbt2scoAvjzQqYcHkQAgCIJo3Qvg IpcAmJaQACW3qvf3dMXq4cGY3M8f/p6Gl7bUlBSMHjES+9PSbPqip06d+j9paWl/hjaLnpUJegmb R2ho6GNd7Y289957//jZZ5/9hRM2xnoEgEQACQCCIAidAGhpaZHNKExLSND9XlWvDamvfigYX0zp g9XDgxHSTZznrFarkbx4CWZOn4FiM8IHchEfH/9yWlra4xIR4A3A28fHZ4Rcz1OQn4+li5fYRORM njz5yddee+0PEu8GXx5IlQH2/oWkHACCIGxk/D0B+BQVFS266667XpVjp8UqFUaN0LcUiOrlg+2x IaL/2XOuEltyy3UCgaFQKLB+00bExsXZ7CSkp6e/nZCQkAZtYmANgKampqZcV1dXWTIVJ02YiIL8 fADayog9+/ZaNQmyvr6+5oEHHpifl5f3XwA3oc110EA/F6HLJgVSDgBBEITMFBUV5cu1r1ClUmTA c0prUaJpFP3PzEEB+GJKH8wcFGDgDVgw7zksXbzEZrkB8fHxL//jH/9g9fQBALrJZfzVarXO+DNv wOgRI0X3yY2np6fv8ePH13BegG6gfAASAARBEMbYtWvXWTn3FxsXK7p9/LLG4H/8PV2RHNUT22ND DMIC6WlpmDl9hlUNJc/s2bP/56WXXnoAQPfXX389Sq79Gjt+tVpt9dfWs2fPO7/77rvnoW9+REmB JAAIgiCMCoDKurq6Ern2N07iwv/sYpXJ/43q5YNPJvTG5H7+BsZT2lzImqvmDRs2rHv++efv9/T0 DLGmALCVCHjooYf+lJKSMg6G1Q7ULpgEAEEQhL5zXGlp6Vdy7VShUIjCAOdv1hnE+6XegNUPBWP1 8GBRtQAzlLZIoPP09PR9++2337j77rsHy7VPtVosfAYGetlUBMyfP3/+PffcEwJ9KMCUCCBIABAE 4YQCoBlA8+HDhw/IuWODMIBK0+ZjJvf1NxoSSF68BEtb6TIopwiYOHHiVGvtf3tsiFERYK3qBy8v L5/Dhw8vg2FVgCcnACgUQAKAIAgn9gA0L1iw4OytW7euyLVjaRjg2GWNWY8bGOiFTyb0RlQvH9H9 6WlpNkkO9PLy8rHWvv09XbE9NsTAyzF/3nNWe1133nnnwLS0NL7xkbF8AJAIIAFAEITz0QxtaVhj bm7uPrl2qlAoEB0To7udU1prsaGU5gWw5EBbdw9sL7x7nwkaYyKgID8fC+Y9Z7XjiI+Pn/HMM89E Qj8WmYUCpBMRCRIABEE40+pfEABNr7zyitXCAFX1zRaJAEDbQCg5qqeBUe0qIsDUMQ4M9DIQAdlZ WVYNc7z55psLjHgBeBFAoQASAARBOKkIaPzqq6/KS0pKvpFr57wHQOsFuGXxPmYOCsDq4cFdVgSY YmCgl4G4SU9Ls1rCY3BwsPLUqVPzBC+AqVAAiQASAARBOJEAaBK2BgD1+fn5J+TaeXhEhKjr3Q8W egAYk/v6G1QIdDURcP5mndHXtSAySHRf8uIlVqsMGDFixLhXXnklGvqqAB8YDwWQCCABQBCEk6AT AevWrTsi547bmwdgzFgai53bswjgX7upMsj5kYEY09tPdN8CKyYFJicnPxcREXGHERHgIdgfskEk AAiCcBKaha0RQMOxY8duqNXqC/IZwWjR7Y6IAGOxc0cIB6x+KFhUHqhSqayWFBgQEBD0/vvvs6mB LCGQDwW4gEIBJAAIgnB4WA6AKAzw+++/n7TGKlgrAG51aH+OKAK0Y5NvM0gKTE3ZbJXnGzly5MPL li0bBsOqABodTAKAIAgnFAI6EZCZmXlUrh1L8wDOGYmFkwjQvqbVD4mTHVNTUqzWCnnZsmXPhoeH 3y6IAD9oQwF8QiDZIhIABEE4iRdAFwZYsmTJr42NjdVyigC9B6BWln06oggY09vPYEKitZofBQQE BG3atGkqxG2CKRRAAoAgCGf2AACov379+k9y7VyaDCcdD9xREcBj7aY6HcGc150c1dMgH8Ba/QEm TJgwcc6cOffCeCiAGgSRACAIwglFQGNxcfEP8nkAwkW3z5fXyXbQAwO9DPoEWLupTntfd0l1g1mP Sxl9u8izcSQz02r9Ad56661noe8N4At9KIBVBZAXgAQAQRAObvz5roANhYWFshWjSxMBz9+sl/Xg WZ8AHjY7oDPhcx8sIcTP3aBJ0Jo3VltlaFCvXr1C9+3bNwXGywKpNwAJAIIgnEQE6NoCz5gx4zs5 DaFSqdTd/kGmPABzRIAtRglbg8l9/UX9AdRqNZKtJGimTJnyaFxcXF/oQwGmRABBAoAgCAcWAU3Q JgM23rx5U7Y8gFBOAJy/WWeVg5/c199ggFDy4iV2IwIs9XysfihYNBrZWqWBXl5ePikpKbM5LwBr E8yXBVIogAQAQRBO4gVouHnz5jm5dmytREBjRlMqAta8sdpq7XVbg69+YK/bEvw9XY2WBlrjtYSH h0cuWbIkCoZVAeQFIAFAEISTGH+dCLh69WqBfMawfQlx7RUBfCa9Wq3GzOkzbC4C2psDwBPVy8eg NNBaoYC//vWvT8N0QqAb5wkgSAAQBOGA6PIA8vLy8uTaKZ8DAHS8I2BbbI8NMRAByVaqqTcXdX1T ux63IDJIFAooyM+3SiggICAg6N///vefBQ+AMS8AM/4kAkgAEAThwJ6Apueee+6sfB4AsTu8WNNg 1Rfh7+lqUE7XGT0ClKLch/p2vxZjoQBrVAU8/PDDY2NjY/tCPzLY1MRAggQAQRAOZvz5PIDGioqK H60hAkqqG63+YkL83A26Bdq6R0CoxPPRXmwVCvD29vZ+8803p8F0h0BKCCQBQBCEo3sAADTV1NQU W2M1nGOFUkBjDAz0Mqip76zyQEuTAKVIQwHZWVnYuWOH7Mf54IMPDlu8ePEDoIRAEgAEQTilF6BF EACy+Zk7mhXfXib39ceCyCCD1bMtkgKVMpY/Gg8FbLZKXsOCBQseg2EuAHUIJAFAEA6Pi4nNVbK5 mbFJH2Nq3/ZEM9t+/fXXbPkEgKQlsJX6ARhjfmSgQXngzOkzrBJH55ErBMCI6uUjeh1qtdoqIY2+ ffv2+/vf/x4LfV8A3gtAI4NJABCEwxh43pi7cz/dhQueJ7f6Yb97cT9Nbfz/eRrZl7vk+XjR0Nki oQlAU25u7n/l2qG0LE7ulsBtkfxAT4PKgPnznrNpZYAc/Q+SH+hpMCvAGmODZ8yYMfHuu+/uZcQL wH9OCTkvTC0tLc774l1ITBKyG3pjRt/oKv/777+/S6lU9mlqanLx8/Pr4+Xl1QcAmpubXdzc3BRe Xl73Njc3m/UhvXXrVl5zc3Mlu11bW/vfmzdv/tfNza1FrVZXRkdH50Lsbm9rg5Hb4O6XEzfhQu8L IKClpeWiXDvuf1eY7vcFkUGYHxlo0w9EiaYRTxy6LAo/xCckYP2mjVZ5viOZmaLKg+2xIYjq5dPh /X7+WxVWflemu61UKvH54UOy9B7gycjI+H+TJ0/+CEAZgBsAbgKoBlALoF4Qitb4DBrgDLbRna7Z BCG7sXcF4JKTkxMWEhLSx9fXd4i7u3uAp6fnSADw8PAYIffBeHl5/YG/HRgYiJCQEIOL2a1bt74T BEJeS0tLpUql+qaysrLyj3/84y8QN+dpMXK7uRVh0JGrpagaQKPRnPfz8xsolxeArbjP2TAEwAjx c0fKqNsx90iJ7r70tDREx0RjWkKC7M8nt0FmTO7rj88uVumSKVUqFXbu+BBJi16S9XliY2NH9+/f /8sLFy7UCEb/FrQjoxsF489/DgnyAJAHgOhUg+8KwKWkpGR0t27d7vPw8Ih0c3PrYw0jb20aGxtV DQ0Nl6uqqr6rqan57++//547ZsyYXHAxeoi79xkTDO0RBC6CB8AHQLfr16/v6tGjx1g5XtPM6TN0 7uqoXj7YHhvSKed2z7lKbMi5Ll7tHj5kkKjYUQry8zFpwkSreD1KNI0Yf+CS6L6T35ySPe/g9OnT P0RHR6cKXoDrACoAVAGo4bwALdb2ApAHgCDI4BsY/IKCgrvuuOOO0Z6enpFeXl4jXV1dIx3iYuDu rnR3d1f6+Pg8BAB33XUXWlpaUFtb+31tbW1eRUXF2e++++7U7NmzLwkX4WYTGzhhYK4g0D3+5s2b 5+QSAPyK2FalgEaFyKAAnLtZh88vVonEyYlvTsm6apdbUEi9GQsig7Alt1x335o3VmPLtq2yPs+w YcMeHDt27F3Hjh1jXoA6wfA3cMa/iS5RHYeSKgjCuKF3gZAs99lnn91WUVExt66u7sOmpqbCQYMG nQ8ICNjq4+PzgqMY/9bw8fF5KCgo6Nm+ffumzJo168empqbfqqqq9l26dOnlL774Ihr6Pu4+0Cdu SXu6SxMNDRZcTADU19dXdgWDaCnGkgKt3SlQ7g6IMwcFiHoDWCshcO3atY9B3xeAdQek5kAkAAjC +kb/8uXLURqN5vWmpqacyZMnXw0ICNjq6ek5y9XV9U6nv2i4uiq6dev2pzvvvPO1Rx555GhTU9PF ysrKfZcuXVq0bdu2cE4QeENcz823dzUmBloANF+4cEG2gnmFQlyK15leAH9PV6wefptBp0C5++xb swOiv6crkh8QNzqyRllgdHR01MyZMwdB3xvA2KAgggQAQXTY8OuM/q1bt95uamq6oFQqs319fV9x hhW+HIJAoVDE3Xnnna89++yzpxsaGs5cvXp1088//5wgiAFfiXfAA8YnvrVA2wtAtlJAe/IAANpO gcb67Mu5irZWIiBjTG8/UWWBNiFQ/g6Br7/++hMQ9wXwgbgvAHkBSAAQRLuMvisAN6nR9/LyWkir /I7h7u6u7NWrV+J99923vampqbCysvKf58+ff3rBggUhEA988ZJ4BlwAYMWKFZetZQytPRXQXAMq 7bO/QMb+ALbIe0iO6iERMfJ3COzXr1/fRYsWDeVEABOR5AUgAUAQ7Vvtf/311z3VanViU1PTj2T0 beMduPvuu//v73//+7mKioo9Z8+eTZSIAYO2r3V1dSWO6AHQG1Dr5QPY4jUPDPQy6BBojZHBCxcu nCgRAF7kBSABQBCWGH5XAG5Xrlx5oL6+fseIESMK/f39t5F73/YEBATERkREbBLEwO6zZ88mSi7u ngDca2trr1jj+TujF4ApjE0OtIYRtVYLZGmHwJ07dsje6rhfv359X3rppSEQ5wIYaxFMkAAggwfj veTb6htvz33iO2z4NRrN0w0NDcduv/320x4eHrNdXFwC6KNiP2KgsbHxfFlZ2ZZdu3Y9KIgB71u3 bmnkep7omBjd77YaCGQO/p6uSBl1u+g+OfIBomOiRbet9Zr9PV0xa1B30X1r3lhtbS+ALycU2XWM vAAkAGiVyxl7d+hdqq31jZcmZLl1cTFgYPibm5sv+Pr6fuDu7j6SPir2iZubm/9tt9027cknn8yo ra09/u233869cePGNWs8lz0JAEDbnEg6OXCBzPMC5JgHYIr5kYFWLwvs379/WFJS0hBBAEi9RZQL QALAqVf6rgDcLl682K+mpublurq6DxsaGr5qbm4ubWlpudXS0lLT0tKiaWlp0dTX12fX1tYeuXHj xmu//PJLLMTZ2V6cGHA3Iga6pOF3cXHpQx+XroO3t/cdw4cPT7rnnnvi5dqnnCNyrWVE+az6juYD SHMA5C4FlCIVMNYIY7z44osTYHxSIHkBSAA4neEHANevv/66Z01NzcvNzc0X+vbt+x8fH5+Nnp6e s9zd3Ucac3N7eHgM9vb2Hh4UFLQkMjLys6ampqKbN29u+/bbb2MlXywviCfH2asQIMNPtIncrWqt werhwQb5AO0trZNWPqjrrds0b3Jff1FCY3ZWlrW8APdBPymQvAAkAJzO+AOAa05OTo+6urrXRowY Uejj47OxvcbO1dVV0b1798eHDx+eVl1d/fmXX34ZC/EoTi879QiIsvorKiqmkeEnzMUevQAhfu4G /QHWvLEaBfnt64nEewFsMQZZWhZojeZAghfAD4bJgOQFIAHgFCt/t1u3bi26//77L3h6eq6QM5nN z88vOi4ubu+NGzd2xcfHh8KwBSefNIhO+qKJDP+VK1ceaGxs/CogIOATMvyEKWyVFNdRjPUHSF68 pF35ANZuBiQlqpePQXOg/WlpsnsBpk+ffjcMvZXUF4AEgEMbfpecnJygxsbGdC8vr03WzGIPCgp6 +F//+tfJL7/8choAhQkh4NYJIoAPffSor6/fcfvtt592c3P7I31MCEdhQWSQyJ1ekJ/frpg6n/dg q/bHCyRTB62RC5CUlDQW+mRAXyMLFPICkABwGOMPAK6XL1/uO3To0K/c3Nwm2+KJ3dzc/OPi4jYf P358FicCfCHuxW0rESBa9Ws0mqdHjBhR6OHhMZs+IkR7sIVLvL0Ymxewc8cOHMnMtGg/nZH3YAsv wEMPPXT/qFGjekPcHpi8ACQAHNP4X7t2bWhoaGhOZzStGT169Kvnzp17FUAAtJO5/GDbuJtIBDU2 Nn4lxPmdro5frVbrkquys7Jkb7vqyPB9AAD7DQEwBgZ6GWTWL7UwFKBUhopuO5IXYN26dRMlAoAf NkVeAAtwp1Ngv+Ls66+/DurRo0daZxq8gQMHPpGRkfH7pEmTPuUMPjPObCnVJNxukelp+edwramp WeTt7b3CUQw/y5DOzsoGoHXzsot7sUoFVQe6qSmVSt3qT6FQ6JLBwiPCdbdtHR8mLGfmoAD8UFqL 45c1OgG4dPESbNm21W49AMwLMKa3n+64mRdgWkKCbM8xdOjQiL59+/b87bffqgFoANQAqBOuR43Q jpVuok+RGRfalpYW533xLnYpEnXu7qamphx7aVd78ODBv02dOvVTAFUAqiVfuibuC9ciw+vXCaCH Hnpou7u7+6SuuGIvyM9HQX4+VKpi3e/2snJnQiA6JgZKZShClUqDlbIj0f+uMN3vY3r7GXTgs0eq 6psx/uAlkcdixaqVmJOY2OZjC/LzMWnCRG5lHoT5ktW5tSjRNGL8gUsiUXrim1OyPseBAwe+mjZt 2l4ApQCuASgHUMldl5qEa1G7r0fOYBtJANif8QcAt9ra2te8vb3/ak8Hl56e/nZCQkKa8EVj6ltO EaB7/RUVFaMVCkVaV1n1F+TnIzsrCwX5BcjOyurQKr6zhUFERATCI8IRHhHhMKJg0oSJupK6qF4+ 2B4b0iWO+/hlDRadvKq7rVAokHH4kFkrfF702FIAAMDcIyWisMOGTRtl9QLcunXrlo+PT7IgAMoA XAdQIVyXbgFoEDwBJABIAHQpAeB6+fLlB5RKZbY9nrO0tLSUxx9//FNOBNQIXzgmAprbqbx1TX1q amoW+fj4bOwKBj87K1uWmPzAQC9d4tfAQE8oPN0s9zrUN4kS3OSK+0bHxAhiIBrRMTFdMoQwc/oM XeilKwkAANiQcx17zlWK3o89+/a2+bj7I+/TfS5t/ZpzSmsx90iJVb0AKSkpaS+//PJhiRegSliY sHAACQASAF1CAOhc/w0NDV+1t3c9m8ZlzRjgzz///NnQoUM3CiKgqoMiQBfvz8nJCYqMjPw/e83w P5KZiaOZR9q1wg/p5o4QPw882MsH/p6uGBjoKfz0svpxl2gaUVLdIPxsRLGmASXVje0WCMwzEBsX 22U8BF1ZAFTVN+OJw5dFLX2TFi1C0qKX7Po1S70AW7ZtRWxcnHyf65KSq6GhoW8KAqAUwA3BC6AB UAt9PkC7jBwJABIAthYAbqWlpWODg4O/bO9OtCVDR8xaIXSE8+fPfzVo0KDXTIgA6RevpQ3j73r5 8uWwkJCQdHsb0cuM/pHMTLNX+QMDvTAwyBODAr0wMNBTVBplj8bl/M065JTeQrGmAefL6y3ulBcb F6cTA/badnfBvOdEpXS/zOrXpa5V0hU1AGQcPmTQ959n6eIlSOfK8Gz9mqXHbK7nwhIWLly49b33 3vue8wLcBKAWrkdsQUICwARUBWBfq3/X7t27v9iRHanVVcjOypI989bAyA0c+PDNmzfDxo8fvzAr K6sY4sx9F04ENMN4hYDO+F+5cuX+Xr16HbGXeH9Bfj7S09KxPy3NLKMf1csHD/byQVQvb7s29sbw 93Q1qN9mF++c0ls4d7MOOaW1rZbOHcnM1BnX8IgIxCfEIzYuzq7EQHhEhMW19PYEmxq4Jbdcd1/y 4iXIOHzI5GM6+/yzzxXzArASVjm9RjNmzIh+7733foG+JLAG+pJA5o0E5KtQIgFAWAXXnJycvp6e no921HgB2j7i1l6Rde/eve/Ro0d3rl+/fvnq1at/hH4wDy8CYEQE6JL9bty4MSYwMPDTzjb+arUa RzMz8eGOD9vsvx7SzR1RvXwwVumHKMGl72hIRQHzEvxQWtuqICjIz8eaN/Kx5o3VdisGuirzIwNx 7LJG56FhXQJNhQKM9QKwtUCdNShAFAbYueNDWQXAH/7whyFhYWE9ioqKqqCfD+AJvSeST04mpKsw CgHYjQfAvaKi4n8CAgLe6siO+LhfeEREqysEuWhoaNBkZma+++ijj/4L+uqAW9BWCDRCnBfAcNNo NHN8fX0/6MwTX6xSIT0tHTt37Gh1tR/SzR1jlH54rJ+/TeL29s75m3U4frlGZJBaIzomBvEJ8RgX F9cpSYSpKZuRmpKiu93VQgD8eX/ikDj/xFQoIDsrCzOnz9DdThl1O8b09rP5MY8/eEmUv3Dym1Oy CsL09PTjCQkJ/wJwFdqKgBvQhgE03DXI4sRkZ7CN1AnQPoy/KwBXb2/vkR3dGd8DvCA/3ypTuaR4 eHj4TZw4cemFCxfWjRo1Sglt+2BfTo2zaYJsmFCnG/9ilQpLFy/BqBEjkZqSYtT4+3u6YuagAHwy UYkvpvRBclRPMv4CAwO9MD8yUHtupvbB6uHBrRqX7KwsJC9egtEjRmLp4iWyj4u1FFt1xrPGeZd2 CUw28R1XSoxsZ7VAlh6v3N0Bx4wZc7+w+veFeEog3xmQIAFg1yLAzdPTc0RHdyRV1ulpabL34zZF v379/vTZZ599sGbNmgehbR/MDxJiX0j3ioqKxM4y/rzhTzdxXqJ6+SBl1O345okwMvpmEOLnjsl9 /XXnrDUxoFarkZ6WhpnTZ2D0iJFtel7kQjoRsCszPzLQrIFB0muBur5zPOGT+/qLwmTpZubWmEtQ UFDAypUrHxAEAE0JJAHQ9QTAsWPHwuSIgysU/gb3JS9eYrMEqICAgH7Jyclbvv3223nQzxDQKfPS 0tLEgICArbY+wayVqinDz1b7X0ztg+2xIZ3iKnUE/D1dDcSAqbizSqXCmjdW67wCbeVeEHpWD79N sqpOMXr+eC9AZw5BmjWou+j2zh0fyrr/adOmPSjxAHiB5gOQAOgiq3/XO+64I0yOnZkqC7LlBdbD w8Nv+PDhSdeuXdv1/PPPRzBvwNdffx0bHBz8d1uf4NSUzRjdiuFfEBmkc/GH+FFerNxiYHtsCL6Y 2gcLIoMQ0s3dpFdg0oSJmDl9RpfO1rcV5oYCeC9Aiaah04535iDx2kZur+SQIUMG3nXXXUGCAODH l7uTF4AEgN0LgPr6elneC1MCQK1WY+b0GTZdZfXs2XPI5s2b//ntt98u+Nvf/hYzfPjwHbY8sdlZ WRhtIsYf0s0dq4cH45snwjA/MtAhM/ntiRA/d8yPDMQXU7Qelsn9/E2+ZwvmPYfRI0baLHTVVTEn FMBfD/hEvE4Rg9x7bo1RwStWrIiBYRjAkxMA5AEgAWB3xt8FgIu3t3d3OXaoUCgMkn86UwS4u7t3 Gz58eNL//M//7HNzc/O3xXOq1WosmPccZk6fYdCxj634P5nQG5P7+tMnsBOI6uWD1Q8Ft+oVUKlU uqRBa+QJdKY7XE6koYCdO3bouoGy6wFPiabzRMAsiRcgPS1d1v3/6U9/uh/6MACNCSYB0HWEQGNj o2zvhdQLwK9uO0ME2JIjmZkYPWKkUTfyzEEB+GJKH1rx26FXYPXwYKPJlnyeQGrK5nYLAakobq2x UVdCGgpQq9WiUIA0+bGkuqFTj5V/j7OzskRipaMolcrg+Pj4vhDnAjAR4EbGnwSA3b4PFRUVVXLt TPqlnzWou8OLALbqXzDvOQMjEdXLB19M1cb4yfDbJ5P7+uOTiUqTCZhqtRqpKSntFgKO3Iho5qAA kRclOysLO3fssEvPx6xwsRfgQ5mTARMTEx/kPADSZEA38gKQALC71b/cO5QO3CjWNGB7bIjDioCC /HxMnjDRYNXv7+mK1cODsT02hJL7ugisBPOLqX2M5gnwQoByBLjP+UPBovuYSJJ23etsz4e0JFDu 93DMmDH3SQSANAxANo8EgP1x5swZ2XxhoUqlyOWZU1qLgYFeJkVAV8663i9kj0tj/WN6++GLKX0o zt9FCfFz1+UJmBICLEeAhIBWOPHniZW9AuI8gB/soAES/51Uq9Wyvn8+Pj5ef/3rX4cYEQHuwkar fxIA9sfChQsvNzU1yRYGGMd5AUqqG3H+Zp1JEbBg3nNd8iK6dPESg9Inf09XJEf1RMqo28nd7wRC gCUL8i2wnZXkB8QhriOZmcjOyhLlBNlD7sNjkvfRCsmA98CwHJBvCkRhABIAdkdLZWXlabl2Fp8Q L7r92UWttmAiQJpwlbx4Cda8sbpLnCjmuZDW9bPXJq05JhxfCLC+9wvmPSdrYllXwlgoYOniJSIP gKWjnq2BtZMBo6KiBgorf2NeAOoJQALAvgw/++Xq1auyCYDwiAhRGOC4SmNgKKUiYOeOHUaT6OzR +EtXe5P7+Rt9TYTjCgFjHQaPZGYK8x022/Xn2FqM6e0nOi8qlcrgu2IPXgBpMqCcYUgfHx+v5cuX DxEMPzP+Ui8AQSfCrkRA83fffZct506lYQB+AIq/p6vRjOsjmZl2mxxoKnExOaonVj8UTC5/JxMC 22NDTIq+1JQUo4mhjOJO7IpnbVYPDzb43gwM9EJyVE98MbWPXXxPxij9JIsPeasBHnnkkYhWPAD8 2HISAESn0wyg+dlnnz1769atK3Lt1CAM8Js4xcDf0xUpo243cJkX5OfbXXKgKeO/engwufydmKhe PvhkohKrhwcbNBRSqVS6hlBSF3NndsWzhThiDZbYfItPJiq15YJ2Ug1jrDOgnIuOBx988G5o4/+8 F0BaDkgeADoFnb7yZ1szgKaSkpLjcu3cIAxwWWPU/Zcc1dPoqmHBvOfsIi/AmPH393TFJxOVlOVP ABD6CEzobdAfH9DGmCdNmOhU54M1WLLn+RZjJV4AOZMBjYQBjCUDkgCgU2AXIqAZQBOApvPnz/8g 587nJD6t+72qvlmUC2BwAZ2oNFhF7dyxA5MmTOy0kIAp40/xfsLYqnJ+ZKDR/ABnzAewd8b09hOF I47K7HH8wx/+0Bf6EICxMIDTVwOQALAfL0AzgMYJEyZkNjY2Vsu1c2lToN0FlSb/d2CgFz6Z0Nvg 4slCAqa6i1kT6RRDMv5EW7D8gJRRtxudM0DYlwhgqFQqWcOOMTExfBiA9wBQNQAJALuimQkAAA0l JSUn5dpxqFIpEgHnb9a1WgrEDKzUlapWq7HmjdVG46nWIjVls8EFIWXU7WT8CbONyycTelOOiB3z mCSEdzTziGz77tGjh2LKlCl9YBgGoDwAEgB25wVoErbGn3/++bicO58mSQbcfa6yzcfMjww0GhJg 8VRrewOOZGYiNSVFdN/q4cFGS78IojVBmxzVE59MVJJwtEOievkYzDGQk0ceeaQfZ/y9jHgAKARA dLrx5/MAGh577LHM2traq3I9QWxcnFnJgFJYSEDaeMXa3gC+jSlj5qAASvgj2s3AQC98MlFJA6Hs VAQw5K4GGDVq1EAYDwO4kQggAWBPIoAJgEYADZcvXz4p5xNMS0jQ/V5V34zPfzOv6zDrLmastS7z BqSmbJb1ZCxdvESUtBXVywfJUT3pU0J0mJmDAvDJxN4Ya2TiINE5WLMaYNCgQco777xTwXkApMOB nBoSAPYlApgAqD9w4MDncu6crwYAgN3nKix6PBuuI20cxKazTZowURb33ZHMTFHcn/UqIAi5CPFz p7wAO8La1QAzZswYANNhAKfOBSABYD+IPADLli3LU6vVF+TauUKhQDznBSipbjTbCyA1xsayq1ml wNLFS9odFjDm+qcOfwThHCKAoVKpZA0tjhgx4i5h5c88AFQOSALA7lb/ojwAAHVZWVn/kvNJkha9 JLrNBgS158tqKrs6XRjP255e7Dt3fCh6zJjefgYeB4IgHI8HJcm9cpYD3nfffXdCHAKQhgHIA0DY jRBgAqBh3bp1RxsaGjRy7TxUqUR0TIzudk5prWg+gKXeAJZdbazpCuvFbu6YYbVaLaosYPsnCMIJ PABK6UwS+coBe/fufVvv3r35PAAKAZAAsAuMuZ90XoATJ07cUKlUp6zpBdiSe7ND+2OTBVcPN3TV s1nto0eMbFPRS1f/swZ1t9sWpgRByIu/p6toISF3OeD06dP7GfECOH0lAAkA6xl0NnGKfcjc29ik pSkA0Pzhhx9+KucBRsfEIDwiQuQFKNF0fDDK5L7++GJKH6O92PmhLKa+2NLVPyVpEYRzMdbIZFK5 GDlyZB+I8wD4a64rnDQPgJZYHTf4rRl/6Qrf5euvv+5z55139mlqajL4sDU1NbnU19e7VlVVeVRU VHhVVFT43H333SMbGho0Hh4esgXDn058Gslcst2W3HKsfihYFhU/PzIQk/v5Y0tuOT6X5BhkZ2Vh 5vQsRMfEIGnRS7pwxP60NNHqf3Jff0r8IwgnI6qXt+R6kW3Qyry99O/fvxe38jfWEtgpPQAuLS0t zmu9Xdr9nrtIvCguly9fvr9Hjx5/9PDw+COA7u7u7iPt+bWPHjESKi7T9oupfWR3ueeU1mJL7k2T eQZMCOzc8aFI7VvjWAiCsH9GfFKka1IWHhGBjMOH5LzevwmgFMAV4ed1ABUAqgHcgrYCS2cQncE2 0jLLcsOvW+F//fXXPevq6l5rbm6+oFQqs318fDa6u7tPsnfjDxjLBSi3gqL3wfbYEGyPDTHawlfr EZghMv4DA73I+BOE03oB9NeJgvx8Wac4JiYm9pN4AJy+IyAJAMtX/a5ff/11j/r6+g9HjhxZ5unp ucLFxaVPV3sx0xISRO2BP79YJUsuQHuEAM9j/ajdL0E4K9JyQDmTAR944IE7YBgCcOowAAkAy1b9 bjU1NS+PGDGi0MPDY3ZXf2G28AJYKgSo7p8gnNkDIM4DKMgvkG3fgwYNChYMv6leAE6XCEgCwLxV v0tOTk5QQ0PDfh8fn40uLi4OkaJuSy+AOUIgpJs7uf8JwomRTmyU0wPQv3//2zgBIPUAuDnj+SYB 0Lbxd7127dr9Q4cO/crd3X2So71IW3sBjAmBL6b2weR+/gbNQAiCcEYvgHX6Adx55509oY/9G5sK 6HT2kARAG8b/ypUr9/fo0eOoq6trpCO+0M7yAvCE+Llj9UPB1PmPIAiDPAA5xwM//fTTYZwIMJYD QCEAQntuvv7666BevXodcRSXvz16AQiCIHgGBnpaTQD069cvkBMA0l4ATpcISALA+OrfBYDrH/7w h6OObvztxQtAEAQBAAODxHkA+TImAt55553doe8CKPUCOF0iIAkAQ+MPAK61tbWvOqrb3xwvwMrv yujTQBCEzQnxcxd1ApXTA/DAAw+EwnQIwOkSAUkAGDknly9fvt/b2/uvzvSipV6AjkwKJAiC6JAX gKsGkFMA+Pn5eUE8f0U6FdCpbCIJAPHq3wWA6+23377JGU/AX1etFN3u6KRAgiCI9gkAfR6AWq2W rSNgnz59egjG3pgHgHIAnH31X1paOqYrtPK1BrFxcboBPcwLcPyyhj4VBEHYlNBuHqLbcnoBoqKi AmF8AqvTVQKQAJCs/rt37/6iM58IaS7Ahh+v06eDIIhO8wAAQDE3uKyjREREBEI8op0PAZAAcNbV f05OTl9PT89HnfkkRMfEiLwAJdWN2HOukj4dBEHYUACIKwFUqmLZ9h0UFOTDGX5eALiRAHBiL0D/ /v0fo9MAbNi0UXR7S265bkQnQRCEteGrAAB5QwBDhw69zYgHgLn/2RM7hQggAaB/0129vb1H0ukA QpVKxCck6G5X1TdTcyCCIDrNCyDnWOCWlhYXI6t/p8wBoMkrehHg5unpOcLRXlixSgWVBfGz7Kxs rQJXKET37zlXicf6+Ru45giCIKztBZAzByAqKioE+rp/EgAEXI4dOxbWnq5/arXawD2lvc/87lUF +flmK1xjz2crNuTcwPbYEPq0EARhdUK6uQOl2t9VMgoAAanx5/sAkABwstW/6x133BHWngcrFAqs eWN1pxllW8LKAsf0pql9BEFYl1A/D6vsVwgBuEq8AE7XBAigHACdAKivr2/3uXh/21YoJC5zR4XK AgmC6AzkWmT17ds3SCIAePe/U4UByAMgvNkNDQ3tFgChSiX27NuLmdNndChZJUoyBrM1/D1dMciC ePzAQE+DzNrW9k2xfoIgOhNpLwC5EgF9fX09jRh/pxwJ7OwCwEXys92ER0SYFAFjevth9UPBZhtg giAIZ8fK10tXyeZiZHN4yCIJ56EjHgBeBGQcPoTwiAjR/ccvazD+4CVqqEMQBGE/iz8XGHf/O4/h o8+B9g1vbm6W5Y1n4QC+jh7Q1tJvyLmOuUdKaMoeQRBE51/3TXkASAA4G7t3786Ta18KhQLrN23E FiPJgTmltZh7pAQrvy9DiaaRTjxBEIQZyFxpJTX4Lkb+RgLAWdiyZYu6qampSs59xsbF4cQ3pwy8 AQDw+cUqjD9wCe/n3qQ2uwRBEG2gVst6eXaBk8b9SQCYoLKy8rTc+2TegD379hrkBgDaPvvjD5IQ IAiCsDEubXgCSAA4AS3s58WLF7+y1pNEx8Qg4/AhbNi00SAswHrtkxAgCILoFBHgdMafBICeZgDN a9euzbT2E01LSMCJb04hadEiEgIEQRBmL6KirWX4jf2NBICTrP7Z1nzw4MGK0tLSk9Z+UoVCgaRF L+mEgBQSAgRBEAQJABt6AAA0ZmZm7rHVkzIhcNJEoiAJAYIgCIIEgPW9AM0Amp588snvr1+//rMt DyBUqcT6TRtJCBAEQXDXPYIEgC0EQDOAJgCNABqWLl26pjMORCoEKEeAIAhn5fzNetFtuQau1dTU 1HMLP1M2gQSAk4mAJgANAOp37NhRlJWVtaezDoYJAUoWJAiC0GKsjLo9XLhwoUJy7W9xNsNPAsC4 AGAioO6hhx7aduXKlbOdeVDSZEESAgRBOAvFmgZbXPdbnFkEkADQhwCaoQ0B1AO4BaBm4sSJr12/ fv2/nX2AlggBGjhEEIQjUFLdKPvqHwCqq6vrjRj/FvIAkBBgAqAOQO2ZM2dK586du06tVt+whwM0 RwhsyLmO8Qcv4fhlDb2jBEF0Wc7frBNd++QiPz+/og3j7zRigASAHqkXoBaA5vPPP/8tJiZmWWlp abG9HGhbQqCkuhGLTl7F3CMlNHCIIIguR1V9syikGR0TI/dij/f8NnO3KQTgpKv/FiMCoAaAuqCg 4MqoUaPezMvLy7Ong2ZCIOPwIaPlgzmltXji0GUKCxAE0WVX/9prnb9s+/7qq6+utmL8nSoUQALA 0AvQJAiAekEAVANQnz9/vuTee+99OzU19ZNbt27dsqeD5ssHpUqZhQXIG0AQRNcRAOISQDlzAK5f v87nADSZMP5OIQJcWlpanPZD5uJi0PLZRRBF7gA8AXgD8AOgABAIIAhA0MiRI/tu3rw5YejQoXfb 4+s6kpmJN99YDZVKJbrf39MVKaNuR1QvH7rCEARhtyw6eVWUx3Th9yI5r/u7AJQDuAbgCoAS4fdy AGph4dfQ0tLi8GVVJAAMBQAAuHEiwIcTAd0FIdAdQNDy5cuHrVy58jEfHx8ve3ttarUaqSmbsXPH DoO/rR4ejMl9/ekqY5WVS53JcszzN+uN/i2kmztC/NxN7nNgoBf8PclZRzgP4w9e0lUBhEdEIOPw IVn2+9tvv1X069fvgGDsywTjf0UQADcBVEEb/q1vcQLj6E4fNREtgghguQDSWdHsf5oBNK1bt+7b f/7znxfWrVs3esaMGcPt6YUoFAqsWLUSsXGxWDDvOajVat3fVn5XBgAkAiygRNOIkuoG5JRqoz8/ lNYK9zeIypVsgVYweADQenUGBXrpfh8Y6EmigXCA75r+OyVnAuCVK1c00Id6+c0pcwBIABgXAeBE ACQCgG8b3Hjp0qWGv/zlL59v3rz5zM6dOx8bNGiQ0p5eTHRMDE58cwozp89AQX6+SASE+LlTOMDE Bejzi1U4d7MOJdWNBglJnX581eILZGsln0wsMKHARIL2pxe92YTdkSOIa/01TL4xwEIJIC8AGjkB wAsBp4BCACb+JPx0hTgnwAuAL7QhAX9owwL85p+YmBixePHikeHh4aH29FrVarWBCPD3dMUXU/rQ StEIc4+UGFyIHBEmEAYGekLh6YaoXt4I6ebRakiCIKyJNP7/U+4vsvUBmD59+lf/+te/CgFcB3AV Wvf/VQA3AFQA0EDbCK7JGUIAJABa+bMREeAhiACWHMiEABMD7Hf/N998c9i8efOG9+zZ02787MZE wILIIMyPDKSrjoSq+mbMPVJicvWv8PPBoDCtsyc8LBQKP1/d34YN7i/bcRQUFaNKoxciak0NCor0 LSlO5xVa7RwMDPRCSDd3DAr0ImFA2Ox7N+ITfcKfnPF/4Zq/RzD01wTDXwJtLsANaBMAq6GtACMB 4OQCgBcBrDrAjRMBXtAnCDIh0I0TA90AdFuzZk3Uc88995C9CIFilQqTJkzU5QT4e7rimyfC6Mpj pggIDQ7CwbeXQeFnf6ETJgaKy8pRXFYOAMgW7jtXpIJaI49HI6qXDwYGemJQkBcGBnpSKIGQjc9/ q9LlKAHAilUrMScxUZZ9X7x4sbJ///6fQZvsxyoArggCgK8AYALA8W0gCQDz/lUiAtygDQmwUkFf 6EMD3XhPgHDbVxACMfYgBFJTNiM1JUV3e3tsCOUCmOD8zTrMPVIiyt4PD1PiozVJdikC2vYoqFCl qcXpvAs6gVClqUVBkYpEAdHpSN3/J785hVClPGlV+/btuzBjxoxT0FcAXOUEAKsAqIF2IFwzCQAS AMa8Aa4SbwATAj4Sj0A3I5vfmjVr7u9sIVCQn49JEybqblMYwHIRMGzwAHy8JsmhXicvDlRlN1Bc Vt7uEANLMnywlw+ienlTVQLRJiWaRow/cEkvtGV2/y9YsODb999/P18QAKXQx/+vQRsWqIa2BLAB QAsJABIApkSA1BvAhIAXJwR8TQgBP8Ej0GlCQK1W4/7I+0gAWEBOaS3mHikR3Td1bDTeSprl8K+9 uKwcBUUqnCsqRkGRCgVFKl2IwRIGCrkEg4K8ENXLh/IJCBHv597Ellz952rDpo2YZqTFeQeu93sB VEKbAFgKbfy/FIYJgI0kAEgAmOsNcOFEAN9BUBoa8JOIgE4TAkcyM7Fg3nO629QYyDyk8UkAeGrS aLwyN94pz8fpvEIUCKKAiQNLCOmmLUPVeglIEDg7Iz4p0nnZFAoFTnxzSrbs/1OnTl354x//+BW0 rn5WAcA6AN4QhIEGQvzfWQQAfePaB98wyIW7j68tZWOFb0E/WKhG+JDpRMCKFSu+WbFixU+2FAI7 d3woWZl50jtqBpP7+utmKzB2ZZxAeJgSU8dGO935GDZ4AIYNHqC7rdbU4lyRCqfzLqCgSIXTeYWt Jh6WVDfi8+oqfH6xSiQIxir9ENXLh0IGTiau+RBbbFycrCOAv/jii2LhusyuzfXQuvrrhfucshEQ eQBk2A33ky8Z5BMFWekgyxHwlXgCdB6B1atXPzB//vxoawkB6eo/pJs7vpjSh65AFrDy+zKd0WK8 t/xZjIuOpJMjgeURZOcVWuwlYCGDsb39KEnVweFb/wLyJv8BQGRk5KFff/21BPoEQBb/vy54Bfj4 fzO0LgASACQA2i0EWH4A6x/AhwZYjoAxIdANgN/p06fjH3zwwb5yHqBarcbkCRNFQ4JSRt2OMb39 6ArUQRGg8PPBR2uSEB6mpJPT2mdQU4vTeYXCdsFsQeDv6ar1DghigMIFjrX650NrsXFx2LJtq2z7 v3DhgnrAgAGHoI3zs/j/FbQS/3cWAUDfIvngPy1NMAwJtBYWYEKgG4Dau+66y+Xee+8NkfsAU1M2 i4x/VC8fMv7tJPmBnjhfXq/rEaDW1OLJFak4+PYyhAYH0QkygcLPB+OiI3XeEnMFQVV9M45f1uhK xJh34LF+/lRy2IWRhtQAYE7i07I+x/bt2wuhd/eza3Ad9GGAJu6a7VyLYPIAWG/3wk8+UZAlC/JV A7xHoBsA/y+++GL2I488MknOg5GW/vl7uuKTib1pJdXBi5e0UVBX7hFgD/Ahg6+yc81qXsTnDpCg 7VpsyLmOPecqdbfjExKwftNGWZ/j9ttvP1haWnoD4vp/Vv7HTwBk7n+n8QCQALDB05gpBHwA+EVF RYV89913ezw8PGS9ks2cPgPZWVm621T6Jw+mGgUdfHspnRw5hKuQVHg0O9esngR8qGCM0o8SCe38 u/PEIbHHR+7Y/7///e/LkyZN+gb68j9eADD3fzW0XtkG3gtAAoAEgC2FgDcA37Nnz/5vRETEPDmf mBL/bC8CnKVHgC1h4YKj2blmewfG9PYjMWCnPHFIJfKeJS1ahKRFL8n6HI8//viptLS0Ioj7/7PV P+v/r4E2JNBEAoAEQGcIAXcAXk8//fTtH3zwQZabm5usFQCjR4wUxf6p9a/8GOsR8OL0CVg4fTyd HCt6Bw4cy8bR7FyzGhORGLAfpE1/lEolPj98SNbSv6tXr9becccd/xZW/8z9Xwpx9r+o/a+zCQAK ANse9qlqltx23bBhw9NyG39jiX9k/OXHWI+Ad/YdRmhwkFP2CLAF4WFKhM9V4pW58SguK8fR7Fwc OJZtMpGQTyIc09sPj/X1p5yBTiCntFZk/AFg/aaNshp/AEhJSTkHffIfn3zNJwFKewA41yKYPACd ewhMiH388cc9Z86cWeDi4hIg187VajVGjxipm/wHAF9M7UOJf1bEWI+Ag28vpfJAG2KOGGD4e7pq PQOUQGgTSjSNeOLQZVG4bE5iIlasWinr8wir/8PCCp9N/7sqeADY8B/m/td1/xOt1CgEQALABgLA BYBbdXX1635+fsvl3PmaN1Zj544dutszBwUgOaonXYWszNwjJcgp1cenFX4+VB7YSag1tfgqOxe7 Mk60KQZCurljjNKPSguthNGqGZkH/jC2bNnyn+eff/4naN3/NyQC4Dq0OQFV0Cf/NZMAIAHQGQLA 9bPPPus5adKk83Ku/otVKowaMVK00vliSh+KfXbWhY7KA7uUZ2BgoBce6+ePyX396TtjLWGsUCDj 8CFZs/4BQKPRNPTr1+/L0tLScuiT/8q41T/r/V8DbSigAUbc/yQASABY2/gDgHt5eXliYGDg+3Lu fOniJUhPS9PdprI/22LM1TkuOhLvLX+WTo4diYFdGcfbTCCc3M+fQgQdxFhobM++vYiOibHW6v9n 6JP/2Oq/DPraf9b616j7nwQACQCbrP4BuDc1Nf3H1dX1Tmut/kO6ueOTCb1pJWNjjNU5O/P0QHuF VRMcOJbdamlhSDd3PNZXgcn9/CmPpoPGX+5Rvwwh9v8ltO79CmG1X2pk9a+RrP6dUgCQRehkDVJR UfGUnMYf0Gb+8yyIDCLj3wkMDPTC6uHBovt2ZZzAgWPZdHLsiPAwbSXBD3s24L3lz5qs2iipbsSW 3HKMP3AJi05e1VUUEJYZ/zmJiVYx/gDw9ttv/0dY1bOMfw23sQoAlv3fBCfN/icPQOd6AHSr//r6 +qMeHh4jZFvNSFr+UtOfzkfa7pQGB9k/5iYPklfAOFX1zVh08qoo5g9Yp9Uv48yZM+X333//SWjd +2z1z2L/16BN/mOrfzb4p9mUAKAQAAkAawoAt8LCwqj+/ft/L+eOpbH/1cODMbmvP4jORZoAFRoc hINvL6OkwC6AuSGCMb39MGtQgNP32SjRNGLRiauiJFhrG38AGDNmzMkTJ05chba8j8X+y6CP/VcI f6vlvAAmDSAJABIA1jL+LgA8amtrt3t7e8+Ua8fGYv+0+refFZG0MmDY4AH4eE0SnZwuxIFj2dh/ LLvVuQQh3dwxa1B3p6wgyCmtxaKTV0XJr4B12vzybNmypfD555/PNbL6Z8b/hiWrfxIAJACsuvr/ 5JNPeiYkJJyTs/SPVv/2jbGZAdQuuGtSXFaOXRnHW/UKsCZDCyKDnCI8IG3vy7BWwh/j6tWrtUOG DDleWlpaCX3m/3VOAPB1/6ztbyOz8yQASADYWgC4X7t2bW7Pnj230Orf+iuSDTk3ENXLG2N7+3W6 e/b4ZQ0Wnbwquu+95c9iXHQkWdUuiLm5AlG9fLAgMtAhwwMlmkas/K7MIN6vUCiwZdtWq5T68cTH x3+/f/9+FfSZ/9ehd/9fFwQBn/nf5uqfBAAJAGsZf1cAHg0NDafd3d3vpdW/bVcmbFX2YC+fThsK YywpkDoFdn0KilRtVnmEdHPHgsggh/lu7jlXiS255QYu//CICLy/bavsTX6k/P3vf7/wwgsv/CoY d9b1j63++cQ/ad0/SACQAOgMASB78p+05z91/TNEmoTHYB3fonp527T9q/R4KB/AsbwCH2WcwP5j WSabDPl7umLWoO6YOSigS35PmWdNmugHaMv8kha9JPtwHymFhYVVd99993HB+LOe//zq/wb0Pf9r YDj8ByQASADY0vi7APDQaDT/5+vr+7xcO965YwfWvLFad5u6/hlSVd+M8QcvGaxUpKuzqF4+Nun6 Zux4KB/A8WgrabCr5QmUaLS9EKS1/YDW5b9+00bExsVZ/Tiqq6sb+/Xr91VZWZlaMP7S1T/v+q+G vumPWat/EgAkAKyy+gfg0dzcfEXO5L/RI0aKRv7SxD/jGIu/t4YuVNDbzyrnM6e0FnOPlIju+3hN EoYNHkBvloNxOq8Q+4VSQlNM7uePWYMC7HIQUVV9Mzb8eN2o4Qe0JX5/XbXS6qt+3fPFx2fv37+/ WDDurOyPrf6vCbcrBHFQC33in9mNf0gAkACQWwC4X716Nb5Xr1575drpkcxMLJj3nOgisvqhYLri mkAafzeXgYFeVkkklGZOU38Ax8ac6gF7ShhsbcUPaGP9K1attHqiH09ycnLuxo0bf4PWra+G1s1/ Q2L8y6HP+q8TVv5NsKDrHwkAEgByGn8XAB41NTU7fHx8/iLXjhfMew5HMjN1tz+ZqKRRpm3wxCGV KHYZGhyEcdGROJqd2+ZgGED+RELp8dC8AMfHnDyBzhQCOaW1+Oy3KpOGX6FQIGnRS5iTmGjT48rI yCiePHlyjrCql7r+Wb3/TYiz/uuhj/uTACAB0CkCwA2AZ3Nzc4lc7n9p6d/AQC98MpHay5qzqpFO 6mOleGxK3Om8QhzNzjXbOzC2tx/G9PZtl/gydjwUCnAeDhzLxjv7DpsUAraqHKiqb8ZxlQa7CyqN Jvcxwz8nMRFzEp+2mbtfYvx/Eox/NcQ1/2xjxp9l/bO4v1mJfyQASABYSwB4FBcXx4eEhPxTrp2m pmxGakqK7jaV/pnP579VYeV3ZfoLm58Pvtr2usj1rtbU6oTA6bxCs7wDfCJhVC8fs70De85VYkPO dZFX4ti21+mNcjIh0FrCoLWEwPHLGhxTaUyu9jvb8AO6jP8T0Hbx00Af9y/nVv4s7l8NfdY/c/2D BAAJgM4QALrBP3K7//nkPyr9sxzpRLdx0ZF4b/mzJv+/oEiFr7J/xdHs3FabvvBYkkgoLQ18ZW48 npo0mt4oJ+N0XiHe2feF1YRAVX0zckprcUylwfHLmlYrY5RKJZIWvYRxcXGdYviZ8R8xYsR3ZWVl 1YJxZyV/bPXPjP9N6JP+LM76JwFAAsBaAkB29z8l/3UcY6V45nblYx3gmHegtSEx/IV7jNLPZCJh iaYR4w9catUrQZAQaI8QOH+zDjmlt/BDaa1ZY4xj4+IwLSHeJiV9Zhj/78vKylhCnxpi17/U+Gsk xr/d435JAJAAkEsAyO7+l3b+o+S/9iENBbQ3C5+FCixJJIzq5aPNHeASCaVVAdQbgGiPEOANfk5p baurfEZ4RATiBaNv7Q5+7TD+tRLjf4P7WSH8jQ36aXfcnwQACQC5jb8LAI+qqqq3u3XrtkCuHd8f eZ+u8x/1/e8YUtd7R7PwO5JIGNXLWzRNjXIBCHOFwMBAL/h7uhrteNma0Y+OicHTiU/bhdFnCAl/ Z4TVPJ/xz0r++Jg/b/w7FPcnAUACQG4B4AbAs7Gx8Zybm1tvOXa6Py0NyYuX6G7PHBSA5KiedIVs J1LXOwAcfHspwsM6fkFsTyKhFLmOhXAOIdAWsXFxiI6JtpuVvgnj/5NgzGsE48/q/cu5jbn9pX3+ O2z8SQCQAJBLALgfO3bs7jFjxuTJtVNp7T91/us4Ute7tXrztyeRkJIBCVNCYFnq7jZFZXRMDMIj IhAbF2vThj3tITk5+deNGzf+Lqzma6Dv9FchMf5s9K+GM/58n/8OGzZnsI1kNawvAFwjIyMny7nT 7Kws3e8DA73I+MvAzEEB+Ow3NUqqG3UX16PZubKP6Q0PUyI8TImF08ebnUhISYCEMYYNHoDQ4B4i AaBUKhEeESG49qPt3uAzqqurG5966qkf9+/fX2rC+N+UGH824IfF/GU1/s4CWQ7rGn8XAK5+fn4j 5NrpkcxMXewfAKJ6edOZlgF/T1ckP9BTNCtg7fZ02QWA1LBPHRuNqWOjRaKjoKgYp/MKofDzwcPR kbq/E0SrnyeFAie+OdXljruwsLBq6tSpOWfPnq2UGH+2ymfu/grO+Ftt5U8CgJBTBLh5eXn9Qa4d Hs08Irr9WD9q/CMXY4TyPJZEVVxWjnf3fWGzLPxhgwdQ9z/CIsLDQnW5AGq1GtlZWV1m1Q8Au3fv vjR79uxfBUPOmvxIV/7sZyX0/f1549+hcj9nhrrGWPn8njlz5j45J//x7v+Qbu5U+iczyVE9RLd3 ZRxvV+IeQdgCqXcoNWVzlzjuq1ev1sbHx2fPnj37F8GYs+5+fJkfX+dfAX2dPxl/EgBdYvXvGhoa OkquHRbk54vG/trDtDBHY2CgFyZzXhW1phbLUnfTiSHs1AOgRGhwkGiBwC8S7JGMjIzi++6779T+ /fuvwHiin9T43xT+Xm3C+BMkAOzP+ANw9ff3l839L/1ij1X60Zm2hhfggZ6ilsqW1PMThK15cfoE 0e2li5eI8oTsbdU/efLkn8rKyphBr+IMP5voJ135S2P+0i5/JAJIANjn+fXw8LhXrp0dkcT/yQNg Hfw9XTFrUHfRfWu3p9OJIeySqWOjRbkjKpXK7kIB77333sX77rvv6/3795dAHOfne/rzm7EOf5Tw RwKg65zbL7/88i65mv9IPQCWTJojLGfmoADR+WUJgQRhj7wyd5ro9s4dO7CfaxXeWZw8ebJs8ODB xxcuXJgnrPo1klX/DWHVzza28peW+rEmP2T8SQDYPS4AXAYMGDDEGsYfAB6k1b/NvQC7Mo6bNfSH IGxNeJjSoH31mjdWoyA/v1OO58yZM+Xx8fHZo0ePzjp79my5CcN/vRXjz/r/8739KeGPBEDXMP4A 3Lp37y6b+1/6Rab6f+szPzIQId30lbJqTS3e3XeYTgxhlzw1abSob4VarcbM6TNsmg/ADP/999// 7f79+1Wc4Wd9/PlYfxnEMX9W6seS/eokxh9k/EkAdBkR4OXlJZsAyM7KFt2m8j/bsCAySOIFOEFl gYTdsi5plmhuhK1EAGf4vxEMfzX0zXxuSlb8ZZKVP7/qZy5/3vg3k/EnAdDVBICrl5fXYGt4ANjU L8L6TO7rL/ICAMA75AUg7BSFnw/WJc0UtY8uyM+3mgjIyMgolhh+jcTwS1f8pRC7/PlVf2vxfjL+ JAC61Hl1kysBUK1Wi+r/BwZ50hnuRC/AgWPZ5AUg7JbwMCU+kgyyKsjPx1JugmhHuHr1au177713 cfDgwccnT56cY8TVX27E8JdB7PKXNvepEVb9/EQ/MvwkALrk6t8lLy9vpDVW/wAwiNz/NvcCSD0u 5AUg7F0EvJU0S3TfkczMDomA6urqxrlz5/5yxx13fL1w4cKCs2fPVkAbq5eu+Flmf6mw8cafX/Uz 4y8t8SOXPwmALi0AXL28vLrLtUPD+D95AGyNtCKAvACEvTN1bLSBCEhPS2u3COjWrZt7UFCQm2Co +d79fBc/U4afX/XzXf1MrfrJ+JMA6JqrfwAu3bt3l22MXLFKPDeeGgDZHmlfAPICEM4oAjZu3Dg4 ISEhQDDa0tU/X9YnzfCvlBh+ftVPiX4kABzrvLq6uso2AIiP/0sT0gjbYKwvwFfZudQXgOgSIkDa LrgjImDnzp3R9913n6dEAEhr+6WtfKUZ/sYMPxl/EgCO4QXw8fGRrQJANAHQz4POcCd6AXjUmlp8 lHGCTgxh9yycPt5gcmB6WhrWvLHa4n35+fl5fPbZZ6MEY84P86kUDH6lZMXPx/kbYDjFjww/CQCH Oqeubm5uCmvsnOL/nesF4CcFAtrugATRFXgraZaBCGhvy+A+ffr02Lt3b4xgzOs4MaDhjH4N9AN8 aIgPCQDn8QJ4enreI/fqHwAUnm50djsRaUmgWlOLA8ey6cQQXVYEJC9e0i4RMH369D888cQTdwiG vEkQA42CoWcGn1b8JACcx/BDPwrYKpAHoHMJ8XM3SMLclXGCTgzR5UWAdLFhDmvXrp0MwE245rkI dzMj38z9BBl+EgDOIABc9+7de6dcO5T2AKAOgJ3PLEkuQEGRCgVFKjoxRJcSAfwIYQBYMO85i4cH 9evXr++WLVtGAfAC4AnAXdh4QUDGnwSA8zBgwIA+cu1Lra4Sr0C7URJgZzOmt59BNQZ5AYiuxnvL nzWYG7Bg3nMWtwyeMWPGRAC+wuYjiAEPQQi4Qe8ZJUgAOLwHwKof9BA/KgO0Bx7rK87xpJJAoquh 8PPBR2uSEBqsz2tRqVRYMO85i/YTEBAQ9D//8z9DAXQD4CcRAW5kZ0gAOIvxBwCXhoYG2c5rZ83z JlpHWg2g1tTiq+xcOjFElxMB7y1/VjQ8KDsrCzt37LBoP48//vhIAP6CCPAF4C0RAOQFIAHgHELA z89PtiZAtpzlTZhPiJ87xvT2E923n6oBiC5IeJgSr8yNF9235o3VBh1IW2PIkCH3CMafCQAf6HMC yAtgp5A/2QpegNtuu22wNXY+kIYA2RWP9fXH8csa3e3TeYUoLisXuVQJiM6PWlOLc0XFALTJk6bC JqHBQVAG9wAADBvcH/5+PqJ4NSEvU8dGo6BIJcplSU3ZjPWbNpr1eG9vb++EhIT+aWlpGmjDABpo wwB10JcCEiQAHF4AWM3NRRUA9gVLBiyp1l/bjmbn4qlJo53+3BSXleNodi4KilQ4V1QsW5VEeJgS g8JCET14AIYNHkBiS0YWTp+Ao9m5uiFX6WlpSFr0EkKV5gmvYcOG9UlLSysUVv/eMMwDcAFVA5AA cHQR0NLSQrEuZxEBSj/sOVepu33gWLbTCoCj2bk4nVcoMiJyw0ouWfOl0OAgjIuOxNSx0eQh6CAK Px+8OH0ClqXu1t2XnpaOpEUvmfV4pVLZUzD8TABIQwAuJAJIAJAHgHAYHuvnLxIAzEA5izEqLivH rozjFhn98IgIKBQKKJVKk6vLgvx8qNVqqNXqVhNhtc9/ArsyTiA0OAjTxsZg6tho8gy0k6ljo7F2 e7ouNKNtDmSeAGhqanKDvh+AJ6gUkAQAQTgyAwO9MDDQC+dv1unu+yr7V4cXAKfzCrEr4wSOtlH5 EB0Tg+iYGIRHhCMiIsJsd7IxQaBSqVCQX4DsrCyjXeuKy8rxzr7DeGffYUwdG41pY6MNmt0Q1qO5 udlNMPzSpkCUBEgCwKm+CKR0ncwLsCFHLwCOZudi4fTxDmv439n3BU7nFRr9u1KpxLi4OETHRCM2 Lk625w2PiEB4RISwT+2K9EhmJo5mHsGRzEyDapkDx7Jx4Fg2hg0egBenjychYCbFZeWixMzwiAhL rnuugk3xMGL8yQNAAsApoA+5kzGmtx825FzXr1aLVA5XDVBcVo5lqbtNGv74hASMi4uV1ei3RWxc HGLj4rAeG3EkMxP709JxJDPTQLDMXlGIcdGReGVuPIUG2kDq0YmOiTb7sZWVlfWCwXfjDD+/0bWR BADRXko0DXQS7JAQP3eDMICjVAOoNbV4d99ho62OFQoF5iQmYk7i01AoFJ16nEwMFKtUSE9Lx84d O0RegaPZuTianYsXp0+we++MtlTSsGpiUJhS1LDHGkgFXnRMjPmPPX36JmfopUafPAAkAJyDc+fO ZYWGhsovAKqplNZeMRYG6OoC4HReIZal7jZI7rMnwy8lVKlE0qKXMCfxaezc8aGBEHhn32Eczc7F uqSZnZqncTqvEAVFxSguu4GComJUaWotKpUMD1MKvRFCERrcA+FhoR0Oc6g1tSIPQGxcnEXv7z// +c8rnLGHkd8JEgCEJSiVSlB/OftHGgZgTW+svWKzFu/u+wLv7DtscH/SokV2afiNeSeYEHjzjdVI 5+bdFxSpMOXl9Tb1BrDyyIKiYpNhFEtgYkG6r2GDBwg9EvpbLAgOSDpZxsbFmv3YX3755RoMxwCz DZLfCRIADkuLq6urbB/09mZNE7bFWBjgq+xcg7nr9o5aU4snV6QarEajY2KwYtVKi5LC7EUIrN+0 EXMSn0by4iWiksJ39h1Gdl6hQS98uWBhB1sOijqdV6gTBQo/HzwcHYlxwtYWuzKOi26PsyCfIzMz s1gw/MY2Mv4kAAg5yCmtRVQvHzoRdsjY3n4iAZCdV9ilBEBBkQpPrkg1MFYrVq3EnMTELv3ehEdE IOPwIaSmbEZqSorIYD65IlW2kEBxWTkOHMvG/mNZbfZFUCgUCI+I0MXZWcIdu9/g/RF6IwBAdla2 rkcCf79UzLFqiLZ6JLA21oz4hASLvDxffvllqWDsm6Bt+9vI3SYRYKe4tLQ473vi4iJreMoF2tpX HwDdWlpaLsux0yOZmaLxnNtjQ0gA2Cnnb9bhiUP6lXNocBCObXu9Sxz70excLE/dbVACtmHTxi63 6m9T6OTnY8G856Diht2w0bjtFQGsB8GBVgZCKZVKoS9CNKJjYmT17hWrVEJ/hGxkZ2WJXpuUqWOj 8eL0CSIhsCx1t+jY9+zba3YCYGlpac3tt99+EMBNANcBlAIoEX7eAFAJ7WyAOkEQdAmj4wy2kQSA vALAQxAA/nIJgOysLMycPkN3OzmqJ2YOCgBhn4w/eEmUrHnw7aV23xTowLFsUftXQJsAtn7TRruP 9bcXtVqNBfOeEzUUUvj54JW58RZ5bdoy/KwvQnxCvE2FVEF+PtLT0nE0M9OkGGBCAADGzntVdMwn vjll9nNt3br13Pz5808DqABwDcBVQQCUASgHoAZQIwiAZhIA9gOFAGT+zLCtqampys3Nzb+jO1RK VglV9c10lu2YqF4++Ly6Snf7dN4FuxYAxoz/nMRErFi10qHfJ4VCgT379mLp4iW6BEG1plZ3LtoS AWpNLT7KOGE0URLQutCnJcRbVEYnJ+EREVixKgIrVq1EdlYW9qelixIh2XvPmiXxmNv7n/Hee+8V Qe/6bwBQL/zeBH0IgMIAdgi1Z7SOCGjWaDTn5NiZ1E34Q2ktnWE7ZqzST3RbjoxvWxr/DZs2Orzx 51m/aSOSFi0S3ddawyP2nk55+S0D46+tPFiEk9+cwvpNGzvN+EuJjonB+k0bcfKbU4hPSDD6evjX MM7CZk7r168Phzj+32TC+BMkABze+AMAGhsb1XKqeQY1A7J/D0BXEACsxl9q/KcZMRCOTtKil7BB Mvf+hXUfGFRCqDW1WLs9HbNXpBok+MUnJODEN6csGp9ra0KVylaFgPRaYy7jx4+/68iRIyM5Y88b fzL8JACcyvi3AGiurKwskGvHfBiAmgHZN/6erhgY6CUyGpY0eLEFBUUqvLDuAzL+HNMSEkQigJVD MkPPKiSkHRGjY2J0K/6uki/BhEDG4UMGXgqWc9TaBEZjjBs37u5///vfD3N3uZiwL9QYiASAQ9MM oKWiokK2q75UledQGMDOvQDektX2Bbs5NrWmFstT94iy/Z3d+PMigC93VGtq8cK6D3DgWLZBbwSF QoEVq1Ziz769XbZXR3hEBPbs24sVq1aKxEtBfj5mTp9hMFehLSZOnBiVmpoaDfEgIPaTnwhIIoAE gEN7AZqvXLlyWa6dSgdynL9ZT2fajhnb237zAJan7hYZMm2yGhl/xopVK0Xu8YIiFZYZKY/MOHyo y/dGYMxJTETG4UOihQarktgvSRxsixdffPHPc+bM6Q/tSGA2FtiDRAAJAGcRAC0AWj766KOz1vIA UCKgfcOHAJgRsQd2ZZwQ9XpnyWGEmL+20vGQGUtH69AZqlQi4/Ahg9yA5MVLkJqy2aJ9paSkvBgR EREMwBfasmgmBNwlIoAgAeBwNANo/te//lVRV1dXIscOpZ3B+G5zhP0hzQMoLitvsyuctSkuK8e7 XNa6QqHAlm1b6c0y8X17f9tWg5j+ilUrHb5CYv2mjQYJkakpKVi6eInZ+wgICAg6cODAQgD+ALoB 8BOEgIcgAlxA0wFJADioB4D9bL5161aJXDuO4CsBqhtRoqFkQHtGmgfQ2V4AqRt7ixEDR4hXxFLv SHaWc4zlYgmR/OcjPS0NO3fsMHsfd99999D/+7//GwNAIYgAHwDenAigUAAJAIcVAc0Amq9du3Za rp1K8wCOX9bQmbZjBgWJwwDnioo77Vh2ZZwQ5SHMSUy0mxp1eyY2Lg6xXE38kcxMixPjurII2LNv r0gErHljtUU5Ac8///y8iIiIOzhPgC/EOQFkf0gAOBys9rVZpVLly7VTaXMOygOwdw+AuB9Adicl Aqo1tSLXv1KptLjTmzMjLe97843VRgfvOCLhEREGYSLpRMXW8PLy8nn//ff/AiCAEwDenACgUAAJ AIcVAU2bN2/OkmuH0jwA8gDYNyF+7vD3dOU8AJ0TAvgo44TI9e/I/f2tASv3Y6hUKuzc8aHTvP7o mBiDnICZ02eYLYJGjhz5cFxcXD+JCPAiLwAJAEekhduaDx48eLO6uvo/cu08VuIFIBFg30gbAtk6 EZANquE/P+T6t5xpCQmi87Zzxw6n8QKw18+3S2Ylguby/vvvz4M2F8Af+soAFgpwJS8ACQBHEwG6 lphqtfqcXDuOjYsV3T6mIgFgzzwoCQPYOhFQ2qvemXr8yw0fNlGr1U7lBWCvn1+AZGdlmZ0UGBYW 1n/x4sUPQJ8LwEoDqSyQBIDDegGaATT9/vvvP8i14/CICFFbYPIA2Dch3cTDNm2ZCKjW1IpG1MYn JDhc7botiY6JcWovAGAYPkpN2YxilXmidsGCBY9BnAzoDX1vAPICkABwKHQDMd56660v5dwxnwxY Vd+Mz3+rorNtpwwM9Ow0D8BHGSdMrmAJebwAR52kIoAh7R2hVqux5o3VZj22b9++/caMGdNHEAF+ 5AUgAeDoXoBmAE0ZGRkVcuYBPJ34tOj2ZxdJANivABCXAtoyB2D/sSxa/VvZC2BphzxHOQfS0sjs LPNyndeuXTtZ8ACQF4AEgHMIAACN//3vf0/IteNQpVJUDZBTWktNgbqICLCVB+Bodq5IbExLiKc3 QibiuXOpUqksnprnCBgLBZjDkCFD7unbt+9tggdAKgDIC0ACwGGMv0gAHDly5KicTyD1AuwuqKCz bqfwpYC2EgF87F+pVFLmv4xMS0gQGT9nSwYEtKEAfhBSdlaWWV4Ab29v7xdffDFKEAB8GIDvC0CQ AHAsD8CiRYvyamtrr8q183FxcaKL0Oe/VaGqvpnOuh0irQSwdhhArakVDfyZIxGLhDwigHHEyfIA +M9Ve4TQ6NGj7+WMv3RQkCv0oQCCBIDDiIAGlUp1Qk4Fzl+EquqbcZxKAruEB8DalQDS0cPS3hFE x+HDAGq12uwYuCN7AY5kZppVETBkyJCBd911Vw+YDgOQ8ScB4FACoBFAw2efffaZnDuXhgG25JbT GbdDpJUAqrIbVn0+fvUfHhFByX9WQFqOeyTziNMLIQBIT0s363EvvPDCEM4DwAQAdQYkAeBQxl8U BliyZMmvcoYBQpVK0ezukupGKgnsAh4Aa4cAeA8Axf6tB39undEDwK5BvIfJ3EFBw4YN62tCAFAY gASAw3kAmpgX4Oeff/6XnE8gre0mL4A9egCkUwGtlwRYXFYuEhjSzpFdnYL8fKSmbMbM6TN025o3 VndKHH4cd24L8vOdrimQsc+YuVUR99xzTx/B8HtDHAJwJ+NPAsARRUAjgIY9e/bIWg1gzAuw51wl nXU7hh/MY83VvyN5AIpVKsycPgOTJkxEakqKLuuctaNdMO85jB4x0qZCQHpunbEcUCuExDkm5nhD evToobjzzju7Q5sAyDbKAyAB4HDoOgICaHjvvfd+Lykp+cbaXgCqCLBvL4C1SgH5/TqK8S/Iz8ek CRPbNCwqlQoL5j1n0bz6jqBQKER5ANlZ2XZ37vanpWHBvOcwc/oM9L8rDDOnz5D9HCkUCsmMAPPO w7hx45TC6p8Zf5YD4EZeABIAjrL6F3kAANR/9913/7amF6CqvplCAXaGNA+gykpegAKuwoBvFtXV V/6WuNeTFy+xmQjgz7E9eQCOZGZi9IiRSF68RNSpLzsrC0cyM5G8eImsHpPomGiLPAAAMHbs2DCJ B8AD4oZA1BWQBIDDCAGWB1D/+OOPZ9bU1JTK7QXga3L3nKuk7oD2vKq1Uikgn1+gVIZ2+fOUvHhJ u2Lra95YbZOYPC8AVCqVXZwztupv63jk9Jjw50GtVptVDnjHHXcECCt/Zvx5AUDGnwSAw9As9QL8 +OOPn8rtBeBrcgFg5XdlTn/iSzSNyCmtFW2dIYykzYCs5QHg8wu6ugegID+/3dn1thrXGx4Rblce ALa6t1RkddQTIA03mSOGbr/99gDB4HtAnAToBsoDsBnudAqsvvoH5wFoAFD317/+9eBXX331tIeH h5+cXoD9aWm6L19OaS32nKvEzEEBTnGitQb+Fn4orUWJpgEl1a0ben9PVwwM9MLAQE8MCvJCVC8f hPjZ5utgjV4A0rwCZRev/+9obf2RzEyrT0DkvW6djVqtxptmTuaT8uYbqzvcMEqpVOquPdlZ2W3m oAQHB/tzK3+2kfufBIDDCoEm5gE4derUtV9++SU9KirqSTmfZP2mjZg5fYbu9pbccozp7Wczw9YZ Rv+z36pw/LLG4sTHqvpmnVeAEdLNHWOUfniwlw/G9Paz2nFboxeA1KvQ1RsAdbS23hYrcqmXJTsr q9OSL49mZrY7DKFSqbA/LU3UXdRSQjkBYA49e/b0Fwy+h2TlT30AbAiFAGwnAFgYoB5A3UsvvbSn oaFB1v690lGdVfXNDhkK+Py3Kow/eAlzj5Tg84vyzUFgZZSLTl7F+IOXsCHnOuVSEF3CA9Bxj8kR 2c5FsflCwN2ICHAlLwB5ABzN+APcXAAAdd999921n3766UB0dPQsub0A2SOydElQjhQKyCmtxcrv y1p174cGByE0uAeiBw8AAAwKC4XCz0e38mar7+y8QhSX3TC5GmdiYM+5Skzu54/H+vojShLLN5eQ btb/mvGJhUpq/+t0dDQJsaOPD4+I0OUSWLAvV27lz29k/EkAOBx8V8B6ALcWLVr0z6+//nqqnLkA CoUC6zdtxIJ5z+nu25BzHVG9vA3q0bsKrLTRVJOj8DAlpo6NxrjoSIQGB5m1z4UYD0CbOHc6rxCn 8wpxNDvXqCD4/GIVPr9YhahePlg9PNjikIr0/6UNe2Q5R1wIwBH6/0fHxHQoDOBsIqijIY9OSmLk jT6/8icPgI2gEIDtvACiPAAAdVlZWWU//vjjQbmfLDYuTtQbAABWfnetSzYIKtE0Yu6REqPGf+rY aBzb9joOvr0UT00abbbxFwkmPx+Mi47EK3PjdfuaOjZa5zWQeiDGH9CGBqjZknXpaBvjcU42BbGj VR+dlLvgwhl+N4nxJ0gAOKQQYF6AOgC3Xn75ZdlzAQDgr6tWii4K52/WYeX3XSsf4PzNOjxx6DLO 36wT3T9s8AAc2/Y63kqa1S6j3+qFNEyJt5Jm4atW9r/nXCWeOHxZlEBIyG/QOmKUpNMyHZ2Oejw6 KZ9ButJ3lYgDEgIkABwK1hOAeQFqs7Kyrp08eXKP3E+kUCiwYdNG0Rf7+GUN3s+92WWM/9wjJQYr 7VfmxuPjNUmyG35jngHmYTAmBEqqtZ6JDTnX6VNtJVasWtmuxyUtWuR0Y5A76jHp6OP5EIKFYoL3 ApDRJwHg0Kt/JgL4UEBtbGzsnurq6mvWWEVJL6JbcsvtfmxwVX2zgfFX+PnoXP22hgmBF6dPMAgN 7DlXiScOqTq9WmBQmL7zn6OMpw2PiMCGTRstekx8QoLV6//tkWkJCe32AiiVyg6VAAIQdV60MBzh YuZ9BAkAhxECumoAALUAarZs2bLJWhcGaT7AhpzrBm51e8KY8f9oTRLCwzp3Vbdw+ngcfHsZhgkV Bry3wliowpYYy1lwFMO2Z9/eNo2bQqHAilUrsd5CweBItPe1y3HOLG29XFZWpgFBAsAJjX+LxAtQ B6A2OTn5+6KiotPWujDw8VS2wrZHESAVJ/Zi/BmhwUH4eE0SXpw+wajX4vhluq7JTXRMDE58cwob Nm1EbFycTgwoFApEx8RgxaqVOPHNKYN22NZGmjnf2ZUH0TExFntMNkiuDXKcC75FsimuXr2q4a6J xq6TBAkAp/AC1DMvQEJCwvr6+voaazzhlm1bRa65qvpmLDp51a6y2c/frDPI9l+XNMtujL/UG/Dx miTRypud084IsQySnCNHCQNIvQFbtm3FiW9O4cLvRfgp9xfs2bcXcxITOyWJTbrqtYe8A3M9Jkql Env27e2w67+9Qqi6urpesijiN4IEgFN4AXQ9AQDU/PTTT6VfffXVPms8qbGkQJbIZi8iYEOOuEf+ U5NGY1x0pN2+kcMGD8DBt5cZCJSV35WJvBg5pbdEf7eGoJGGAGwxDc/ZsacRwMY8Jlu2bUV8QgKi Y2J0WzwnouQq/ZOKTXNyAPLz8yuEa2CL5JoovU4SJAAcEr4iQJcLMGHChL0lJSVWubKER0Rgz769 IhFgKtve1nz+W5WorC40OAgLJW52iy/QRSrMXpGKZam7RZPy5CQ0OMhoiKK1EIu/leL1/DEU5BfQ N8zKqFTisc6TJky0pA2u1YmNi8P6TRuxZ99e3bZeCKPISXZWtkh8mMOZM2fKIQ6HNnG3yfCTAHB4 LwBgmAugAVCdlJT0N2uFAuxVBGzJFXfgeytpVocS24rLyvHkilSczivEgWPZ+Co712rHbixPoTNC LHypor2uTh3ZA1CQn49JEyZif1qaU50H3gNgrgD49ttvy7lFUBP3O4kAEgBO5QUQNQYCoElPT//t 008/3WmtJw2PiDDI/O1MEXD8skbU33/Y4AEGmfaW8sK6D0Srflv0DfhI0p+gpLrRps2XxB4AEgC2 NHwMtVqN5MVLsHTxEqc4B0cyM0XhJnP6CWg0moZffvmlklv58wJAGhYgSAA4vBegUfAC3AJQA6B6 1qxZn1+4cOFHaz15bFycQcbw+Zt1GH/wks2rAz6TJM29OH18h/b37r4vUFCkd8VOHRvdYUFhrgh4 b/mzIs/F8csa7D5XYZPzOGxwf93vKpXKrtzRjr76l+aqpKelYdKEiQ6fi3GUmyKoVCrNiv+fOXPm mmTxw/+UigCCBIBDiwDm8uIrAqoBVE2bNu3/1Gr1DWs9+bSEBGQcPiQKB9i6RLCqvllUOhcaHNQh Y11QpMI7+w6LVsWvzI236Spc+ny28qpIz5sjVgLY4+qfCT+p+CvIz8fkCRMd1hujVqt1EwAB8+cv HD58uJgz+mzxwwsAMv4kAJwKpobroU8IrP7111+vLFu2bL1VDZaRnICq+mY8cUhlk3I26XM8NWlM h/a3dvt+0e11STNt3iRn6tjoTitd5EVAR2e8E6bhzy075+OiIw2qQlQqFWZOn+GQImB/WprIwxGf YJ7QPnTo0FXoXf8NwtZkRAQQJACcygvQxHkBagBUbdmyJXfXrl3bbC0CAG05m7V73f8gGajTkbK/ A8eyRaN2X5w+odMM8dSx0Sb/Fm3FcAR//sgDYL2VL39u+XPOqkL4+9RqtUMmB+7c8aH+Mx0TY5b7 /+LFi5W5ublq6EugGyQigAQACQCn9gKwL0YNhFDAnDlz/v3zzz9/a20RcOKbUwZf4j3nKq2aHMi7 /8PDlO1O1lNrarF2e7roQvzkpNE4nVeId/d9YbDtyjghyhOwpQCwZkKi1PDwLlpCHo5KzunDEtHK QgLSz0Dy4iUOIwL2p6VBxeWYmLv6T0tL+y/0bn9W/cSEAHkAbIw7nQK78QK4QJ8Q6ALtfOxaAFUA PIYOHfp/ZWVld9522229rXUQCoUCe/btxdLFS0SGI6e0FuMPXkLKqNsR1Us+d3qOjKv/jzJOGNT6 Pzgzue3X7OeDh6MjMU3mREGFnw/eSpqFZam7RfcPGzygVXHQUUKDgxAeptSJm/1p6bLXfTs76Wnp ovfTVIjpLaGLJS9Mk4XqADk68HWmByQ1ZbPutiXDhN5+++2L3CKHGX9TAoBEAHkAnEoEGAsFaACo AahHjx79Wl1dnVWH0CsUCmzZthVJixaJ7mfJgXKOE5Z2yOOz2C1d/e/KOC66r7is3OzHHjiWjdkr UjFb6BsgpxdAmhBoi2mGvMCQlmkRHaNYpRK5/6e1IeaemjQabyXNcihPwM4dH4pW/+ZOX/z666+v lpaW1kKf8FxnwgNAxp8EgNNiMCiIiYD8/PwrCxcufNPaIoB9qbds22qQF7AltxxPHFLJUiVwTrKP 9q7ADxzLNtrpT+Hng6ljo/FW0ix8vCZJtL0yNx7joiNFq7fTeYWYvSIVa7eny9Y5cOrYaNFz2CIh UepJ4WO1RMf4kDuXzHtkzmfAmAjoijkaBfn5SE1J0d2Ojokxe/X/zjvvFEqM/y1hq4M+B4CVARI2 wKWlxXmFlouLXY6ddoE+BOABwAuAHwB/AIEAeixdunTEW2+9lWyLgylWqTB/3nNGs5gXRAZhfmRg u/c9/uAlXQOg8DAlDr69tF37GTvvVdGKX+Hng4XTJ5i92j5wLBvv7Dss2kd4mBIfSYb9tJdlqbtx 4Ji2Xer5g+/Y5EP0wroPcFTofqhUKnHim1N0tesgarUao0eM1HlUjBn2tj5nfEiIhdzMSZ6zFyZJ yhozDh8y6/gvXLigHjBgwJfQejNvALgG4KqwXQdwE9pwZ40gBjo9D8AZbCN5AOwPY8OCdFUBACrW r1+f9Y9//MMmy7pQpRIZhw8ZhAR4b4A0lm8ufPe/9vbHP51XaGC4D769zCJX+9Sx0Ti27XXRiN+C IhWeXJEqiyeAZf3bshyRf/0qlcrp2tNag507PhSFUywN50gFg1qtxszpM7pMiGbNG6tFxn9OYqLZ 4uUf//jHRei9msyzWQtxGKARFP8nAUAAMKwK0DUIAlDx7LPPHt66detHtjqYpEUvGR0zyloIr/y+ DCWaRrP3J1ejof3H9INIWAlWe7PsF04fj4NvL9UZ6oIiFV5Y90GHj5G5iQfZsCRR2k6ZT9oi2rf6 37ljh+j8tqfEdOrYaFGORlcRAfvT0kSvPzwiwuzY/4ULF9Tr16//DeI+JzWcCGDGnyoASAAQMD4s 6BbnBVADqJg/f/7hQ4cOHbbVQUXHxOBzE96Azy9WYfyBS3g/96ZZJYNylRXyQ36kMf32IHX9n84r xK6MEx3ap8LPR8jOD7Xph0jqBeAv4ETHVv8daVf9VtIskQgoyM/Hm2+sttvXXpCfjzXc8RkbLd4a y5Yty4N+7LnU+PNJgE1k/EkAEIYigNXN1glfHjWASgA3H3300T05OTnZtjoohUKBpEUvIePwIaOT v7bklmP8Qa0QaM0jIBUAxWWWdzw+nVcoctHLVV4XHqbEOs5V++6+wx0OBYQG90BocA+bfoDGRUca eAGoIsByiiXiSY5hVa/MjRd5ENLT0uwyTFOQn2/goVixaqXZrv8zZ87cSE9Pv8IJgBpok5o1ggC4 JfyNyv9IABBGRIA0H4D3BFQCuPnggw+++8MPP5y25YGx7oEbNm00CAtU1TdrhcCBS1j5fZnRHIHz N+slAqDc4mM4nXeBM7BBsnb9442nWlPb4XHCCj8fm3sApCtVtVpt1ytNe2XNG6tFBvCVudM6LqSN DI6Sxtjt0fjPSUw0O+u/urq68cknnzwDcR4TM/7MC8CXAJL7nwQA0YYI0M0KEDwBFQBuDhs27L3j x4+ftPXBTUtIwIlvTiFp0SKjLsHPL1Zh7pESjD94CRtyrrc7YdAY2VzNvjWm/fHGk881aK9XwRYT CaUMGzxAVBaYnpZGLYIt4EhmpqgplpxzHkKDg0SeJjZK2F6Nf3xCAlasWmn2Pj7++OOivLy8SojL mas5AcCXAFL5HwkAohX4pEBRfwBoS2jKx44du+Pdd9/d2xkHl7TopVaFQEl1o66t8H27LxodkWtp a14+bGCNnv/DBg/QJRR2tEGQNdv/tsUrc+NFK82li5dQKMAM1Go1lnIGWeHnI/tkyXHRkaJcDW2d fecmbJoy/usl48Nb48KFC+rnn3/+rORaZUwA8DMAyP1PAoAw4QUAp5KZCKiRegJefPHFL9999919 nXGQLD/gp9xfsGHTxlbjhMaSAKssjLOLy/+s417nV+0dmR0wqBPc/7z4WMiVOKpUKgoFmIFUKK1L mmWVUk5pPkBqSgqKVapOec3709IwacLEDhn/6urqxilTpvwAcTdTVsFULWx8AiAl/5EAIMwUAfwY TSYCdPkAAMpffPHF//fuu+/uvXXr1q3OOthpCQnIOHwIGYcPYU5iokGeQFsG3dL/9bdSjb1cnoXO mkrIeGrSaJGYsdekM3shNWWzeNZ9dGSHZlW0xbqkmaLbtg4FMG+H9HktNf4A8MYbb+SfPXu2Qljh 88afCQA+/k8TADsR6gTYBQ9b+OkmbJ4AvKHvFthd2IKmT58++MMPP1zo7e3tbQ8HXpCfj+ysLKhU xbpkJz4e/eL0CVhoZnkVa9vLsGaHvV0ZJxAaHGRVA2CTi7ymFg/Pe1VU0WBuJzdn4khmJhbMe07k QTn49jKrN3Jauz1dVHK6Z99eo5U2cpOdlYWli5eI+vsDQNKiRWbX+uuOec+e32fNmvUz9NVK5dB3 /isTfmdd/5gXoBF26P53BttIAqCLHrqwuUI70dEDgA8AX0EEBDARMGrUqP7//Oc/nw0JCbndHl9I /7vCRKus95Y/a3cCwJGQnreu2I7W2iJVGv8++PZSm3hwpALN2i2c2VQ/aX8IhUKB9Zs2WjxF8uTJ k2WjR4/OBte1VDD41wUBcE0w/mrBM3AL4gFAdgW1AibsFWllQAP0ZTa6fAAAN06ePPmfP/7xj2// 8ssv5+zxhfArHEtq7aUu/47E552JYYMHiFoes8xzSgo0bvzZSF9bIE0ytGYL5/1paRg9YqSB8Y+O iUHG4UMWG//CwsKqJ5544mcYliqzniVq6N3/fPIfZf6TACBkFgFVvAi4ePFi8ZAhQ95LT08/bm8v gq8YsCTTXnpRrtLU0ifCTBZOH2/Qia4r9aS31mpYKoSkbXttwdSx0aKKkQ9lnuTIDL/0tWoTeBdh z769CFVaLnieeeaZX8vKymogblvOx/6rOONPff9JABBWEAFMfWukIgDA9YSEhE9XrVq1u7a2ts5e XoDU9WzJSp6/UPJNgYi2eStplrjCwYlFQEF+PiZLptxZOulPTkRDqYS8mY6Km507dugMvzTWz1b9 lsb7eQ4fPvzg448/HgRxy1++7I91/WMxf1r92wGUA+AgLwX6nACWGOgJbU6AHwAF9HkBgSNGjAjb t2/f06Ghob06+8ClCVfvLX/W7GQ7fuRtR8YJO+2qV1OLJ1ekikSXUqnElm1bnSYnwJjw6Uzjz3hw ZrIuJBYdE4PomBiRECjIz++wWFMqlVi/aaOsiYavv/76yddeey0b+qQ/PvbPvADMA2DXq3/KASC6 mieAldSwqVusT4CuRBDA9W+++aZQqVRu/OSTT77u7AOPkBgaS8IAvFAoKFK1q52wM6Pw88FHa5JE 4RSVSoWZ02c4RbfAI5mZdmn82XEwsrOykJqSguysLN0mh6dGpVJhwbznMHP6DKSmbJalDfGrr746 av369RHQhyWZsedX/VTyRwKAsIIIAMR9AvhwQCX0JTk3AFz785//nD5//vwPy8vLKzvroEOVSlEe QEFRsdmPfVjiKXhn32H6FLRTBPBiio2odeTpgakpm7Fg3nN2afylAsCaqNVqncCYNGEiRo8Y2eGZ BMnJyY++8cYb97byL8xjSXQyFAJwwJfFiTs3aMsEWa8AXwDdoA8JBADoftddd/V67733xk+YMOHB zjjgBfOeEzVdsaSkb1nqbhzg+vTbqmTLEZGeSwCIjYvDegtGv9o7xSoVkhcvMfBwPDVptOxtfjvK 2HmvokpTi0HC5zk8LBQKP1+tcA4OMru9NMuPUZXdQHFZOYqFn20RHhGBpxOfNnv4D09dXV3tCy+8 sHb79u0/QlsGyMr/amGYBGifKyrqA0ACwAFEgCsnAryg7RfQDdp+AbwQCHj22Wcj161bN6VHjx42 vdrv3LFDNG/84zVJZg/OKS4rx9h5r+ovWmFKfLQmyepNWxyVXRknsHZ7uthL0M66cHtjf1qawWQ/ QJsQaetsf3vgdF4hCoqKcTqv0GC0Nk97cwWuXbt2eezYsX/Ny8u7BK33kZUC8mWAdpsHQAKABIAj iABpwyAmAvw4IcBEgAJAwN69ex957LHHonx8fLxscaAF+fmYNGFiu1dj7+77QuT+tydXblc1DC+s +8DAIMTGxWHFqpXtKhOzx1V/aHAQ3lv+LHmMuPf9aHYuDhzLNioG4hMS8NdVKy3yBn3//fdfDh8+ PBXasGMF9ImAdZwIAKgREAkAEgBWEwJ8hYAHxCEBViUg8gjExMQo33nnnQlRUVH9bHGQ90fep1uZ tSejf8rL60XZ7CQCOoZaU4vlqbt1VRY8SYsWYU7i03YfFjDV6Q7QJpBaa7iPI3DgWDbe2XfYIFQQ HhHR5qAvKfPnz1+2devWnwQvQAX0DYH4WQAkAEgAkACwsjfADeIZAsa8AQp+S0xMjFi8ePEfw8PD rTrObuniJUjnup4d2/a6RSN0i8vKMeXlt0Qrl2GDB+C95c/SRb4DHM3OxfLU3QYrQoVCgTmJiXYp BIpVKqSnpWPnjh0G7n6Fnw/WJc3q8nMdbCkE1m5PF73/lraPvnTp0n/uuuuuv0KbC1AObUIyCwXw 0wBpFgAJABIAVhYBfF6AMW+AP7cFMGHw9NNPD1q8ePHIiIiIEGsc3P60NNEkslfmxovmpJtDQZEK T65IFV+sjJS6EZZ7A9ZuTzdIEGTGIDYuDnMSn+703gEF+fnYueNDkZDkeWrSaCycPoEEYTve/xfW fSAq0bVUBCxdunTjhg0bvoXhPAA+FEACgAQACQAbiABpSMBDEAE+0CcJsmoBXhD4zZkzZ+CSJUv+ ILcQUKvVuD/yPt3t9jb2KShSYXnqHlE4YNjgAfh4TRJdyTtqYItUWLt9v8leDeEREYhPiEdsXJzN 8gSKVSocyczEzh0fGnS4Y4yLjsQrc+Mt8igRhkirRJRKJT4/fMgsD1BeXl7evffeuwFdaCIgCQAS AI4uBNxMeANYWIB5BLpxP7sJQmDArFmzIh9++OGBch2UtBywvSV90vg15QPIy+m8Qryz74tWmzaF R0QIHeyiER0TI1uYgNWtZ2dl42hmpkmjz973aWOjza4oISwXAbFxcdiybatZjx07duyq48ePn+NE QAX0UwHtzgtAAoAEgDOIAFfhd6k3gAkBX87w85sfAN/Q0NDuycnJQ2bMmBF52223devIAUnbAnfU cB/NzkVxWTmmjo0mt681Vt9l5Xhn32F8lZ3b5iRHpVKJ8IgIhEdEQKkM1XkIwiMiDMSBWq3WNaLR trytQnZWFopVqlYNPqAN+UwdG42nJo2hFb+V4FtwA8CefXvNKhHctWtXxpw5cw4AKIU+H0ANfVWA Xc0HIAFAAsBZRAALCTBvAN83gOUH+HJegW7cT/Y3n0ceeUT5zDPP3PPAAw/ccdddd7Xr6jt6xEjR Rd7SZEDC9qg1tfgqOxdHha0zGBcdiXHRkU5Zz98Z7/fD814VzSrYs29vm4/7z3/+c2ngwIF/A3AV +hkBfEJgA+yoORAJABIAzioEWAdBD4kQ8JEIAbb5cps3AK+hQ4f2nDRp0p2DBw/u+fjjjw8y90Ck TYHIfd/1jAOrJz+dV2i1+QzhYUoMG9wfwwYPwLDBA8jDY2OkDaMyDh8yKyHQxcVlmeABKBUEAO8F 4CsCSACQACAB0ElCwBXiJEG+nbAXJwSMbSyRkIURvH7//ffpffr06WGWAVGrMXrESFH5FnkBurYg OFekwum8CygoUulutxUyYCj8fDAoTInQ4CAog3tg2OD+GBSmJINvZ16A+IQErN+0sc3HPffcc7u2 bdt2WvAClEKbC8C8AKwigAQACQASAHbiDTDlEeC9Aj6c8edFgA8An3Xr1j24bNmy8eYeQGrKZqSm pOhuUxa/42IskdDfz4fKNrsAfEKgUqnEiW9OtfmYffv2fTtjxowDggBgoQC+IoCFAUgA2ACaBkgY fO4hHi/Mj/Xkpwuqoc3iZRMGy4StlPtyXwVQunXr1qxbt27dMvcA5iQ+DSVXRnY6r9BoDTrR9WEu fH4j49814JspqVQqFLeRoAkAvr6+vtwCwlPYmJeRVSXRyowEAGFnQoCJAF4IVAtC4Kaw3RAUfSm/ /f7775fy8vJ+MfeJFQoF/rpqpei+tdvTRbX9BEF0vnjjUZkhAAYMGBAMsRdRavwJEgBEFxACddC6 7Go4IcA8AuXQZ/leA3Dttdde22PJk8bGxYmmz2lr+/eYHTsmCMK6SPMwzPEAtLS0uEAfSmTG351b +dPqnwQA0QWEAAsN1AkeASYEqqFN6qnkxED5oUOHzufl5Z205AnXb9ooCgUYa/VLEIR9eAFUqmJL BADLKfKAeEYJ2SQSAEQXFQJ1ghBgYqBKEAIVACrXrFmzw6IVhkKBLdu2ihrFMBFgrfIygiCsePHQ CgA3buXPG38+AZkgAUB0ASHQLGwsPMDEAAsP6HIF/vWvf104c+bM55Y8SXhEBFZI8gEKilSY8vJb ndZ0hiAILVXt88a5Slb8LpKNIAFAOIBXgCUM1jIhMH/+/A8aGho0lux8WkICNmzaKPIEsAlls1ek ttqT3hJO5xXqNvIwEETb8Im54RHh5noAXI1sJAA6AXc6BYTMQoCnSaL4a06fPl36+eefb4uPj3/Z UhEQHhGBBfOeE2Ubn84rxOwVhQgPU2JcdKSuO1xbhl7bkKYY2XmFKC67YdTgDxs8AO8tf5aazhCE EaTfGXMGPlVVVdVzN2nl38lQIyDCqqcY+nifN7SzAwIA9CwpKXnvjjvuuMfSHarVaixdvEQ0NdAU vBAwZeTN2Qc1ISIIQ45m5+KFdR/obl/4vajNx2zfvj33mWeeOQHtMKArAEqg7R9SDm2+EBsM1OnN gKgREEF0HJYj0Aiuh8DEiRNfq6+vr7F0Zywx0JwJZHK49E/nFVL/AYIw8d1gmDMHAAB+//13Fv5r kfwkSAAQDgafKMgEQB2A2jNnzpRu2LDhrfbumE0gyzh8CHMSE0XlgpYKiuiYGMxJTMSKVSuxZ99e g6TDr7J/pXeSIIx4APjvozlcuHChirs2NEuuEyQIbAyFAAirn2boQwGe0M4K8IcQCjh48ODsxx57 bLYcT1SsUiE7KwsqVbHR2fFs9rxC4a+bTW8qbnl/5H26gUQUBiAIw9X/7BWputtbtm0VNe5q5Zq7 C/pGYSwEwKYCVkE/FZBCADaAkgAJW3gB2E/mBaiFtgFI1ZQpUz45c+ZM3yFDhvyho08UqlRiWkKC LAcdHhGB7Kws3cWOIAg9+7nZHAqFwizj/8svv1yDuGy4ibvdwv0kL4CNoBAAYSvYF53vE6ABUDV0 6ND/++mnn763p4OVujSpLJAg9N8FfjiXuaI7MzOzWGL8GyVCgIw/CQDCQb0ALRA3DGIDhdQAKh94 4IHUnJwcuxn5J61pLi67Qe8iQQB4Z99h0e2nE58263G7d+9WCUaf9QlpNCECCBIAhIN6AZqMeQEA VDz44IPvZGRk/D97OFBpUuHpvAv07hFOj3Q0d3xCAkLNSMC9ePFiZW5urpoz/qxRGC8CSACQACAc 2AsAI16AGnAzAyZPnrx39erVO27dunWrcz0AEfSOEYSEtdv3635XKBRIWvSSWY9LS0v7L7fqZ8af CQEKAZAAIJxEBEjLApkXQDdOeNWqVSfvueeeN3755Zdz9nLg1AuAcHaWpe4WfQ/mJCaatfrXaDQN b7/99kWIS4FvCT/rIQ4DkAggAUA4ONLmQGx6IJscWP7bb78VDxky5P358+fvvHHjhrozDpJPBKQR xISzotbUYvaKVJHrPzwiwuzV//Hjx6+WlpbWQjw1tM6IF4CMPwkAwgm8AOAUP1sRsFBABYCbAG4A uL5169acnj17bnjrrbcOX79+vYpOH0HYjl0ZJ/DwvFcNuv7t2bfX7H0sX748n/ues9wf5gFogDgJ kLAh1AeA6CwR4MJ94RuM/J3lCjQCaFy+fPmJ5cuX/zhnzpxBs2bNinzooYfCfH19PW11wFXkASDa AWuYEx6mxKCwUCiDe2DY4P4IDe6B0OAguzxmVua3/1iWQfkrM/7mDP4BgD179hTl5eVVQjwZVCoA eA8AQQKAcCJPAAsF8PdLSwaZ6/DWzp07a3fu3FkIwOell16KGDlypPLuu+/uee+99/ay5sFSDgDR PgFwQff5MfYZGjZ4AEKDg6AM7oFBYaFQ+PlgUJjSphMotZMxVTiddwFHs3NNftbjExLw11UrzTb+ Go2m4X//93/51X8ttJ4+JgL4HABKAiQBQDi5CGiReAD4jOFbkhWE7+bNm3M2b96cB8ALgGdcXFxw UFCQ78MPP3wHtG2uXYT54y6AdhZ5dHR0zyFDhvQ05+CiY2J03QAJwhrCsbUuk6HBQQgN7gGFnw/C w5TcfUHc/5jnSeCfh4mS1kZhS78HSYteMrvfP+Odd975T2lpqYb73tZAm/BbI9xXD8MqAMKG0CwA wi7eCmFzhX58sCe0I4R9hK0bAD/upx+0cwV8hP/zEh7jwe2D7Y/t2/WDDz4Y8swzz9xrzkGlpmxG akqK7vb5g+/QO0VYRHFZOQqKVDhXVGy2wbUXYuPiMCfxaYsNPwCcOXOm/P777/8a2uTeCmjH/14D UAr9+N8KQRDUSrwA9rE6oVkABGFTT0ATd1taLljPrSL8BMPvywkEb0EAMBHgLhh/V04IuHl6etbR 6SZsBVuxj4uOxEKMF63Ii8vKdQJBrant9JkTSqUS0TExiI6Jxri4OLNd/VKqq6sbH3nkkdPcyl8j bNWcwa/lPADN5AEgAUCQCHCBuByITwTkQwE1EsPvZcQL4C4RAe4APLy8vCibj+h0hg0eYPJvTAgw V72K8xrI4UFg4QRpTb90DHZ7jf+jjz76fVlZWTX07b6roa3wYQKgBuIKAMr+JwFAEKLqAGMioBH6 JiK1grH34gw/M/5sc+M2dwCevr6+GjrNRFcQB62JBAZL4GsNfy6HgGfKy+t1ImDnjh2IT4jvUAdM wfhnnTx58hrEbb6roG30pRZEQK1EANDKnwQAQehEAIMfF8qEQD3nCZAafH7lz6/+3YS/efn5+dXQ KSYcBYWfj1lCwRjrkmZiysvrdbeTFy9BxuFDcht/NbQNvpjxZwmArC0wZf93ItQIiLBnIcA25gGQ 5gJUcxeYCmgbCJVDaCJkZLvh6+tLIQCCgDYU8OL0CbrbBfn5SE3ZbPF+CgsLq2JiYk6dPHnyOiRT PoXvZYVEALDVP8X9SQAQhFlCwFhfgFputcHEALvwVAqCgG0VACp8fX1v0SklCC0Lp48XhQdSU1JQ kJ9v9uN/+umnm3ffffe3Z8+eVXPGn638K7jvYpXwN7b6pwFAJAAIokMeAZYYyOcF1HCCgCUfsa3a y8urgU4lQeh5Ze400e3kxUvMfuzdd9/tf88993hyorzGiABgCYDS2D8l/5EAIIh2CwFj4YE6ThDw jYNqAdzy9vYmAUAQHMMGD8BTk0brblsSCujWrZv77t27IwWjznvjKjkhII3988afVv8kAAhCFjHA JwsyDwG/1bu5udGqgyAkLJw+QdRR0JJQwJAhQ3r+7W9/6w9xmS5f98/i/vUg1z8JAIKwoSjg8wea XVxczL7oUBtgwllQ+PngraRZovssCQXMnz//vkcffTSQEwF13M96zviT658EAEF0Cu3u/WzL4SwE 0Rl0JBTg6+vruWXLlj9B7IVrkqz4+ax/Wv2TACAI+zf+ADDISCMVgnA0OhIKUCqVwfv374+DuP22 q1zfQYIEAEF0iMDAwBg6CwRhHIWfD95b/qzoPktCAVOnTn149uzZ/aDtzilt0OVKNocEAEEQBGGn dLRB0MaNG+cMGjSoB7TDurw5McBEgAt5A0gAdDotLS20OchmJhZddNRqNV0hCKekIw2CevXqFbpt 27Y/Qz+628ceRICVrikkAAiiC2DxxcaSjmgE4WisS5opur1g3nNmi+KRI0c+vGzZsmEAFIIQYN4A XgS063tJkAAgiHbh6enZrmy+6HYOXCGIroo0FKBSqSwKBbz22mtJ4eHhtwPwF0QA7wlwI/tDAoAg bLX6dwHg4u7uTun8BGEm0lDAzh07zO6P4eXl5XPgwIGFghfAH9pwgDe0UzyZAKB8ABIABGEzIUAQ hAW8t/xZUR+MpYuXmB0KGDhw4JC0tLQEzgvgK3gBPCVeAPpukgAgCPuAugAShJbQ4CAslIQCllpQ Gvjoo49OeeaZZyIhDgV4gkIBJAAIwkYrf5edO3fe2d4dDAoLpbNIOC1PTRqNYVwezJHMTBzJzDTr sV5eXj5vvvnmAgAB0IcCmAhwF0QAhQJIABCE9QgPD2+3AKBWwISzYywUUKxSmfXY4OBg5alTp+ZB nA/ARADlA5AAIAjregGam5vNvriYe2EjCGdB4eeDddzAILVabVGXwBEjRox75ZVXoqEvDTRVFUAi gAQAQchj+NsjAFSqYtFtf/IAEATGRUdi6tho3e3srCyLSgNXrVq1KCIi4g4YJgV6gFoFkwAgCGuJ gP79+z/U3h2E0zAgggAAvDI3vt0Dg7y8vHz279//IvT5AKxBEMsHoFAACQCCkF8EWOIBIAjCOMYG BlnSJZArDTTWH4C6BJIAIAjZPQAuLS0tZl9QqAyQIExjrEvgm2+sNvvx8fHxMySlgSwUwKoCSASQ ACAI+QRA9+7d2zUKeBi1ASYIA6RdAtPT0swuDQSAv/3tb/9zzz33hEBcFWBMBBAkAAiiY1jiAXBG dmWcwMApL+LBmckoLiunE0K0SUdKAxUKRY+PP/74WbQeCqB8ABIABNGh1b/Fn3VnDAG8u+8wAECt qcWBY9n0ySHaJDQ4qEOlgUOHDh2+Y8eOR2F8aiCFAkgAEIQsIsDF19e3XSEAZ5gEeDQ7F2pNre72 w9H30qeGMIuOlgb+5S9/mTlv3rxItN0fgCABQBCWG386DW0LAH5VR2WPhCUYKw20ZGrg6tWrX7jn nnvukIgAahVMAoAgbCsCnM39X1xWLnL5j4uOpE8MYRHGSgMtmRoYHBys3L179zxOAEjnBVA+AAkA gmgfOTk5I9r72GGD+zv0uXlHiP0znpo0hj4whMWEhynxytx43W1LpwYOGTLkDx9++OGj0DYJkuYD UH8AEgAEYd3VPwCzVy2OuPqfOjZa5MolCEswNjVw544dZj9+xowZs5577jmWD8CXBlI+AAkAgmif CPDx8elu7j8X5BeIbjvyHIC129NFt/nmLgTRHqSlgWveWG1Rq2AhHyAElA9AAoAgOrj6BwCXnj17 Dm7vThw1Ie5odq4o+Y9W/4QcdLRV8G233dZbyAfgQwGUD0ACgCDaJQJoFLD0NZaVY3nqblr9E1Zh 2OABBq2CO5AP4C8IAMoHIAFAEJYLAG9v797mPkDFCQBHXBGrNbV4Yd0Horp/ANT8h5CVhdPHy5kP 0Fp/ABIBJAAIwrQA8PLyapcfPzS4h8MZ/ydXpKKgyNDLsSvjuNH7CaK9dDQfYMOGDUvayAcgG0YC gCBaFwGWzAEw9wLlCMaf93CoNbVYnrqHRAAhGx3NB1AoFD3279+/CPpQAPUHIAFAEOav/mFhG2D+ 4uQobYALilQGxj88TImDby/DU5NGG/zf6bxC+vQQstDRfIC77757aHp6+p+hHxpE8wJIABCERSLA YuPvKKv+d/d9gSkvrzcw/h+tSYLCzwevzI0X9XJXa2oxe0Uq1m5PN8gTIIj20NF8gGnTpv1l1apV D0E8NIjPB3AjEUACgCAMjP/evXvvNHulLHH/d9UeAMzwPzzvVYNOf8MGD9AZf8ZbSbNEIgDQjgee 8vJb5A0gZKEj+QAA8Morryzm8gGkTYJcyZ6RACAIqQDAgAED+rR3B+FhoV3yhU95+S28s++wwQr+ xekT8LHE+PMigG/lCmjLBWevSMVsCgsQHaSj+QBeXl4+hw8fXg5tPgDzBHiD8gFIABBEayLAXByl B0BxWbnBqv/g20uxcPr4Vh/31KTROPj2UoPmR6fzCkkIEB3GWD7AgnnPmf34O++8c2B6evoTEA8N otJAEgAEYdTwu9x+++1mD7dXqYpFtwd10S6ALLFvXHQkPl6ThI/XJJnd0VCbHLgUbyXNMvAU8EKA +gYQ7UGaD5CdlYXUlM1mP37ixIlTJ0yY0B80L6DjF8mWlhY6C0TX/yC7uBgTAO4AvEtLS18NDg7+ X3P2k5qyGakpKbrb5w++49TnVa2pxUcZJ7Ar47jRhMDQ4CBMGxtDbYQJiz9XU15+S+Sp2rNvL6Jj zCvW+emnn75/4IEH/gbghrBVAtAAqAXQAKAJQIuwAQDI1pEHgHA+L4CLq6trgLkPyM7K0v2ucOAh QOai8PPBwunj8dW21/Hi9AkG56S4rBzv7DuMsfNexQvrPiCvAGH258pYPoC5Ibj777//odjY2H7Q lgWyqgBP8gKQACAIXgC4+vn53dOeBw9y0CFAHRECP+zZgLeSZhld7R/NzsWy1N14cGYylqXuplwB olXCw5R4K2mW3iugVmO+BfkAb775ZjzEvQFYgyB+YiDlApAAIJwZS7oAOsMgoI4ydWw0jm17HR+v STIoHQS07t0Dx7Ixe0Uqxs57FWu3p1N3QcLkZ4n/DBXk55udD/Dggw8O69+/fzD0yYCUC2DpConi IoRDfJANcwBchQuBX1NTU5Grq6vCnP30vytMdHHiVyiEcZjBP3Asu1VDr/DzwcPRkRgnbATBPj/S LpUnvzmFUGXbHrh33nnnX0lJSYcBlAG4DqAcQBWAGgD1ABoh5AGQrSMBQDiXAPAC4NvS0nLd3P3w AuDF6RPaLJsjxBQUqXDgWDaOZucalCJKxcCwwQMwLjoSwwYPoARC+txgysvrdbejY2KwZ9/eNh/3 yy+/nBsyZMg7AEoFEcASAqsB3BIEQLPW/pOtk+JOp4BwVE0AwGXJkiXdzX0AnwBItI/wMCXC5yrx ytz4VsWAWlOLo9m5OJqdq3vcsMH9dYKAcL7PzYvTJ+i6VmZnZaFYpWrTC3D33XeHQev+50MA/LTA Jjq75AEgnM8D4AbAKycnJ+6BBx44YK4AmDl9hu72x2uSyBjZ2DPAYEJg2OD+ZvcvILo2ak0tHp73 qq7cdE5iIlasWtnm44YPH/72999/fx7AVc4LoIa2LJB5AcgDQB4Awtk8AJY8gBIAbeMZKC4r163+ TVUK8N4BFi4gQeDYsBwRVkpq7pyAe+65J/j777//rwkPAGsPTNafBADhRMYf6GAXwNDgHnQmrUBo cBCemjQaT00aDbWmFqfzCnViwJh3QBou4AVBeFgoeWkciOjBA3QCwNyQXGNjo6dg+Jnx56sAXEGl gCQACOf0AHh4eAS0dweUmGabVR9fFVBQpMLpvAs4nVeI03mFRrsPSgUBoO0xHz14AAYJgoCaOHVd cWgpUVFRvXbu3OkpGH8mAJgHgO8HQF4AEgCEM4mA9nYBJDqH8DAlwsOUulkG5ggCALq/84ZEm1hI XoKuhDn5IVJu3LjRJBh9ZvjdJR4AggQA4YwegPZ2ASSD0bUFQXFZuS7XgN/XoLBQYZ8kCuyR/Vwr aXPnAhQWFlYLBt8N+rHA5P4nAUA4uwCwpAuguXPJCfsSBOeKipGdV4hzRcWtNiIqKFJpqxGQbeAp YGWIocE9KPTTSRw4li3y4sTGxZr1uGvXrjUIxp53+btKrgWEsYsklUYQDvFBFpcBsi6Avg0NDbnu 7u5mpY1TF8Cuj1pTi3OCl0DrLTDtJTCFws8HgwQvQWhwD4SHhWJQmJLyCqzIrowTWLs9Xf8eKBQ4 8c0pKBStN/DUaDQN3bp12wltB8CrAEqEn9cBVEDbFfAWgEaqAyQPAOFcHgBXc42/FCVVAHRJ+AoB RnFZucRToGpVFLDKBGmJojFhQB6DjlFcVm50cNT6TRvbNP4A8PPPP5cJv7ZIfkp/J0gAEE5k/C1y +5lbc0x0PUKDgxAaHIRx0ZFYiPE6w1NcdkPnKSgoUrWZgGZKGADQVR6Ehyl1z0deg1a+b0Uq7Mo4 YXR89IZNGxEbF2fWfg4fPlwMbavfZmi7/rVwt0kIkAAgnFUE5OTkjDT3n6Xx/2GD+9MZdAJRIE0E PJ1XiIKiYhSX3UBBUXGb3gL+cQBESYeM8DAl/P18EC08F/tsOVsSYlvdIBUKBbZs22p28l9paWnN 2rVrLwiGn22Nwk8mAsj4kwAgyANgmQAgnBNp+ICt/M8VqUTCoLjshtklaywx0VTXQyYQQoODdKEn JhK6aoiB97CYE3aZk5iIpEUvmeX2Z+zcufMiZ/TroZ/+JxUBBAkAwomMPwC49OjR406zVyf5BaLb /uS6JdjK1EheAb/y1woEbQWCMQ+AuQKhLZhQ0P4eCoWfr+6zGh4WKvrsWrtdMi9mTudd0L0OFiYx 67wqFJiWkICnE582a/Qvz9WrV2uXLVt2HkADZ/xNiYAW8gSQACCcTAj4+vre2d4HU795wlyPAaAd XsTc24wVq1YiVKlEQX4B1Go1CvLzdT/bAy8UzDWyPNqwh+XJrZZ4O8wx+rFxcRgXF2t2nN8YCxcu PCMY/zpos/xrhe0WJwKayPiTACCc0wvg0tzcbHYYgAYBER2FjbJlTEtI0Bk8KbwQyM7SD79Rq9Ud EgmtG/Jy2Qy52UI6IgIREREIjwhHdEwMwiMiOrzPLVu2FKanp18RjP0tADWcAKgTBECDxANAkAAg nEkAdOvWzewugCpOANDqn7CUA8eyRcY1Ni6u1Xi2QqHQJbu1lvTGRAEvFLS/Z4nEq6oTBWx4RAQU CgWUSiVClUqER4SLXp+cZGRkFD///PNnuVW/RtiqOSFQJ/EAECQACGcTAG5ubor2PJji/4QlqDW1 oiY2ADAn8WnZjCtDbFBfMn08JjwI2vsLLD4GpTLUIEbPjL4tycjIKJ48efKP3KpfA22jnypBAGig DwE0gJIASQAQzisCLGkDTIOAiPby5IpUUYZ7bFycVVa/5tLa6rsjcffOJDk5OXfjxo2/Cyv8GsHg q4WtivMAMAHQBMoBIAFAOOfqH9okwHZdhaNpSAxhJstSd4uS8xQKBdZv2kgnRiYKCwurnn322V9O njx5nVv5VwpbhfCTiQAmABpA7n8SAITTiwCzoB4ARHuNv7STnbktbInWqa6ubvzoo49+f+GFFwqE Ff0tbuVfCW3v/5ucCKgWvAN8BQC5/0kAEM5o/JcsWdLd3AdI46WUA0C0x/ivWLWyy7rY7c3wv/76 6xfKyspqjRh/tWD0b3ICoAra+D+rAOCNP3kBSAAQzsaf//zne9v7WL6pCkGYY/zjExIwJzGRTk47 KSwsrPrggw+Kdu3aVVJWVlYDfY1/HfQJf2qIXf8Vwn1s9V8Hiv2TACDIA2DJAygEQJj1OdHUYnnq boNuf/EJCRT3bwcXLlxQf/rpp6o9e/ZcOXv2bJVg9Pm2vqy2vxripD8+7s+S/6S1/wQJAMIJjT8A uPj4+HQ390HUBphoi+Kycryw7gODtr3tNf6FhYVVWVlZNwcPHtwNAIYOHerwM4XPnDlzIysr68aZ M2cqP//887LS0tJb3Iq9gdtYgx9W588LAGnZXy0nGMj1TwKAIODSs2fPwe19MDUCIkQCsUhlUOoH aGP+7XH7V1dXN06ZMuVMfn5+NcST7Jrvvfde3/DwcF8AGDduXHBLS4uLQqHwDA8PD2hpaXHx9/f3 6NevX4C9niuNRtPwn//8R11cXFxz+fLl2jNnzlR8//33FXl5eVXQ1+Wz0b2N3Kqfd/lLm/zwIkDD Gf5bMN71j4w/CQDCib0AFrUBphAAYYoDx7KxLHW3wf0bNm3EtISEdu1z0aJFv+bn56u5Fa8uc/3X X3+t+PXXX1sA4JNPPrkgfJ5dhc2Fu+0CwOXhhx8O6tGjh2dLS4srEw3c9wAAEBEREdCtWzfPDntB iotrVCpVDbv9+++/ay5cuFDj4uLScu7cOc2vv/6q4VbgzUY2fmRvI2f42QqeN/413KaBuN2vdNVP xp8EAEHoBYC7u7vZtVh8FYCC3P+EgLFkP4VCgT379ra7p/2ePXt+3759uwr67PZbMBxgw4woM/Ru 3O+uvCD46quv1Pz/fvrppxc4ocBvMHJb+r0xRouJ+3hj28IZYP6nKcPfxK3cpSv/OomhrzVynviJ f3y3PzL+JAAIEgBw8fPzu6c9Dx5E7n+nx1S8PzwiAu9v22rx6FrGmTNnymfNmvWrZJXLVre8CGjh PsvM2LtJjL+rRBQY++lihhiwhBbJT37V3ZrhN7XqZ8a/nhNEvBiolxh9Jhikq34y/iQACIK7UlnQ BphCAATjdF4hXlj3gUG8Pz4hAX9dtbLdTX4KCwurHnnkkdMQ17RXQV/GxkRAI2fY2OrfzYgIcDMh BMwVA5aKgBbJ6h9GVv1NZhp/abZ/g+Sn9P5GIyt+WvWTACAIw9W/cNEzGwoBEADw7r4vDEb6Au1P 9uON/4gRI74rKytjyWusmx1fy84G2bAVLkNq6N1gGArgDb+bBV4BGPlpyvBbYvylAkAqAqSCoLWf TUb2DTL+JAAIwqQQaO8cAKoAcD5M1fcrFAps2ba1Q4N9BOP/fVlZWTXErWwroO9mV2lEALTARNy/ lZW+Kyd+zQkHAJaFAVraEAFSASD92cQZ9UYTAqHJiNFvIcNPAoAgzPUAEIR53p8iFV5Y9wGKy8rF QjAiAnv27e1QX3/O+FcZWfmzXvbl0LeyvcUZQZgw5EarAUz8jX88zDD+LmZ4APjfm80QAsa8As2t /OSNvjTRkCABQBDyiQBjc9MJ5+DAsWys3Z5uEO+fk5iIFatWdmjfZ86cKX/kkUdyJMaf9bHnjT/r asda2TZKVru8MW/NsJtr8F3MNPytCQGpN4DfmtF2VUCLkd9baKVPAoAgOkxSUlKguf8rTQAcRHMA nAJTJX4rVq1sd30/IyMjo3jy5MlnoC9pY8l+5ZKtAsbj/3wSoNRgt2XUW4vxt8fwt+URkK7SWxMG MLK6b2lDaBAkAAjC/NX/k08+eU97d0BJgI6NWlOLJ1ekGi3x27BpY7vr+xnvvffexYULF+ZDP8SG rfxvcqv+m9zKn29ny1cAmPp8G/sJC4y9i0wCoMUMQQC07sYnY08CgCDkFQFNTU2UB0AYYKqlb2xc HNZv2tiheH91dXXjG2+8UbBx48bfYTi7vpJb9d/kVv413Mq/EW13s2tpQ/xa8reOfEfMNeRk4EkA EIRtsaQNcHZWNp0wJ8BUS9+OlvgBwNWrV2unT5/+48mTJ28IK38NjM+uZzH/Khg2/2lXK9uWlhZz jC0ZYoIEAOHYK3/208/Pr93DUoYNHkBn0sFYuz0duzJOiO6To8QP0CX7/cjV+NeYMP4VELv9pe1/ qY89YXNc6RQQjiYCbrvttsF0KghAm+wnNf7hERHIOHyow8b/vffeu3j//fd/V1ZWpuZW/ZWCwb8B 4Lrw8wYM6/1Zp7tmMvwEeQAIQh4BQPF/wmSyn1zx/kWLFv0qDPVhmf4a6LP9K7hVfwX07X410Pe+ 51f+IBFAkAAgCBlEgCVzAIpVKjpjTmL85ajvLywsrJo6dWrO2bNn1dBn+msEI6/mjH4F9C7/auin 2jWQ8SdIABCEHXgAVJwAoBLAro+pzn4bNm2Upb7/mWeeOSvE+/lMfzXEvf0rOEHAcgPqYH62P0GQ ACCI9mBJFQAPjQLu+sZfWuanUCiwftNGxMbFdWjfycnJvwolfvXQJ/tVCRvf259f9ddIjH8TGX+C BABBWNEL4O/vH0GngYy/QqHAnn17O9Tc5+rVq7V//vOff/r6669vCKt+abyfGf9KI8ZfmunPevyT 8SdIABCEnIZf96F2d1fQ6SDj31HjLynxYy5/Dbfqb8vlzxt/ml9PkAAgCCuLAKoCcCKKy8qtYvx3 7959afbs2b8KRvwW9GV+VRLDz1b9rLkPS/Zj422byfgT9gr1ASAc1hNAODZqTS1eWPeBrMa/urq6 MTk5+dfZs2fncqt+5uovh7a2n203oB/qUwVxX/8GWvkT5AEgCDL+hBWMv7TUTw7jP3HixGxJvL8a +gY/FRC7/KtgGO9vAsX7CRIABNE5WNIHIDsri05YF2Tt9nRZjX9hYWHViBEjsoyU+Blz+VdKVvx8 vJ9c/kSXgUIABK3+iS7Fu/u+wIFj4iFOW7Ztbbfxz8jIKB4xYsT3ZWVl1dyqX9rSl23lEHf3M1bm R8afIA8AQXSCCCAh4MCczivEO/sOi+7bsGlju/v6Z2RkFE+ePPkM9C19Wcy/ta5+rKVvHcRZ/lTf T5AHgCAIQm5Y0h/PnMTEdnf4W7t27bnJkyf/BH1L32roG/rcgHigD2vyUwXTbX3J+BPkASAIgpCb 5am7RRn/0TEx7e7tz3X2k8b7KyAe5sPH+2tg2NKXXP4EeQAIoivS0ZGwhG04cCwbR7NzdbcVCgW2 bNvaUePPt/RlZX78ql8a778FivcT5AEgCIKwDWpNLdZuTxfd196RvoLxL+JW/tJe/mxTcyt/Zvgp 3k+QACAIgrAVa7eni1z/sXFx7RruI3H7ayTGvxyGbn/W2Y9a+hIkAAiCIGxJcVm5qOSPTfezlN27 d18y4fa/KRj/cs74V3Mr/wZho3g/4XBQDgDhcNy4cSO7fcbmBp08O2NZ6m7R7aRFL1ns+s/IyCjm WvvWSow/y/Znq3++vp9a+hIkAAiii2BxXFapVIpWm4T9UFCkwum8QtF7NScx0aJ9FBYWVj3zzDN5 gjE3tfLnjb+xfv4toJg/4YBQCIBwJONvMaGcACDsi10ZJwxW/5ZQXV3dOHXq1ByhvS8b5csa/DAB UAFxzJ/v6U/JfgR5AAiiK1FRUaHqyKqT6HyksX+lUmlxw5833ngj/+zZs5XCil4jWf3fJONPkAAg CMfyArRcvXr1srkPiI6JFt2u4rLNic6Dr/lvz+r/5MmTZUYa/VRyhr8140+d/QgSAATRFQXAzZs3 K819gDSh7HTeBTqLdoB02M84C8r+qqurG1944YU86Pv7865/trFkP2PGH2T8CRIABNG1jD8AtEyf Pv2suQ+STpBTa2roTHYyxWXlolBMfEKCRZn/H3/8cZHg+mc9/pnrn23SJj8NZPwJEgAE4Rg0NzU1 VbXHC3DgWLao6Qxhe6Tu/3FxsRat/l977bUL3Oqf9fhXGzH+0r7+ZPwJEgAE0YW9AM0AWjQazTlz H8R3lVNravHkilQSAZ0IX/oHWDav4eOPPy4qKytjQ3s0ggBQcxu/8q/njD/F/AkSAATRxQVAC4Dm W7dumZ3OL20uU1CkIhHQSag1tSIPQHRMjEXu/7///e+/C4addfzjPQDSmD8Zf4IEAEE4mABouXz5 8mlzHxSqVBq0ly0oUuHhea8arEYJ6yJN/ou1wP1/4cIFdV5enhpi9381xON8eePPl/sRBAkAgujC xh/CBb353//+d5YlD46Ni8MGiQhQa2oxe0Uqlknm0BPWY1fGcYP3xVzS0tL+Kxj3WxIPgAbiqX7S 9r4EQQKAIBxEBDS99tpr/62oqPjRkgdPS0jAnn17DVzOB45l4+F5r+LdfV/QGbYi7+77QtSOOT4h waJOjZmZmaWCAGDZ/xpu5V8LccY/Jf0RJADoFBAOJgDY1Lamf//73+9buoPomBhkHD5kkHim1tTi nX2HMXbeq1QpYAUKilR4Z99h0X2WNP8pLS2tOX78+A0jHgB+pC+f8U9xf4IEAJ0CwsEEABMBjbNn z/7++vXrP1u6k1ClEnv27cWGTRsNvAHFZeVYlrpb5xGgAUIdh1Ve8MxJTLRo9X/s2LErgoHnBQDb 6mB8sh9BkAAgCAeCeQAaATQsX758dUNDg6Y9O5qWkIAT35wyOoGO9wgsS91NyYIdNP68RyU8IsLi 1r8ffPDB79C7/28ZMf7U458gJLi0tND3gHCAD7KLCwC4AHAD4AnAB4ACQOCBAwf+MmXKlP/tyP6L VSqkpmxGelqaac9BcBCmjY3B1LHRCA0OojelDQqKVHhh3QciL4pCocCefXsNOjS2xpkzZ27cf//9 R6Ft9HMdwDUAV4XtOrStf6sFQdDgSAKArt8ECQCCPsh6AeAK7ZhrHwB+ALoDCMrLy3vjnnvuGd3R 5ylWqZCelo6dO3ZArVab/L/wMCWmjo3GuOhIEgNG2JVxAu/uOyxa+bfH+APA448//k1aWtrv0A76 uQ6gVDD+pdCO/K2EvvNfoyOt/un6TZAAIOiDrBUATAS4A/AC4AvAH0AggNt++eWX5ZGRkSPleD61 Wo2jmZn4cMeHKMjPb/V/w8OUGDa4P6aOjUZ4mNKp3yeWQyENmbTX+Aur/2PQ1vqXS1b/1wRRwCb+ sRwAEgAEQQKAcFAB4AbAQxAB3QAEAAgC0PPHH39ccv/99z8k53MX5Odj544PcSQzs1WvAAAo/Hww bPAAjIuOxLDBA5zGO1BcVo539h02aPQDAEqlElu2bbXY+ANAQkLCt+np6ZegdfPfAFDGeQBuCKv/ auhLAB0q/k/Xb4IEAEEfZLEAYF4AlgvQDUIoAMBtJ06cmDdq1Kgx1jiOI5mZOJp5xCwxAGjzBoYN HoDowQMwKCzU4TwER7NzceBYtsGAH0ZsXBzWG6m2MIc9e/YUzZo160dhhc/c/1cFEVAmeARYF0DW /c+hLnh0/SZIABD0QdYLAN4LIA0FdAfQA0DQ6tWrxyxevHimt7e3t7WOyVIxwDwEg8KUIkHQ1bwE p/MKcTQ7F0ezc02WSSqF9suWDPrhuXr1au2QIUOOl5aWVgir/3LO8JcKq/8KiJP/HK7tL12/CRIA BH2QDQUAHwrwhjgfIBBAj1GjRvX/4IMPZg8YMOAuax9fQX4+jmQeQXZWFrKzsix+PAsXKIN7YNjg /ggN7mEXwkCtqcW5IhVO511AQZHK5EqfN/xJi17CtISEDj3v6NGjvz558uRVwcCXQ+/+L4M29l8O 7QAgNhmQrf5JABAECQDCgQUAEwGu0JcFekFbFcA8AYHQhgQC//GPfzzyl7/8ZYyPj4+XTYymWi0I gWxkZ2W1mUTYGqHBQToxoAzuAX8/H4SHhQp/k08ksKS9gqJiVGlqkZ1XiOKyG2Y3QgqPiMDTiU93 2PADQHJycu7GjRsvQOvaZ6v/a5zx51f/fPtfh7vY0fWbIAFA0AfZuACAIACYCOA9AQGcEAjs06dP r127dj02atSowZ1x/EwQFOTnIzsry+yQgSWEhynh7+dj1v9aYtxbW+2Pi4tDfEJ8uxL8jPH3v//9 wgsvvJAnrOzV0Mb+bwiGn20Vwt9qHXn1TwKAIAFAEMYFABMBUk8AEwGsOiCAEwMB0dHRvXfu3PnY oEGDOjUbT61WC2JAKwpUKlWHPAW2IjomBrFxsYiOiZHN6DMyMjKKJ0+e/KNg2Kskq3+28meu/2qI J/855IWOrt8ECQCCPsjGBYBUBLhDnxPAqgP8oe0YqBCEgAKAIjExMXzx4sUjw8PDQ+3pdRbk5wsh hGydSGA/bYlCoUB4RATCIyIQERGu+91aCCv/fGhd+tXQlvfxq//r0Df94RP/HHb1TwKAIAFAEK0L AFOeAFYi6CdsCokY8AfQ7cEHH7zjrbfeGjF27NhBXeE8sARDrSgoMBAOlqBUKnUDeRQKf52Bb2/m fntJTk7+dePGjUWc8Wdlf+WC4Wcr/wrhb8z13+TIq38SAAQJAIJoWwAYEwEe0CcHMm9AN84rwLZu APxCQ0MDly5det/06dPvu+2227rRGbc+1dXVjY8++mjWyZMnbwjGXwO965+t/m9wK38+658v+yMB QBAkAAgnFgBMBEAQACwkwHsDeI8ALwbYfb4AfGfPnt1v9uzZEbGxsQPozFuHkydPlj3xxBM/l5WV aQTjz5L+KqGP/ZcLQqAC+qS/Wmjd/g7t+icBQJAAIAjLBAAvAlxNeAO8OSHgywkBdpv99A4NDQ14 9tln746Li+v70EMP3Unvgjyr/pdffjn3H//4RzH0o31rhJU/y/rnt0rou/2xlX8jHLDpDwkAggQA QXRMAPAigA8JGAsLsM3XiADwFf7mDcA7JCRE8eyzzw6Ii4sLGz58eG96Ryw3/B999NHvr7/++sWy srIazvhroI37q4WVfgVn+FnCHzP+9dDH/UECgCBIABAkACzxBrhDHxrgPQK8GOAFAL95AfAKCQlR xMfH9544cWLY0KFDbw8ODvajd8i04f/ss89U69at++3s2bNqwYjXQevKZ8a/CnrXf4UgBlipX42z Gn8SAAQJAIJovwAw5g0wJgRY/wBTgsCH8wbohAB7bFxc3O1/+tOflDExMbffd999t/v5+Xk4+/t1 9erV2h07dvy+efPmS2VlZaxkr15Y9dcKhr2aM/Ys/q+G3uVfIzyGGX+HT/ojAUCQACAI+QSAuUKA Dw+wTRcCkAgAb25jj2GP94iLiwtmgqB///6BzuIhqK6ubjx+/Hjpzp07/7t///4yaGP1Ddyqv04w 6sz4SwVANbfqvwVxox+nM/4kAAgSAAQhjwBoSwi4cUJAKgY8JUaf37wkQsCTe7w7AI8hQ4YE/OEP f7htyJAhPYcNG9arX79+gY7iJbh69WrtV199dfXkyZPXP/jggxLB6Ddxhp93+bOVPyv3Y+5/fsXP jH8Dty+ncvuTACBIABCEdQSAKSHgIhECvBjw4Iw77yHwNnHbk9v4fbBERLf77ruve3h4uOLhhx++ Q6lU+t1xxx3d7rvvvtvs/X24cOGC+ty5c+pTp05dP3z48LW8vLwqYXXeyG38qv8W9Jn+zPiz2L+G 22qF/6uXGP9mZzX+JAAIEgAEYR0BIBUCMCIE+OoBd4lB9zTiJZD+7mlEDLhzP905weEGwO3222/3 Hj16dI++ffsq7rrrrm5KpdIvJCTEr1u3bp79+vULsKWhr6qqasjKyrpRWVlZ/+OPP1akpaWVCYa4 SbJJDb8p48+LAPY76+rHEv34Gn+nNv4kAAgSAARhXQFgTAjw4QFpvgBbyXtCnDvgKfnd1MYLCH5/ vCDgN/75XQC4RkZG+oeHh3draWlxDQoK8hw6dGigkdeA0NBQv9DQUF8AKC4urlGpVDXGXvjRo0ev ubi4tADAp59+yox8C2eE+U1q+BtMrPrZT971X8ttt0wYfvY8Lc5u/EkAECQACMI2AqAtr4A0X4A3 2u6S1b2HxNB7GPEc8PdJvQLGhICbEUHChy+MbcZej8i+SH5nK+5mI8bf2Iq/kVvx17ciAG5J7mdG vwFidz+t+kkAEDLiTqeAICy/7nK/80bRRTBWrmYIAjcjxl3607OVv1vkFTAhBGBEDEhfZ4sRAcAb 4yYzVv288ecNvPT3eslj2T6buecm408QJAAIwq7EQAtnSJskBtfViGHmY/vuMKw0kAoGU+LBzcg+ 3CTPY0wEuEpW/y6tvC5TLv+2jD+/1XMGvl5yf4PksbzRl4oQgiBIABBEl/AMMOPKStWM5Q64GjHa xox6awbfzci+pL/z4QpjngBTAoD3cvDG35jrXxoCaDDxU7rK57cWWvETBAkAgnAEMcCvYpskK3C+ ssClFQPuZkIsuJow/K6tGH5XGA8BuJhY/QPiuH9LG0LAlCBoMrFJ902GnyBIABCE0wiCRojd8y5G jLc5m4sZK35Tq39jAoA/3hYTIsCYGDAWJpD+Pxl9giABQBBOLwikLnipoZZ6DFxNCAZj/yuN+Zty /ZsSAG2JAGOigPUDMPY/LWT0CYIEAEEQxo1ga6IArazkXU383VjpX2ulgKY8FlID3mxEHEjL9cjg EwQJAIIgOigKTBlsFzN+mnqMpd4KY6IAMD6Mh4w9QZAAIAjCRuLAXAPv0s7nIgNPEA7A/x8A40UW gEa93q4AAAAASUVORK5CYII= "
     id="image1511"
     x="7"
     y="7" />
</svg>
