<?xml version="1.0" encoding="UTF-8" standalone="no"?>
<svg
   xmlns:dc="http://purl.org/dc/elements/1.1/"
   xmlns:cc="http://creativecommons.org/ns#"
   xmlns:rdf="http://www.w3.org/1999/02/22-rdf-syntax-ns#"
   xmlns:svg="http://www.w3.org/2000/svg"
   xmlns="http://www.w3.org/2000/svg"
   xmlns:sodipodi="http://sodipodi.sourceforge.net/DTD/sodipodi-0.dtd"
   xmlns:inkscape="http://www.inkscape.org/namespaces/inkscape"
   viewBox="0 0 48 48"
   id="svg2"
   version="1.1"
   inkscape:version="0.92.2 (5c3e80d, 2017-08-06)"
   width="100%"
   height="100%"
   sodipodi:docname="com_google_android_apps_translate.svg">
  <metadata
     id="metadata71">
    <rdf:RDF>
      <cc:Work
         rdf:about="">
        <dc:format>image/svg+xml</dc:format>
        <dc:type
           rdf:resource="http://purl.org/dc/dcmitype/StillImage" />
        <dc:title />
      </cc:Work>
    </rdf:RDF>
  </metadata>
  <sodipodi:namedview
     pagecolor="#ffffff"
     bordercolor="#666666"
     borderopacity="1"
     objecttolerance="10"
     gridtolerance="10"
     guidetolerance="10"
     inkscape:pageopacity="0"
     inkscape:pageshadow="2"
     inkscape:window-width="3200"
     inkscape:window-height="1644"
     id="namedview69"
     showgrid="false"
     inkscape:zoom="33.951252"
     inkscape:cx="10.260861"
     inkscape:cy="23.95291"
     inkscape:window-x="0"
     inkscape:window-y="82"
     inkscape:window-maximized="1"
     inkscape:current-layer="g4174" />
  <defs
     id="defs4">
    <linearGradient
       id="linearGradient3764"
       y1="47"
       x2="0"
       y2="1"
       gradientUnits="userSpaceOnUse">
      <stop
         stop-color="#e5e5e5"
         stop-opacity="1"
         id="stop7"
         offset="0"
         style="stop-color:#ececec;stop-opacity:1;" />
      <stop
         offset="1"
         stop-color="#efefef"
         stop-opacity="1"
         id="stop9"
         style="stop-color:#f6f6f6;stop-opacity:1;" />
    </linearGradient>
    <clipPath
       id="clipPath-468622755">
      <g
         transform="translate(0,-1004.3622)"
         id="g12">
        <path
           d="m -24 13 c 0 1.105 -0.672 2 -1.5 2 -0.828 0 -1.5 -0.895 -1.5 -2 0 -1.105 0.672 -2 1.5 -2 0.828 0 1.5 0.895 1.5 2 z"
           transform="matrix(15.333333,0,0,11.5,414.99999,878.8622)"
           fill="#1890d0"
           id="path14" />
      </g>
    </clipPath>
    <clipPath
       id="clipPath-476930736">
      <g
         transform="translate(0,-1004.3622)"
         id="g17">
        <path
           d="m -24 13 c 0 1.105 -0.672 2 -1.5 2 -0.828 0 -1.5 -0.895 -1.5 -2 0 -1.105 0.672 -2 1.5 -2 0.828 0 1.5 0.895 1.5 2 z"
           transform="matrix(15.333333,0,0,11.5,414.99999,878.8622)"
           fill="#1890d0"
           id="path19" />
      </g>
    </clipPath>
  </defs>
  <g
     id="g21">
    <path
       d="m 36.31 5 c 5.859 4.062 9.688 10.831 9.688 18.5 c 0 12.426 -10.07 22.5 -22.5 22.5 c -7.669 0 -14.438 -3.828 -18.5 -9.688 c 1.037 1.822 2.306 3.499 3.781 4.969 c 4.085 3.712 9.514 5.969 15.469 5.969 c 12.703 0 23 -10.298 23 -23 c 0 -5.954 -2.256 -11.384 -5.969 -15.469 c -1.469 -1.475 -3.147 -2.744 -4.969 -3.781 z m 4.969 3.781 c 3.854 4.113 6.219 9.637 6.219 15.719 c 0 12.703 -10.297 23 -23 23 c -6.081 0 -11.606 -2.364 -15.719 -6.219 c 4.16 4.144 9.883 6.719 16.219 6.719 c 12.703 0 23 -10.298 23 -23 c 0 -6.335 -2.575 -12.06 -6.719 -16.219 z"
       opacity="0.05"
       id="path23" />
    <path
       d="m 41.28 8.781 c 3.712 4.085 5.969 9.514 5.969 15.469 c 0 12.703 -10.297 23 -23 23 c -5.954 0 -11.384 -2.256 -15.469 -5.969 c 4.113 3.854 9.637 6.219 15.719 6.219 c 12.703 0 23 -10.298 23 -23 c 0 -6.081 -2.364 -11.606 -6.219 -15.719 z"
       opacity="0.1"
       id="path25" />
    <path
       d="m 31.25 2.375 c 8.615 3.154 14.75 11.417 14.75 21.13 c 0 12.426 -10.07 22.5 -22.5 22.5 c -9.708 0 -17.971 -6.135 -21.12 -14.75 a 23 23 0 0 0 44.875 -7 a 23 23 0 0 0 -16 -21.875 z"
       opacity="0.2"
       id="path27" />
  </g>
  <g
     id="g29">
    <path
       d="m 24 1 c 12.703 0 23 10.297 23 23 c 0 12.703 -10.297 23 -23 23 -12.703 0 -23 -10.297 -23 -23 0 -12.703 10.297 -23 23 -23 z"
       id="path31"
       fill-opacity="1"
       fill="url(#linearGradient3764)" />
  </g>
  <g
     id="g65">
    <path
       d="m 40.03 7.531 c 3.712 4.084 5.969 9.514 5.969 15.469 0 12.703 -10.297 23 -23 23 c -5.954 0 -11.384 -2.256 -15.469 -5.969 4.178 4.291 10.01 6.969 16.469 6.969 c 12.703 0 23 -10.298 23 -23 0 -6.462 -2.677 -12.291 -6.969 -16.469 z"
       opacity="0.1"
       id="path67" />
  </g>
  <g
     transform="matrix(0.91282485,0,0,0.91282485,72.720769,5.2272538)"
     id="g4172">
    <g
       id="g4197">
      <g
         transform="matrix(0.26474361,0,0,0.26474361,13.394038,6.2318434)"
         id="g4177" />
      <g
         transform="matrix(0.26474361,0,0,0.26474361,1.371474,18.237439)"
         id="g4185">
        <path
           id="circle4187"
           style="fill:#000000;fill-opacity:0.11764706;stroke:none;stroke-width:9.69999981;stroke-linecap:round;stroke-linejoin:miter;stroke-miterlimit:4;stroke-dasharray:none;stroke-dashoffset:0;stroke-opacity:0.4375"
           d="m -185.39485,35.307196 a 39.661015,39.661015 0 0 1 -39.66101,39.661015 39.661015,39.661015 0 0 1 -39.66102,-39.661015 39.661015,39.661015 0 0 1 39.66102,-39.6610153 39.661015,39.661015 0 0 1 39.66101,39.6610153 z m 45.41211,-45.348009 a 39.661015,39.661015 0 0 1 -39.66102,39.661015 39.661015,39.661015 0 0 1 -39.66101,-39.661015 39.661015,39.661015 0 0 1 39.66101,-39.661015 39.661015,39.661015 0 0 1 39.66102,39.661015 z"
           inkscape:connector-curvature="0" />
      </g>
    </g>
  </g>
  <g
     id="g4194"
     transform="matrix(0.90846973,0,0,0.90846973,11.520712,7.1129213)">
    <g
       id="g4162"
       transform="translate(-10.398501,-5.9870156)">
      <g
         id="g4189"
         transform="matrix(0.26474361,0,0,0.26474361,23.792539,12.218859)"
         style="fill:#e0e0e0;fill-opacity:1">
        <circle
           style="fill:#e0e0e0;fill-opacity:1;stroke:none;stroke-width:9.69999981;stroke-linecap:round;stroke-linejoin:miter;stroke-miterlimit:4;stroke-dasharray:none;stroke-dashoffset:0;stroke-opacity:0.4375"
           id="circle4163"
           cx="24"
           cy="24"
           r="39.661015" />
      </g>
      <g
         id="g4174"
         transform="matrix(0.26474361,0,0,0.26474361,11.769975,24.224455)">
        <g
           id="text2058-2"
           style="font-style:normal;font-variant:normal;font-weight:bold;font-stretch:normal;font-size:15.57847977px;line-height:1.25;font-family:Comfortaa;-inkscape-font-specification:'Comfortaa Bold';letter-spacing:0px;word-spacing:0px;fill:#424242;fill-opacity:1;stroke:none;stroke-width:0.97365499"
           transform="matrix(3.233071,0,0,3.6183923,97.018606,4.4700304)"
           aria-label="羊">
          <path
             inkscape:connector-curvature="0"
             id="path2257"
             style="font-style:normal;font-variant:normal;font-weight:bold;font-stretch:normal;font-family:'WenQuanYi Micro Hei';-inkscape-font-specification:'WenQuanYi Micro Hei Bold';fill:#424242;fill-opacity:1;stroke-width:0.97365499"
             d="m -5.538417,-13.485051 1.399629,0.304267 q -0.5476809,1.460482 -1.4604824,2.616698 h 3.5903527 v 1.156215 h -5.7810765 v 2.1298703 h 5.4159559 v 1.1562153 h -5.4159559 v 2.1298703 h 6.3287574 v 1.1562153 H -7.7899942 V 0.69379948 H -9.0070629 V -2.8356998 h -6.2070501 v -1.1562153 h 6.2070501 v -2.1298703 h -5.1725421 v -1.1562153 h 5.1725421 V -9.407871 h -5.5985161 v -1.156215 h 7.6066795 q 0.973655,-1.399629 1.4604825,-2.920965 z m -5.963637,0.06085 q 1.034509,0.973655 1.643043,2.008164 l -1.095362,0.669387 q -0.547681,-1.095361 -1.582189,-2.008163 z" />
        </g>
        <circle
           r="39.661015"
           cy="24"
           cx="24"
           id="path4146"
           style="fill:#1976d2;fill-opacity:1;stroke:none;stroke-width:9.69999981;stroke-linecap:round;stroke-linejoin:miter;stroke-miterlimit:4;stroke-dasharray:none;stroke-dashoffset:0;stroke-opacity:0.4375" />
        <text
           xml:space="preserve"
           style="font-style:normal;font-variant:normal;font-weight:bold;font-stretch:normal;font-size:66.52487183px;line-height:1.25;font-family:'URW Gothic';-inkscape-font-specification:'URW Gothic Bold';letter-spacing:0px;word-spacing:0px;fill:#e0e0e0;fill-opacity:1;stroke:none;stroke-width:4.15780449"
           x="-3.63695"
           y="49.249161"
           id="text849"><tspan
             sodipodi:role="line"
             id="tspan847"
             x="-3.63695"
             y="49.249161"
             style="font-style:normal;font-variant:normal;font-weight:bold;font-stretch:normal;font-family:'URW Gothic';-inkscape-font-specification:'URW Gothic Bold';fill:#e0e0e0;fill-opacity:1;stroke-width:4.15780449">G</tspan></text>
      </g>
    </g>
  </g>
</svg>
