<?xml version="1.0" encoding="UTF-8" standalone="no"?>
<svg
   xmlns:dc="http://purl.org/dc/elements/1.1/"
   xmlns:cc="http://creativecommons.org/ns#"
   xmlns:rdf="http://www.w3.org/1999/02/22-rdf-syntax-ns#"
   xmlns:svg="http://www.w3.org/2000/svg"
   xmlns="http://www.w3.org/2000/svg"
   xmlns:sodipodi="http://sodipodi.sourceforge.net/DTD/sodipodi-0.dtd"
   xmlns:inkscape="http://www.inkscape.org/namespaces/inkscape"
   viewBox="0 0 48 48"
   id="svg2"
   version="1.1"
   inkscape:version="0.92.3 (2405546, 2018-03-11)"
   width="100%"
   height="100%"
   sodipodi:docname="de_smartchord_droid.svg">
  <metadata
     id="metadata67">
    <rdf:RDF>
      <cc:Work
         rdf:about="">
        <dc:format>image/svg+xml</dc:format>
        <dc:type
           rdf:resource="http://purl.org/dc/dcmitype/StillImage" />
        <dc:title></dc:title>
      </cc:Work>
    </rdf:RDF>
  </metadata>
  <sodipodi:namedview
     pagecolor="#ffffff"
     bordercolor="#666666"
     borderopacity="1"
     objecttolerance="10"
     gridtolerance="10"
     guidetolerance="10"
     inkscape:pageopacity="0"
     inkscape:pageshadow="2"
     inkscape:window-width="3200"
     inkscape:window-height="1650"
     id="namedview65"
     showgrid="true"
     inkscape:zoom="4.5578103"
     inkscape:cx="24"
     inkscape:cy="24"
     inkscape:window-x="0"
     inkscape:window-y="82"
     inkscape:window-maximized="1"
     inkscape:current-layer="svg2"
     showguides="true"
     inkscape:measure-start="0,0"
     inkscape:measure-end="0,0">
    <inkscape:grid
       type="xygrid"
       id="grid1424"
       empspacing="4" />
  </sodipodi:namedview>
  <defs
     id="defs4">
    <linearGradient
       id="linearGradient3764"
       y1="47"
       x2="0"
       y2="1"
       gradientUnits="userSpaceOnUse">
      <stop
         stop-color="#5c5c5c"
         stop-opacity="1"
         id="stop7" />
      <stop
         offset="1"
         stop-color="#666"
         stop-opacity="1"
         id="stop9" />
    </linearGradient>
    <clipPath
       id="clipPath-686886115">
      <g
         transform="translate(0,-1004.3622)"
         id="g12">
        <path
           d="m -24 13 c 0 1.105 -0.672 2 -1.5 2 -0.828 0 -1.5 -0.895 -1.5 -2 0 -1.105 0.672 -2 1.5 -2 0.828 0 1.5 0.895 1.5 2 z"
           transform="matrix(15.333333,0,0,11.5,414.99999,878.8622)"
           fill="#1890d0"
           id="path14" />
      </g>
    </clipPath>
    <clipPath
       id="clipPath-711547148">
      <g
         transform="translate(0,-1004.3622)"
         id="g17">
        <path
           d="m -24 13 c 0 1.105 -0.672 2 -1.5 2 -0.828 0 -1.5 -0.895 -1.5 -2 0 -1.105 0.672 -2 1.5 -2 0.828 0 1.5 0.895 1.5 2 z"
           transform="matrix(15.333333,0,0,11.5,414.99999,878.8622)"
           fill="#1890d0"
           id="path19" />
      </g>
    </clipPath>
  </defs>
  <g
     id="g21">
    <path
       d="m 36.31,5 c 5.859,4.062 9.688,10.831 9.688,18.5 0,12.426 -10.07,22.5 -22.5,22.5 -7.669,0 -14.438,-3.828 -18.5,-9.688 1.037,1.822 2.306,3.499 3.781,4.969 4.085,3.712 9.514,5.969 15.469,5.969 12.703,0 23,-10.298 23,-23 0,-5.954 -2.256,-11.384 -5.969,-15.469 C 39.81,7.306 38.132,6.037 36.31,5 Z m 4.969,3.781 c 3.854,4.113 6.219,9.637 6.219,15.719 0,12.703 -10.297,23 -23,23 -6.081,0 -11.606,-2.364 -15.719,-6.219 4.16,4.144 9.883,6.719 16.219,6.719 12.703,0 23,-10.298 23,-23 0,-6.335 -2.575,-12.06 -6.719,-16.219 z"
       id="path23"
       inkscape:connector-curvature="0"
       style="opacity:0.05" />
    <path
       d="m 41.28,8.781 c 3.712,4.085 5.969,9.514 5.969,15.469 0,12.703 -10.297,23 -23,23 -5.954,0 -11.384,-2.256 -15.469,-5.969 4.113,3.854 9.637,6.219 15.719,6.219 12.703,0 23,-10.298 23,-23 0,-6.081 -2.364,-11.606 -6.219,-15.719 z"
       id="path25"
       inkscape:connector-curvature="0"
       style="opacity:0.1" />
    <path
       d="M 31.25,2.375 C 39.865,5.529 46,13.792 46,23.505 c 0,12.426 -10.07,22.5 -22.5,22.5 -9.708,0 -17.971,-6.135 -21.12,-14.75 a 23,23 0 0 0 44.875,-7 23,23 0 0 0 -16,-21.875 z"
       id="path27"
       inkscape:connector-curvature="0"
       style="opacity:0.2" />
  </g>
  <g
     id="g29"
     style="fill:#e0e0e0;fill-opacity:1">
    <path
       d="M 24,1 C 36.703,1 47,11.297 47,24 47,36.703 36.703,47 24,47 11.297,47 1,36.703 1,24 1,11.297 11.297,1 24,1 Z"
       id="path31"
       style="fill:#e0e0e0;fill-opacity:1"
       inkscape:connector-curvature="0" />
  </g>
  <rect
     style="opacity:1;vector-effect:none;fill:#000000;fill-opacity:0.12941176;fill-rule:evenodd;stroke-width:1.91295707;stroke-linecap:butt;stroke-linejoin:miter;stroke-miterlimit:4;stroke-dasharray:none;stroke-dashoffset:0;stroke-opacity:1"
     id="rect949"
     width="22"
     height="23.5"
     x="13.5"
     y="14.48773" />
  <g
     id="g61">
    <path
       d="m 40.03,7.531 c 3.712,4.084 5.969,9.514 5.969,15.469 0,12.703 -10.297,23 -23,23 C 17.045,46 11.615,43.744 7.53,40.031 11.708,44.322 17.54,47 23.999,47 c 12.703,0 23,-10.298 23,-23 0,-6.462 -2.677,-12.291 -6.969,-16.469 z"
       id="path63"
       inkscape:connector-curvature="0"
       style="opacity:0.1" />
  </g>
  <path
     style="opacity:1;vector-effect:none;fill:#616161;fill-opacity:1;fill-rule:evenodd;stroke:#424242;stroke-width:0.38361111;stroke-linecap:butt;stroke-linejoin:miter;stroke-miterlimit:4;stroke-dasharray:none;stroke-dashoffset:0;stroke-opacity:1"
     d="m 12.752806,15.399776 h 21.63427 v 21.331241 h -21.63427 z"
     id="rect1437"
     inkscape:connector-curvature="0" />
  <path
     style="opacity:1;vector-effect:none;fill:#bdbdbd;fill-opacity:1;fill-rule:evenodd;stroke:none;stroke-width:0.34116817;stroke-linecap:butt;stroke-linejoin:miter;stroke-miterlimit:4;stroke-dasharray:none;stroke-dashoffset:0;stroke-opacity:1"
     d="m 34.213901,19.58553 -6.09e-4,0.328071 -21.286584,-0.0338 6.09e-4,-0.328072 z"
     id="rect1441-35"
     inkscape:connector-curvature="0" />
  <path
     style="opacity:1;vector-effect:none;fill:#bdbdbd;fill-opacity:1;fill-rule:evenodd;stroke:none;stroke-width:0.34116784;stroke-linecap:butt;stroke-linejoin:miter;stroke-miterlimit:4;stroke-dasharray:none;stroke-dashoffset:0;stroke-opacity:1"
     d="m 34.213901,23.927956 -6.09e-4,0.328071 -21.286584,-0.0338 6.09e-4,-0.328072 z"
     id="rect1441-3-6"
     inkscape:connector-curvature="0" />
  <path
     style="opacity:1;vector-effect:none;fill:#bdbdbd;fill-opacity:1;fill-rule:evenodd;stroke:none;stroke-width:0.3411679;stroke-linecap:butt;stroke-linejoin:miter;stroke-miterlimit:4;stroke-dasharray:none;stroke-dashoffset:0;stroke-opacity:1"
     d="m 34.213901,28.27045 -6.02e-4,0.328071 -21.286591,-0.0338 6.09e-4,-0.328072 z"
     id="rect1441-6-2"
     inkscape:connector-curvature="0" />
  <path
     style="opacity:1;vector-effect:none;fill:#bdbdbd;fill-opacity:1;fill-rule:evenodd;stroke:none;stroke-width:0.3411679;stroke-linecap:butt;stroke-linejoin:miter;stroke-miterlimit:4;stroke-dasharray:none;stroke-dashoffset:0;stroke-opacity:1"
     d="m 34.213901,32.251002 -6.09e-4,0.32807 -21.286584,-0.0338 6.02e-4,-0.328072 z"
     id="rect1441-7-9"
     inkscape:connector-curvature="0" />
  <path
     style="opacity:1;vector-effect:none;fill:#fafafa;fill-opacity:1;fill-rule:evenodd;stroke-width:1.37084496;stroke-linecap:butt;stroke-linejoin:miter;stroke-miterlimit:4;stroke-dasharray:none;stroke-dashoffset:0;stroke-opacity:1"
     d="m 16.675493,15.571186 h 0.367005 v 20.988417 h -0.367005 z"
     id="rect1441"
     inkscape:connector-curvature="0" />
  <path
     style="opacity:1;vector-effect:none;fill:#fafafa;fill-opacity:1;fill-rule:evenodd;stroke-width:1.37084496;stroke-linecap:butt;stroke-linejoin:miter;stroke-miterlimit:4;stroke-dasharray:none;stroke-dashoffset:0;stroke-opacity:1"
     d="m 20.982633,15.571186 h 0.367013 v 20.988417 h -0.367013 z"
     id="rect1441-3"
     inkscape:connector-curvature="0" />
  <path
     style="opacity:1;vector-effect:none;fill:#fafafa;fill-opacity:1;fill-rule:evenodd;stroke-width:1.37084496;stroke-linecap:butt;stroke-linejoin:miter;stroke-miterlimit:4;stroke-dasharray:none;stroke-dashoffset:0;stroke-opacity:1"
     d="m 25.483729,15.571186 h 0.367006 v 20.988417 h -0.367006 z"
     id="rect1441-6"
     inkscape:connector-curvature="0" />
  <path
     style="opacity:1;vector-effect:none;fill:#fafafa;fill-opacity:1;fill-rule:evenodd;stroke-width:1.37084496;stroke-linecap:butt;stroke-linejoin:miter;stroke-miterlimit:4;stroke-dasharray:none;stroke-dashoffset:0;stroke-opacity:1"
     d="m 29.887844,15.571186 h 0.367014 v 20.988417 h -0.367014 z"
     id="rect1441-7"
     inkscape:connector-curvature="0" />
  <rect
     style="opacity:1;vector-effect:none;fill:#424242;fill-opacity:1;fill-rule:evenodd;stroke-width:1.39430022;stroke-linecap:butt;stroke-linejoin:miter;stroke-miterlimit:4;stroke-dasharray:none;stroke-dashoffset:0;stroke-opacity:1"
     id="rect1520"
     width="22.021235"
     height="2.1712155"
     x="12.559643"
     y="13.399971" />
  <circle
     style="opacity:1;vector-effect:none;fill:#000000;fill-opacity:0.19215687;fill-rule:evenodd;stroke-width:1.91295707;stroke-linecap:butt;stroke-linejoin:miter;stroke-miterlimit:4;stroke-dasharray:none;stroke-dashoffset:0;stroke-opacity:1"
     id="path1523-3"
     cx="17.799999"
     cy="27.299999"
     r="1.5" />
  <circle
     style="opacity:1;vector-effect:none;fill:#d84315;fill-opacity:1;fill-rule:evenodd;stroke-width:1.91295707;stroke-linecap:butt;stroke-linejoin:miter;stroke-miterlimit:4;stroke-dasharray:none;stroke-dashoffset:0;stroke-opacity:1"
     id="path1523"
     cx="16.799999"
     cy="26.299999"
     r="1.5" />
  <circle
     style="opacity:1;vector-effect:none;fill:#000000;fill-opacity:0.19215687;fill-rule:evenodd;stroke-width:1.91295707;stroke-linecap:butt;stroke-linejoin:miter;stroke-miterlimit:4;stroke-dasharray:none;stroke-dashoffset:0;stroke-opacity:1"
     id="path1523-3-5"
     cx="22.299999"
     cy="27.299999"
     r="1.5" />
  <circle
     style="opacity:1;vector-effect:none;fill:#d84315;fill-opacity:1;fill-rule:evenodd;stroke-width:1.91295707;stroke-linecap:butt;stroke-linejoin:miter;stroke-miterlimit:4;stroke-dasharray:none;stroke-dashoffset:0;stroke-opacity:1"
     id="path1523-9"
     cx="21.200001"
     cy="26.299999"
     r="1.5" />
  <circle
     style="opacity:1;vector-effect:none;fill:#000000;fill-opacity:0.19215687;fill-rule:evenodd;stroke-width:1.91295707;stroke-linecap:butt;stroke-linejoin:miter;stroke-miterlimit:4;stroke-dasharray:none;stroke-dashoffset:0;stroke-opacity:1"
     id="path1523-3-6"
     cx="26.6"
     cy="23"
     r="1.5" />
  <circle
     style="opacity:1;vector-effect:none;fill:#d84315;fill-opacity:1;fill-rule:evenodd;stroke-width:1.91295707;stroke-linecap:butt;stroke-linejoin:miter;stroke-miterlimit:4;stroke-dasharray:none;stroke-dashoffset:0;stroke-opacity:1"
     id="path1523-1"
     cx="25.6"
     cy="22"
     r="1.5" />
  <circle
     style="opacity:1;vector-effect:none;fill:#000000;fill-opacity:0.19215687;fill-rule:evenodd;stroke-width:1.91295707;stroke-linecap:butt;stroke-linejoin:miter;stroke-miterlimit:4;stroke-dasharray:none;stroke-dashoffset:0;stroke-opacity:1"
     id="path1523-3-2"
     cx="31"
     cy="18.5"
     r="1.5" />
  <circle
     style="opacity:1;vector-effect:none;fill:#d84315;fill-opacity:1;fill-rule:evenodd;stroke-width:1.91295707;stroke-linecap:butt;stroke-linejoin:miter;stroke-miterlimit:4;stroke-dasharray:none;stroke-dashoffset:0;stroke-opacity:1"
     id="path1523-96"
     cx="30"
     cy="17.5"
     r="1.5" />
  <text
     xml:space="preserve"
     style="font-style:normal;font-variant:normal;font-weight:bold;font-stretch:normal;font-size:5.33333349px;line-height:1.25;font-family:'DejaVu Sans';-inkscape-font-specification:'DejaVu Sans Bold';font-variant-ligatures:normal;font-variant-caps:normal;font-variant-numeric:normal;font-feature-settings:normal;text-align:start;letter-spacing:-1.25px;word-spacing:0px;writing-mode:lr-tb;text-anchor:start;fill:#000000;fill-opacity:1;stroke:none"
     x="-13"
     y="22"
     id="text1554"><tspan
       sodipodi:role="line"
       id="tspan1552"
       x="-13"
       y="26.71875" /></text>
  <text
     xml:space="preserve"
     style="font-style:normal;font-variant:normal;font-weight:bold;font-stretch:normal;font-size:5.33333349px;line-height:1.25;font-family:'DejaVu Sans';-inkscape-font-specification:'DejaVu Sans Bold';font-variant-ligatures:normal;font-variant-caps:normal;font-variant-numeric:normal;font-feature-settings:normal;text-align:start;letter-spacing:-1.25px;word-spacing:0px;writing-mode:lr-tb;text-anchor:start;fill:#000000;fill-opacity:1;stroke:none"
     x="-64"
     y="36"
     id="text1558"><tspan
       sodipodi:role="line"
       id="tspan1556"
       x="-64"
       y="36">--</tspan></text>
  <path
     style="opacity:1;vector-effect:none;fill:#000000;fill-opacity:0.19215687;fill-rule:evenodd;stroke-width:0.52786922;stroke-linecap:butt;stroke-linejoin:miter;stroke-miterlimit:4;stroke-dasharray:none;stroke-dashoffset:0;stroke-opacity:1"
     d="M 32.097561,9.878049 33.170732,10.95122 32,12.121951 32.780488,12.902439 33.95122,11.731707 35.219512,13 36,12.219512 34.731707,10.951219 35.902439,9.780488 35.121951,9 33.95122,10.170732 32.878049,9.097561 Z"
     id="rect1038-1-2-7"
     inkscape:connector-curvature="0" />
  <path
     style="opacity:1;vector-effect:none;fill:#d84315;fill-opacity:1;fill-rule:evenodd;stroke-width:0.52786922;stroke-linecap:butt;stroke-linejoin:miter;stroke-miterlimit:4;stroke-dasharray:none;stroke-dashoffset:0;stroke-opacity:1"
     d="m 31.147549,8.878049 1.073171,1.073171 -1.170732,1.170731 0.780488,0.780488 1.170732,-1.170732 L 34.2695,12 35.049988,11.219512 33.781695,9.951219 34.952427,8.780488 34.171939,8 33.001208,9.170732 31.928037,8.097561 Z"
     id="rect1038"
     inkscape:connector-curvature="0" />
  <path
     style="opacity:1;vector-effect:none;fill:#000000;fill-opacity:0.19215687;fill-rule:evenodd;stroke-width:0.52786922;stroke-linecap:butt;stroke-linejoin:miter;stroke-miterlimit:4;stroke-dasharray:none;stroke-dashoffset:0;stroke-opacity:1"
     d="M 13.097561,9.878049 14.170732,10.95122 13,12.121951 13.780488,12.902439 14.95122,11.731707 16.219512,13 17,12.219512 15.731707,10.951219 16.902439,9.780488 16.121951,9 14.95122,10.170732 13.878049,9.097561 Z"
     id="rect1038-1-2"
     inkscape:connector-curvature="0" />
  <path
     style="opacity:1;vector-effect:none;fill:#d84315;fill-opacity:1;fill-rule:evenodd;stroke-width:0.52786922;stroke-linecap:butt;stroke-linejoin:miter;stroke-miterlimit:4;stroke-dasharray:none;stroke-dashoffset:0;stroke-opacity:1"
     d="M 12.097561,8.878049 13.170732,9.95122 12,11.121951 12.780488,11.902439 13.95122,10.731707 15.219512,12 16,11.219512 14.731707,9.951219 15.902439,8.780488 15.121951,8 13.95122,9.170732 12.878049,8.097561 Z"
     id="rect1038-1"
     inkscape:connector-curvature="0" />
</svg>
