<?xml version="1.0" encoding="UTF-8" standalone="no"?>
<svg
   xmlns:dc="http://purl.org/dc/elements/1.1/"
   xmlns:cc="http://creativecommons.org/ns#"
   xmlns:rdf="http://www.w3.org/1999/02/22-rdf-syntax-ns#"
   xmlns:svg="http://www.w3.org/2000/svg"
   xmlns="http://www.w3.org/2000/svg"
   xmlns:sodipodi="http://sodipodi.sourceforge.net/DTD/sodipodi-0.dtd"
   xmlns:inkscape="http://www.inkscape.org/namespaces/inkscape"
   viewBox="0 0 48 48"
   id="svg2"
   version="1.1"
   inkscape:version="0.91 r13725"
   width="100%"
   height="100%"
   sodipodi:docname="eu_siacs_conversations.svg">
  <metadata
     id="metadata71">
    <rdf:RDF>
      <cc:Work
         rdf:about="">
        <dc:format>image/svg+xml</dc:format>
        <dc:type
           rdf:resource="http://purl.org/dc/dcmitype/StillImage" />
        <dc:title />
      </cc:Work>
    </rdf:RDF>
  </metadata>
  <sodipodi:namedview
     pagecolor="#ffffff"
     bordercolor="#666666"
     borderopacity="1"
     objecttolerance="10"
     gridtolerance="10"
     guidetolerance="10"
     inkscape:pageopacity="0"
     inkscape:pageshadow="2"
     inkscape:window-width="1920"
     inkscape:window-height="1009"
     id="namedview69"
     showgrid="false"
     inkscape:zoom="13.906433"
     inkscape:cx="41.181851"
     inkscape:cy="25.300883"
     inkscape:window-x="0"
     inkscape:window-y="34"
     inkscape:window-maximized="1"
     inkscape:current-layer="svg2" />
  <defs
     id="defs4">
    <linearGradient
       id="linearGradient3764"
       y1="47"
       x2="0"
       y2="1"
       gradientUnits="userSpaceOnUse">
      <stop
         stop-color="#e5e5e5"
         stop-opacity="1"
         id="stop7"
         style="stop-color:#009600;stop-opacity:1" />
      <stop
         offset="1"
         stop-color="#efefef"
         stop-opacity="1"
         id="stop9"
         style="stop-color:#00aa0f;stop-opacity:0.94117647" />
    </linearGradient>
    <clipPath
       id="clipPath-468622755">
      <g
         transform="translate(0,-1004.3622)"
         id="g12">
        <path
           d="m -24 13 c 0 1.105 -0.672 2 -1.5 2 -0.828 0 -1.5 -0.895 -1.5 -2 0 -1.105 0.672 -2 1.5 -2 0.828 0 1.5 0.895 1.5 2 z"
           transform="matrix(15.333333,0,0,11.5,414.99999,878.8622)"
           fill="#1890d0"
           id="path14" />
      </g>
    </clipPath>
    <clipPath
       id="clipPath-476930736">
      <g
         transform="translate(0,-1004.3622)"
         id="g17">
        <path
           d="m -24 13 c 0 1.105 -0.672 2 -1.5 2 -0.828 0 -1.5 -0.895 -1.5 -2 0 -1.105 0.672 -2 1.5 -2 0.828 0 1.5 0.895 1.5 2 z"
           transform="matrix(15.333333,0,0,11.5,414.99999,878.8622)"
           fill="#1890d0"
           id="path19" />
      </g>
    </clipPath>
  </defs>
  <g
     id="g21">
    <path
       d="m 36.31 5 c 5.859 4.062 9.688 10.831 9.688 18.5 c 0 12.426 -10.07 22.5 -22.5 22.5 c -7.669 0 -14.438 -3.828 -18.5 -9.688 c 1.037 1.822 2.306 3.499 3.781 4.969 c 4.085 3.712 9.514 5.969 15.469 5.969 c 12.703 0 23 -10.298 23 -23 c 0 -5.954 -2.256 -11.384 -5.969 -15.469 c -1.469 -1.475 -3.147 -2.744 -4.969 -3.781 z m 4.969 3.781 c 3.854 4.113 6.219 9.637 6.219 15.719 c 0 12.703 -10.297 23 -23 23 c -6.081 0 -11.606 -2.364 -15.719 -6.219 c 4.16 4.144 9.883 6.719 16.219 6.719 c 12.703 0 23 -10.298 23 -23 c 0 -6.335 -2.575 -12.06 -6.719 -16.219 z"
       opacity="0.05"
       id="path23" />
    <path
       d="m 41.28 8.781 c 3.712 4.085 5.969 9.514 5.969 15.469 c 0 12.703 -10.297 23 -23 23 c -5.954 0 -11.384 -2.256 -15.469 -5.969 c 4.113 3.854 9.637 6.219 15.719 6.219 c 12.703 0 23 -10.298 23 -23 c 0 -6.081 -2.364 -11.606 -6.219 -15.719 z"
       opacity="0.1"
       id="path25" />
    <path
       d="m 31.25 2.375 c 8.615 3.154 14.75 11.417 14.75 21.13 c 0 12.426 -10.07 22.5 -22.5 22.5 c -9.708 0 -17.971 -6.135 -21.12 -14.75 a 23 23 0 0 0 44.875 -7 a 23 23 0 0 0 -16 -21.875 z"
       opacity="0.2"
       id="path27" />
  </g>
  <g
     id="g29">
    <path
       d="m 24 1 c 12.703 0 23 10.297 23 23 c 0 12.703 -10.297 23 -23 23 -12.703 0 -23 -10.297 -23 -23 0 -12.703 10.297 -23 23 -23 z"
       fill="url(#linearGradient3764)"
       fill-opacity="1"
       id="path31" />
    <g
       id="g4177"
       style="fill:#000000;fill-opacity:0.11764706"
       transform="translate(1.0000001,1.00025)">
      <circle
         style="opacity:1;fill:#000000;fill-opacity:0.11764706;stroke:none;stroke-width:2.79999995;stroke-linecap:butt;stroke-linejoin:round;stroke-miterlimit:4;stroke-dasharray:none;stroke-dashoffset:0;stroke-opacity:1"
         id="circle4179"
         cx="24"
         cy="24"
         r="2.34375" />
      <circle
         r="2.34375"
         cy="24"
         cx="13.69975"
         id="circle4181"
         style="opacity:1;fill:#000000;fill-opacity:0.11764706;stroke:none;stroke-width:2.79999995;stroke-linecap:butt;stroke-linejoin:round;stroke-miterlimit:4;stroke-dasharray:none;stroke-dashoffset:0;stroke-opacity:1" />
      <circle
         r="2.34375"
         cy="24"
         cx="34.299751"
         id="circle4183"
         style="opacity:1;fill:#000000;fill-opacity:0.11764706;stroke:none;stroke-width:2.79999995;stroke-linecap:butt;stroke-linejoin:round;stroke-miterlimit:4;stroke-dasharray:none;stroke-dashoffset:0;stroke-opacity:1" />
    </g>
    <g
       id="g4172">
      <circle
         r="2.34375"
         cy="24"
         cx="24"
         id="path4166"
         style="opacity:1;fill:#f9f9f9;fill-opacity:1;stroke:none;stroke-width:2.79999995;stroke-linecap:butt;stroke-linejoin:round;stroke-miterlimit:4;stroke-dasharray:none;stroke-dashoffset:0;stroke-opacity:1" />
      <circle
         style="opacity:1;fill:#f9f9f9;fill-opacity:1;stroke:none;stroke-width:2.79999995;stroke-linecap:butt;stroke-linejoin:round;stroke-miterlimit:4;stroke-dasharray:none;stroke-dashoffset:0;stroke-opacity:1"
         id="circle4168"
         cx="13.69975"
         cy="24"
         r="2.34375" />
      <circle
         style="opacity:1;fill:#f9f9f9;fill-opacity:1;stroke:none;stroke-width:2.79999995;stroke-linecap:butt;stroke-linejoin:round;stroke-miterlimit:4;stroke-dasharray:none;stroke-dashoffset:0;stroke-opacity:1"
         id="circle4170"
         cx="34.299751"
         cy="24"
         r="2.34375" />
    </g>
  </g>
  <g
     id="g4156"
     style="stroke:#80d080;stroke-opacity:1">
    <path
       d="m 34.800001,5.2938514 a 21.6,21.6 0 0 1 7.107211,6.6275826"
       sodipodi:open="true"
       sodipodi:end="5.6897734"
       sodipodi:start="5.2359878"
       sodipodi:ry="21.6"
       sodipodi:rx="21.6"
       sodipodi:cy="24"
       sodipodi:cx="24"
       sodipodi:type="arc"
       id="path4157"
       style="opacity:1;fill:none;fill-opacity:1;stroke:#80d080;stroke-width:2.79999995;stroke-linecap:butt;stroke-linejoin:round;stroke-miterlimit:4;stroke-dasharray:none;stroke-dashoffset:0;stroke-opacity:1" />
    <path
       style="opacity:1;fill:none;fill-opacity:1;stroke:#80d080;stroke-width:2.8;stroke-linecap:butt;stroke-linejoin:round;stroke-miterlimit:4;stroke-dasharray:none;stroke-dashoffset:0;stroke-opacity:1"
       id="path4159"
       sodipodi:type="arc"
       sodipodi:cx="24"
       sodipodi:cy="24"
       sodipodi:rx="21.6"
       sodipodi:ry="21.6"
       sodipodi:start="6.1261057"
       sodipodi:end="0.29670597"
       sodipodi:open="true"
       d="m 45.334069,20.621016 a 21.6,21.6 0 0 1 -0.677886,9.694213" />
    <path
       d="m 40.051928,38.453221 a 21.6,21.6 0 0 1 -7.960426,5.573951"
       sodipodi:open="true"
       sodipodi:end="1.1868239"
       sodipodi:start="0.73303829"
       sodipodi:ry="21.6"
       sodipodi:rx="21.6"
       sodipodi:cy="24"
       sodipodi:cx="24"
       sodipodi:type="arc"
       id="path4161"
       style="opacity:1;fill:none;fill-opacity:1;stroke:#80d080;stroke-width:2.79999995;stroke-linecap:butt;stroke-linejoin:round;stroke-miterlimit:4;stroke-dasharray:none;stroke-dashoffset:0;stroke-opacity:1" />
    <path
       style="opacity:1;fill:none;fill-opacity:1;stroke:#80d080;stroke-width:2.79999995;stroke-linecap:butt;stroke-linejoin:round;stroke-miterlimit:4;stroke-dasharray:none;stroke-dashoffset:0;stroke-opacity:1"
       id="path4163"
       sodipodi:type="arc"
       sodipodi:cx="24"
       sodipodi:cy="24"
       sodipodi:rx="21.6"
       sodipodi:ry="21.6"
       sodipodi:start="1.6231562"
       sodipodi:end="2.0769418"
       sodipodi:open="true"
       d="M 22.869543,45.570398 A 21.6,21.6 0 0 1 13.528112,42.891786" />
    <path
       d="M 6.5252329,36.696162 A 21.6,21.6 0 0 1 2.7281523,27.750801"
       sodipodi:open="true"
       sodipodi:end="2.9670597"
       sodipodi:start="2.5132741"
       sodipodi:ry="21.6"
       sodipodi:rx="21.6"
       sodipodi:cy="24"
       sodipodi:cx="24"
       sodipodi:type="arc"
       id="path4165"
       style="opacity:1;fill:none;fill-opacity:1;stroke:#80d080;stroke-width:2.79999995;stroke-linecap:butt;stroke-linejoin:round;stroke-miterlimit:4;stroke-dasharray:none;stroke-dashoffset:0;stroke-opacity:1" />
    <path
       style="opacity:1;fill:none;fill-opacity:1;stroke:#80d080;stroke-width:2.79999995;stroke-linecap:butt;stroke-linejoin:round;stroke-miterlimit:4;stroke-dasharray:none;stroke-dashoffset:0;stroke-opacity:1"
       id="path4167"
       sodipodi:type="arc"
       sodipodi:cx="24"
       sodipodi:cy="24"
       sodipodi:rx="21.6"
       sodipodi:ry="21.6"
       sodipodi:start="3.403392"
       sodipodi:end="3.8571776"
       sodipodi:open="true"
       d="M 3.1360016,18.409509 A 21.6,21.6 0 0 1 7.6982721,9.8291255" />
    <path
       d="M 15.214489,4.2674174 A 21.6,21.6 0 0 1 24.75383,2.4131578"
       sodipodi:open="true"
       sodipodi:end="4.7472956"
       sodipodi:start="4.29351"
       sodipodi:ry="21.6"
       sodipodi:rx="21.6"
       sodipodi:cy="24"
       sodipodi:cx="24"
       sodipodi:type="arc"
       id="path4169"
       style="opacity:1;fill:none;fill-opacity:1;stroke:#80d080;stroke-width:2.79999995;stroke-linecap:butt;stroke-linejoin:round;stroke-miterlimit:4;stroke-dasharray:none;stroke-dashoffset:0;stroke-opacity:1" />
  </g>
  <g
     id="g65">
    <path
       d="m 40.03 7.531 c 3.712 4.084 5.969 9.514 5.969 15.469 0 12.703 -10.297 23 -23 23 c -5.954 0 -11.384 -2.256 -15.469 -5.969 4.178 4.291 10.01 6.969 16.469 6.969 c 12.703 0 23 -10.298 23 -23 0 -6.462 -2.677 -12.291 -6.969 -16.469 z"
       opacity="0.1"
       id="path67" />
  </g>
</svg>
