<?xml version="1.0" encoding="UTF-8" standalone="no"?>
<svg
   viewBox="0 0 48 48"
   version="1.1"
   id="svg1704"
   sodipodi:docname="me_austinhuang_instagrabber.svg"
   inkscape:version="1.1 (ce6663b3b7, 2021-05-25)"
   xmlns:inkscape="http://www.inkscape.org/namespaces/inkscape"
   xmlns:sodipodi="http://sodipodi.sourceforge.net/DTD/sodipodi-0.dtd"
   xmlns="http://www.w3.org/2000/svg"
   xmlns:svg="http://www.w3.org/2000/svg"
   xmlns:rdf="http://www.w3.org/1999/02/22-rdf-syntax-ns#"
   xmlns:cc="http://creativecommons.org/ns#"
   xmlns:dc="http://purl.org/dc/elements/1.1/">
  <metadata
     id="metadata1708">
    <rdf:RDF>
      <cc:Work
         rdf:about="">
        <dc:format>image/svg+xml</dc:format>
        <dc:type
           rdf:resource="http://purl.org/dc/dcmitype/StillImage" />
      </cc:Work>
    </rdf:RDF>
  </metadata>
  <sodipodi:namedview
     pagecolor="#ffffff"
     bordercolor="#666666"
     borderopacity="1"
     objecttolerance="10"
     gridtolerance="10"
     guidetolerance="10"
     inkscape:pageopacity="0"
     inkscape:pageshadow="2"
     inkscape:window-width="1528"
     inkscape:window-height="836"
     id="namedview1706"
     showgrid="false"
     inkscape:zoom="9.4331054"
     inkscape:cx="21.46695"
     inkscape:cy="24.435219"
     inkscape:window-x="0"
     inkscape:window-y="0"
     inkscape:window-maximized="1"
     inkscape:current-layer="svg1704"
     inkscape:pagecheckerboard="1" />
  <defs
     id="defs1618">
    <linearGradient
       id="linearGradient3764"
       y1="47"
       x2="0"
       y2="1"
       gradientUnits="userSpaceOnUse">
      <stop
         stop-color="#785048"
         stop-opacity="1"
         id="stop1603" />
      <stop
         offset="1"
         stop-color="#845950"
         stop-opacity="1"
         id="stop1605" />
    </linearGradient>
    <clipPath
       id="clipPath-868138898">
      <g
         transform="translate(0,-1004.3622)"
         id="g1610">
        <path
           d="m -24 13 c 0 1.105 -0.672 2 -1.5 2 -0.828 0 -1.5 -0.895 -1.5 -2 0 -1.105 0.672 -2 1.5 -2 0.828 0 1.5 0.895 1.5 2 z"
           transform="matrix(15.333333,0,0,11.5,414.99999,878.8622)"
           fill="#1890d0"
           id="path1608" />
      </g>
    </clipPath>
    <clipPath
       id="clipPath-876701146">
      <g
         transform="translate(0,-1004.3622)"
         id="g1615">
        <path
           d="m -24 13 c 0 1.105 -0.672 2 -1.5 2 -0.828 0 -1.5 -0.895 -1.5 -2 0 -1.105 0.672 -2 1.5 -2 0.828 0 1.5 0.895 1.5 2 z"
           transform="matrix(15.333333,0,0,11.5,414.99999,878.8622)"
           fill="#1890d0"
           id="path1613" />
      </g>
    </clipPath>
  </defs>
  <g
     id="g1626">
    <path
       d="m 36.31 5 c 5.859 4.062 9.688 10.831 9.688 18.5 c 0 12.426 -10.07 22.5 -22.5 22.5 c -7.669 0 -14.438 -3.828 -18.5 -9.688 c 1.037 1.822 2.306 3.499 3.781 4.969 c 4.085 3.712 9.514 5.969 15.469 5.969 c 12.703 0 23 -10.298 23 -23 c 0 -5.954 -2.256 -11.384 -5.969 -15.469 c -1.469 -1.475 -3.147 -2.744 -4.969 -3.781 z m 4.969 3.781 c 3.854 4.113 6.219 9.637 6.219 15.719 c 0 12.703 -10.297 23 -23 23 c -6.081 0 -11.606 -2.364 -15.719 -6.219 c 4.16 4.144 9.883 6.719 16.219 6.719 c 12.703 0 23 -10.298 23 -23 c 0 -6.335 -2.575 -12.06 -6.719 -16.219 z"
       opacity="0.05"
       id="path1620" />
    <path
       d="m 41.28 8.781 c 3.712 4.085 5.969 9.514 5.969 15.469 c 0 12.703 -10.297 23 -23 23 c -5.954 0 -11.384 -2.256 -15.469 -5.969 c 4.113 3.854 9.637 6.219 15.719 6.219 c 12.703 0 23 -10.298 23 -23 c 0 -6.081 -2.364 -11.606 -6.219 -15.719 z"
       opacity="0.1"
       id="path1622" />
    <path
       d="m 31.25 2.375 c 8.615 3.154 14.75 11.417 14.75 21.13 c 0 12.426 -10.07 22.5 -22.5 22.5 c -9.708 0 -17.971 -6.135 -21.12 -14.75 a 23 23 0 0 0 44.875 -7 a 23 23 0 0 0 -16 -21.875 z"
       opacity="0.2"
       id="path1624" />
  </g>
  <g
     id="g1630">
    <path
       d="m 24 1 c 12.703 0 23 10.297 23 23 c 0 12.703 -10.297 23 -23 23 -12.703 0 -23 -10.297 -23 -23 0 -12.703 10.297 -23 23 -23 z"
       fill="url(#linearGradient3764)"
       fill-opacity="1"
       id="path1628" />
  </g>
  <g
     id="g1666">
    <g
       clip-path="url(#clipPath-868138898)"
       id="g1664">
      <g
         transform="translate(1,1)"
         id="g1662">
        <g
           id="g1660"
           opacity="0.1">
          <!-- color: #845950 -->
          <path
             d="m 0 24 l 0 24 l 48 0 l 0 -24 l -48 0 z"
             id="path1632"
             fill="#000" />
        </g>
      </g>
    </g>
  </g>
  <g
     id="g1698">
    <g
       clip-path="url(#clipPath-876701146)"
       id="g1696">
      <!-- color: #845950 -->
      <path
         d="m 0 24 l 0 24 l 48 0 l 0 -24 l -48 0 z"
         fill="#dbc3ae"
         id="path1668" />
      <g
         id="g1694">
        <path
           d="m 34 24 c 0 5.523 -4.477 10 -10 10 c -5.523 0 -10 -4.477 -10 -10 c 0 -5.523 4.477 -10 10 -10 c 5.523 0 10 4.477 10 10 m 0 0"
           fill="#e5d6c8"
           id="path1678" />
        <path
           d="m 32 24 c 0 4.418 -3.582 8 -8 8 c -4.418 0 -8 -3.582 -8 -8 c 0 -4.418 3.582 -8 8 -8 c 4.418 0 8 3.582 8 8 m 0 0"
           fill="#5b5b5b"
           id="path1680" />
        <path
           d="m 30 24 c 0 3.313 -2.688 6 -6 6 c -3.313 0 -6 -2.688 -6 -6 c 0 -3.313 2.688 -6 6 -6 c 3.313 0 6 2.688 6 6 m 0 0"
           fill="#84b296"
           id="path1682" />
        <path
           d="m 27 24 c 0 1.656 -1.344 3 -3 3 c -1.656 0 -3 -1.344 -3 -3 c 0 -1.656 1.344 -3 3 -3 c 1.656 0 3 1.344 3 3 m 0 0"
           fill="#3c3c3c"
           id="path1684" />
        <path
           d="m 28 21 c 0 0.551 -0.449 1 -1 1 c -0.551 0 -1 -0.449 -1 -1 c 0 -0.551 0.449 -1 1 -1 c 0.551 0 1 0.449 1 1 m 0 0"
           fill="#fff"
           fill-opacity="0.302"
           id="path1686" />
        <path
           d="m 22 25 c 0 0.551 -0.445 1 -1 1 c -0.551 0 -1 -0.449 -1 -1 c 0 -0.551 0.449 -1 1 -1 c 0.555 0 1 0.449 1 1 m 0 0"
           fill="#fff"
           fill-opacity="0.302"
           id="path1688" />
        <rect
           style="fill:#008080;fill-opacity:0.192157"
           id="rect38442"
           width="5.3341742"
           height="6.6134744"
           x="-17.324282"
           y="12.009433"
           rx="0.85039401" />
        <rect
           style="fill:#008080;fill-opacity:0.192157"
           id="rect38545"
           width="8.1738749"
           height="7.5525255"
           x="-22.960638"
           y="7.0067225"
           rx="0.85039401" />
      </g>
    </g>
  </g>
  <g
     id="g1702">
    <path
       d="m 40.03 7.531 c 3.712 4.084 5.969 9.514 5.969 15.469 0 12.703 -10.297 23 -23 23 c -5.954 0 -11.384 -2.256 -15.469 -5.969 4.178 4.291 10.01 6.969 16.469 6.969 c 12.703 0 23 -10.298 23 -23 0 -6.462 -2.677 -12.291 -6.969 -16.469 z"
       opacity="0.1"
       id="path1700" />
  </g>
</svg>
