<?xml version="1.0" encoding="UTF-8" standalone="no"?>
<svg
   viewBox="0 0 48 48"
   id="svg2"
   version="1.1"
   inkscape:version="1.2.1 (0b8a7e5fb6, 2022-09-14, custom)"
   width="100%"
   height="100%"
   sodipodi:docname="ru_dodopizza_app.svg"
   xmlns:inkscape="http://www.inkscape.org/namespaces/inkscape"
   xmlns:sodipodi="http://sodipodi.sourceforge.net/DTD/sodipodi-0.dtd"
   xmlns="http://www.w3.org/2000/svg"
   xmlns:svg="http://www.w3.org/2000/svg"
   xmlns:rdf="http://www.w3.org/1999/02/22-rdf-syntax-ns#"
   xmlns:cc="http://creativecommons.org/ns#"
   xmlns:dc="http://purl.org/dc/elements/1.1/">
  <metadata
     id="metadata71">
    <rdf:RDF>
      <cc:Work
         rdf:about="">
        <dc:format>image/svg+xml</dc:format>
        <dc:type
           rdf:resource="http://purl.org/dc/dcmitype/StillImage" />
      </cc:Work>
    </rdf:RDF>
  </metadata>
  <sodipodi:namedview
     pagecolor="#ffffff"
     bordercolor="#666666"
     borderopacity="1"
     objecttolerance="10"
     gridtolerance="10"
     guidetolerance="10"
     inkscape:pageopacity="0"
     inkscape:pageshadow="2"
     inkscape:window-width="1526"
     inkscape:window-height="836"
     id="namedview69"
     showgrid="true"
     inkscape:zoom="14.112"
     inkscape:cx="23.24263"
     inkscape:cy="27.88407"
     inkscape:window-x="0"
     inkscape:window-y="0"
     inkscape:window-maximized="1"
     inkscape:current-layer="svg2"
     inkscape:showpageshadow="0"
     inkscape:pagecheckerboard="1"
     inkscape:deskcolor="#d1d1d1">
    <inkscape:grid
       type="xygrid"
       id="grid2654" />
  </sodipodi:namedview>
  <defs
     id="defs4">
    <linearGradient
       id="linearGradient3764"
       y1="47"
       x2="0"
       y2="1"
       gradientUnits="userSpaceOnUse">
      <stop
         stop-color="#e5e5e5"
         stop-opacity="1"
         id="stop7" />
      <stop
         offset="1"
         stop-color="#efefef"
         stop-opacity="1"
         id="stop9" />
    </linearGradient>
    <clipPath
       id="clipPath-468622755">
      <g
         transform="translate(0,-1004.3622)"
         id="g12">
        <path
           d="m -24 13 c 0 1.105 -0.672 2 -1.5 2 -0.828 0 -1.5 -0.895 -1.5 -2 0 -1.105 0.672 -2 1.5 -2 0.828 0 1.5 0.895 1.5 2 z"
           transform="matrix(15.333333,0,0,11.5,414.99999,878.8622)"
           fill="#1890d0"
           id="path14" />
      </g>
    </clipPath>
    <clipPath
       id="clipPath-476930736">
      <g
         transform="translate(0,-1004.3622)"
         id="g17">
        <path
           d="m -24 13 c 0 1.105 -0.672 2 -1.5 2 -0.828 0 -1.5 -0.895 -1.5 -2 0 -1.105 0.672 -2 1.5 -2 0.828 0 1.5 0.895 1.5 2 z"
           transform="matrix(15.333333,0,0,11.5,414.99999,878.8622)"
           fill="#1890d0"
           id="path19" />
      </g>
    </clipPath>
  </defs>
  <g
     id="g21">
    <path
       d="m 36.31 5 c 5.859 4.062 9.688 10.831 9.688 18.5 c 0 12.426 -10.07 22.5 -22.5 22.5 c -7.669 0 -14.438 -3.828 -18.5 -9.688 c 1.037 1.822 2.306 3.499 3.781 4.969 c 4.085 3.712 9.514 5.969 15.469 5.969 c 12.703 0 23 -10.298 23 -23 c 0 -5.954 -2.256 -11.384 -5.969 -15.469 c -1.469 -1.475 -3.147 -2.744 -4.969 -3.781 z m 4.969 3.781 c 3.854 4.113 6.219 9.637 6.219 15.719 c 0 12.703 -10.297 23 -23 23 c -6.081 0 -11.606 -2.364 -15.719 -6.219 c 4.16 4.144 9.883 6.719 16.219 6.719 c 12.703 0 23 -10.298 23 -23 c 0 -6.335 -2.575 -12.06 -6.719 -16.219 z"
       id="path23"
       opacity="0.05" />
    <path
       d="m 41.28 8.781 c 3.712 4.085 5.969 9.514 5.969 15.469 c 0 12.703 -10.297 23 -23 23 c -5.954 0 -11.384 -2.256 -15.469 -5.969 c 4.113 3.854 9.637 6.219 15.719 6.219 c 12.703 0 23 -10.298 23 -23 c 0 -6.081 -2.364 -11.606 -6.219 -15.719 z"
       id="path25"
       opacity="0.1" />
    <path
       d="m 31.25 2.375 c 8.615 3.154 14.75 11.417 14.75 21.13 c 0 12.426 -10.07 22.5 -22.5 22.5 c -9.708 0 -17.971 -6.135 -21.12 -14.75 a 23 23 0 0 0 44.875 -7 a 23 23 0 0 0 -16 -21.875 z"
       id="path27"
       opacity="0.2" />
  </g>
  <g
     id="g29"
     style="fill:#ef5b0c;fill-opacity:1"
     transform="translate(0.29674863,0.2686828)">
    <path
       d="M 24,1 C 36.703,1 47,11.297 47,24 47,36.703 36.703,47 24,47 11.297,47 1,36.703 1,24 1,11.297 11.297,1 24,1 Z"
       id="path31"
       style="fill:#ef5b0c;fill-opacity:1"
       inkscape:connector-curvature="0" />
  </g>
  <g
     id="g65"
     transform="translate(0.18018681,0.28547933)">
    <path
       d="m 40.03,7.531 c 3.712,4.084 5.969,9.514 5.969,15.469 0,12.703 -10.297,23 -23,23 C 17.045,46 11.615,43.744 7.53,40.031 11.708,44.322 17.54,47 23.999,47 c 12.703,0 23,-10.298 23,-23 0,-6.462 -2.677,-12.291 -6.969,-16.469 z"
       id="path67"
       opacity="0.1" />
  </g>
  <g
     id="g1783" />
  <path
     style="fill:#000000;fill-opacity:0.12941176;stroke-width:0.38629547"
     d="M 21.496434,8.6245682 C 20.725912,8.6477502 20.110741,9.201838 19.9437,9.927303 l -5.904297,26.988281 c -0.145359,0.693825 0.117299,1.345047 0.691406,1.746094 l 0.03125,0.02148 c 0.574106,0.401046 1.269641,0.418621 1.839844,0.06836 l 23.699219,-14.27734 c 0.655675,-0.33734 0.950441,-1.111909 0.753906,-1.857422 -0.581916,-1.903664 -2.344584,-5.662656 -7.882812,-9.625 C 27.633982,9.029413 23.476315,8.5572548 21.496434,8.6245682 Z M 19.853856,13.98199 c 0.0082,3.57e-4 0.02861,0.0035 0.03711,0.0039 -0.01333,0.0098 -0.03003,0.01516 -0.04297,0.02539 z"
     id="path915-7"
     inkscape:connector-curvature="0" />
  <g
     id="g2723"
     transform="translate(0,0.4484443)">
    <path
       sodipodi:nodetypes="cscccccccccccccc"
       d="M 40.054826,21.167109 C 39.47291,19.263445 37.709502,15.505141 32.171273,11.542796 26.63304,7.5804535 22.475482,7.1090426 20.495601,7.176356 19.725079,7.199538 19.110248,7.7525561 18.943207,8.4780208 l -5.90371,26.9888142 c -0.145359,0.693825 0.116227,1.344421 0.690334,1.745468 l 0.0319,0.02228 c 0.574106,0.401046 1.269365,0.418862 1.839568,0.0686 l 23.698505,-14.2774 c 0.655675,-0.33734 0.951557,-1.113161 0.755022,-1.858674 z M 15.178973,36.680664 c -0.397994,0.236628 -0.781993,0.108741 -1.005257,-0.04722 -0.255159,-0.178243 -0.455479,-0.505323 -0.376431,-0.964754 L 18.85305,12.532239 c 1.785991,0.07796 11.471207,0.948567 17.076474,11.694971 z"
       id="path915"
       inkscape:connector-curvature="0"
       style="fill:#ffb74d;fill-opacity:1;stroke-width:0.38629547" />
    <path
       style="fill:#ffe082;fill-opacity:1;stroke-width:0.31579447"
       inkscape:connector-curvature="0"
       id="path915-6"
       d="m 35.989391,23.191871 c -0.504305,-1.515719 -2.012957,-4.499707 -6.674775,-7.595307 -4.661821,-3.095598 -8.137094,-3.41597 -9.789222,-3.334974 -0.642998,0.02911 -1.15087,0.480164 -1.283253,1.063113 l -4.665686,21.68267 c -0.114591,0.557327 -0.224257,1.223088 0.258905,1.536222 l 0.175453,0.166004 c 0.483161,0.313133 1.249489,0.02066 1.72208,-0.267504 L 35.377196,24.689893 c 0.544067,-0.278987 0.783516,-0.904006 0.612195,-1.498022 z"
       sodipodi:nodetypes="cscccccccc" />
  </g>
  <g
     id="g3443-9"
     transform="matrix(0.13118408,0,0,0.1249808,20.221755,12.977474)"
     style="fill:#000000;fill-opacity:0.12941176">
    <path
       id="path3410-3"
       d="m 97.4,78.4 c -0.1,1.1 -11.9,3.8 -23.1,-0.8 -8.5,-3.4 -14.5,-11.7 -17,-16.3 0.1,-0.2 0.2,-0.4 0.2,-0.6 0.3,-1.4 -0.5,-2.6 -1.4,-3.7 -0.3,-0.4 -0.6,-0.7 -0.9,-0.9 0,0 0.1,0 0.2,-0.1 2.1,0.6 4.9,0.6 6.8,1.1 2.5,0.6 5,1.3 7.4,2.1 4.8,1.6 9.5,3.6 13.7,6.6 5.2,3.7 9.3,8.6 14.1,12.6 C 91.6,72.4 86.3,66 79,61.9 c -3.6,-2 -7.1,-3.5 -11.1,-4.6 -2.1,-0.5 -5.8,-1.4 -8.2,-1.4 -1.1,0 -2.1,-0.1 -3.1,-0.2 1.5,-0.6 3.2,-1.3 4.6,-1.9 0.7,-0.3 1.4,-0.6 2,-0.8 2.6,-1.2 3.9,-2.8 5.3,-5.2 3.4,-0.2 7.2,1 12.3,4 9.1,5.2 14.7,17.5 15.2,21 0.5,3.6 1.5,4.5 1.4,5.6 z"
       inkscape:connector-curvature="0"
       style="fill:#000000;fill-opacity:0.12941176" />
    <path
       id="path3412-6"
       d="M 49.5,50.2 C 49.2,50.1 48.8,50 48.3,50 h -0.1 c -2.8,0 -3.8,3.1 -4.3,5.9 C 37.4,55.6 23.1,48.7 16.2,44.9 8.2,40.4 4,43.7 6.8,40.6 9.6,37.5 24.9,29.2 38.2,33.3 48.6,36.5 49.8,45.9 49.8,50 48.9,48.4 47.6,47 46.2,45.7 40.9,41 33.8,38.4 26.7,37.9 19.9,37.4 12.2,38.6 6.1,41.7 15,38.7 24.6,37 33.7,40 c 2.8,0.9 5.5,2.2 8,3.7 3,1.7 5.9,3.7 7.8,6.5 z"
       inkscape:connector-curvature="0"
       style="fill:#000000;fill-opacity:0.12941176" />
    <path
       id="path3414-0"
       d="m 70.9,37.8 c -1.4,4.8 -3,12 -8.1,14.3 -2.2,1 -5.9,2.7 -8.5,3.4 -0.1,-0.1 -0.3,-0.2 -0.4,-0.3 -0.2,-0.1 -0.4,-0.3 -0.6,-0.4 2.1,-2.2 10.4,-7.9 13.3,-15.7 -3.3,5.6 -7.8,10.4 -13.2,14.1 -0.3,0.3 -0.7,0.4 -1,0.7 0,-0.1 -0.1,-0.1 -0.2,-0.2 -0.1,-0.2 -0.2,-0.3 -0.4,-0.7 -0.1,-0.4 -0.3,-0.9 -0.5,-1.3 -0.4,-2.9 -1.9,-6.8 0.8,-9.5 5.6,-5.6 16.6,-8 18.2,-9.3 0.4,-0.3 0.7,-0.4 0.9,-0.4 0.8,0 0.8,1.6 -0.3,5.3 z"
       inkscape:connector-curvature="0"
       style="fill:#000000;fill-opacity:0.12941176" />
    <path
       id="path3416-6"
       d="m 53.8,63 c -3.5,1.7 -7.2,2.4 -9.7,2.4 -2.1,0 -3.2,-0.5 -2.6,-1.4 0.7,-1.1 2.8,-3.5 3.1,-5.7 C 45,54.5 45.8,51 48.2,51 h 0.1 c 2.5,0 2.4,2.4 3.1,3.5 0.1,0.2 0.3,0.4 0.4,0.5 0,0.2 -0.1,0.4 -0.1,0.6 -0.7,2.9 -3.1,4.8 -5.3,6.6 1.4,-0.6 2.9,-1.8 4,-3 1,-1 1.8,-2.3 2.2,-3.6 0.8,0.6 1.7,0.8 2.8,2.2 1.6,2 2.1,3.5 -1.6,5.2 z"
       inkscape:connector-curvature="0"
       style="fill:#000000;fill-opacity:0.12941176" />
  </g>
  <g
     id="g3443"
     transform="matrix(0.13118408,0,0,0.1249808,19.221755,11.977474)"
     style="fill:#558b2f;fill-opacity:1">
    <path
       id="path3410"
       d="m 97.4,78.4 c -0.1,1.1 -11.9,3.8 -23.1,-0.8 -8.5,-3.4 -14.5,-11.7 -17,-16.3 0.1,-0.2 0.2,-0.4 0.2,-0.6 0.3,-1.4 -0.5,-2.6 -1.4,-3.7 -0.3,-0.4 -0.6,-0.7 -0.9,-0.9 0,0 0.1,0 0.2,-0.1 2.1,0.6 4.9,0.6 6.8,1.1 2.5,0.6 5,1.3 7.4,2.1 4.8,1.6 9.5,3.6 13.7,6.6 5.2,3.7 9.3,8.6 14.1,12.6 C 91.6,72.4 86.3,66 79,61.9 c -3.6,-2 -7.1,-3.5 -11.1,-4.6 -2.1,-0.5 -5.8,-1.4 -8.2,-1.4 -1.1,0 -2.1,-0.1 -3.1,-0.2 1.5,-0.6 3.2,-1.3 4.6,-1.9 0.7,-0.3 1.4,-0.6 2,-0.8 2.6,-1.2 3.9,-2.8 5.3,-5.2 3.4,-0.2 7.2,1 12.3,4 9.1,5.2 14.7,17.5 15.2,21 0.5,3.6 1.5,4.5 1.4,5.6 z"
       inkscape:connector-curvature="0"
       style="fill:#558b2f;fill-opacity:1" />
    <path
       id="path3412"
       d="M 49.5,50.2 C 49.2,50.1 48.8,50 48.3,50 h -0.1 c -2.8,0 -3.8,3.1 -4.3,5.9 C 37.4,55.6 23.1,48.7 16.2,44.9 8.2,40.4 4,43.7 6.8,40.6 9.6,37.5 24.9,29.2 38.2,33.3 48.6,36.5 49.8,45.9 49.8,50 48.9,48.4 47.6,47 46.2,45.7 40.9,41 33.8,38.4 26.7,37.9 19.9,37.4 12.2,38.6 6.1,41.7 15,38.7 24.6,37 33.7,40 c 2.8,0.9 5.5,2.2 8,3.7 3,1.7 5.9,3.7 7.8,6.5 z"
       inkscape:connector-curvature="0"
       style="fill:#558b2f;fill-opacity:1" />
    <path
       id="path3414"
       d="m 70.9,37.8 c -1.4,4.8 -3,12 -8.1,14.3 -2.2,1 -5.9,2.7 -8.5,3.4 -0.1,-0.1 -0.3,-0.2 -0.4,-0.3 -0.2,-0.1 -0.4,-0.3 -0.6,-0.4 2.1,-2.2 10.4,-7.9 13.3,-15.7 -3.3,5.6 -7.8,10.4 -13.2,14.1 -0.3,0.3 -0.7,0.4 -1,0.7 0,-0.1 -0.1,-0.1 -0.2,-0.2 -0.1,-0.2 -0.2,-0.3 -0.4,-0.7 -0.1,-0.4 -0.3,-0.9 -0.5,-1.3 -0.4,-2.9 -1.9,-6.8 0.8,-9.5 5.6,-5.6 16.6,-8 18.2,-9.3 0.4,-0.3 0.7,-0.4 0.9,-0.4 0.8,0 0.8,1.6 -0.3,5.3 z"
       inkscape:connector-curvature="0"
       style="fill:#558b2f;fill-opacity:1" />
    <path
       id="path3416"
       d="m 53.8,63 c -3.5,1.7 -7.2,2.4 -9.7,2.4 -2.1,0 -3.2,-0.5 -2.6,-1.4 0.7,-1.1 2.8,-3.5 3.1,-5.7 C 45,54.5 45.8,51 48.2,51 h 0.1 c 2.5,0 2.4,2.4 3.1,3.5 0.1,0.2 0.3,0.4 0.4,0.5 0,0.2 -0.1,0.4 -0.1,0.6 -0.7,2.9 -3.1,4.8 -5.3,6.6 1.4,-0.6 2.9,-1.8 4,-3 1,-1 1.8,-2.3 2.2,-3.6 0.8,0.6 1.7,0.8 2.8,2.2 1.6,2 2.1,3.5 -1.6,5.2 z"
       inkscape:connector-curvature="0"
       style="fill:#558b2f;fill-opacity:1" />
  </g>
  <ellipse
     style="opacity:1;vector-effect:none;fill:#000000;fill-opacity:0.12941176;fill-rule:evenodd;stroke-width:1.91295707;stroke-linecap:butt;stroke-linejoin:miter;stroke-miterlimit:4;stroke-dasharray:none;stroke-dashoffset:0;stroke-opacity:1"
     id="path3472-0"
     cx="21.063492"
     cy="29"
     rx="4.0634923"
     ry="4" />
  <ellipse
     style="opacity:1;vector-effect:none;fill:#d32f2f;fill-opacity:1;fill-rule:evenodd;stroke-width:1.91295707;stroke-linecap:butt;stroke-linejoin:miter;stroke-miterlimit:4;stroke-dasharray:none;stroke-dashoffset:0;stroke-opacity:1"
     id="path3472"
     cx="20.063492"
     cy="28"
     rx="4.0634923"
     ry="4" />
  <ellipse
     style="opacity:1;vector-effect:none;fill:#ff5252;fill-opacity:1;fill-rule:evenodd;stroke-width:1.52865767;stroke-linecap:butt;stroke-linejoin:miter;stroke-miterlimit:4;stroke-dasharray:none;stroke-dashoffset:0;stroke-opacity:1"
     id="path3472-7"
     cx="20.081635"
     cy="27.978741"
     rx="3.2471657"
     ry="3.1964285" />
</svg>
