<?xml version="1.0" encoding="UTF-8" standalone="no"?>
<svg
   viewBox="0 0 48 48"
   id="svg2"
   version="1.1"
   inkscape:version="1.1.2 (0a00cf5339, 2022-02-04)"
   width="100%"
   height="100%"
   sodipodi:docname="ru_mos_um.svg"
   xmlns:inkscape="http://www.inkscape.org/namespaces/inkscape"
   xmlns:sodipodi="http://sodipodi.sourceforge.net/DTD/sodipodi-0.dtd"
   xmlns="http://www.w3.org/2000/svg"
   xmlns:svg="http://www.w3.org/2000/svg"
   xmlns:rdf="http://www.w3.org/1999/02/22-rdf-syntax-ns#"
   xmlns:cc="http://creativecommons.org/ns#"
   xmlns:dc="http://purl.org/dc/elements/1.1/">
  <metadata
     id="metadata71">
    <rdf:RDF>
      <cc:Work
         rdf:about="">
        <dc:format>image/svg+xml</dc:format>
        <dc:type
           rdf:resource="http://purl.org/dc/dcmitype/StillImage" />
      </cc:Work>
    </rdf:RDF>
  </metadata>
  <sodipodi:namedview
     pagecolor="#ffffff"
     bordercolor="#666666"
     borderopacity="1"
     objecttolerance="10"
     gridtolerance="10"
     guidetolerance="10"
     inkscape:pageopacity="0"
     inkscape:pageshadow="2"
     inkscape:window-width="1526"
     inkscape:window-height="854"
     id="namedview69"
     showgrid="true"
     inkscape:zoom="13.723404"
     inkscape:cx="24.483721"
     inkscape:cy="24.520155"
     inkscape:window-x="0"
     inkscape:window-y="0"
     inkscape:window-maximized="1"
     inkscape:current-layer="svg2"
     inkscape:document-rotation="0"
     inkscape:pagecheckerboard="1">
    <inkscape:grid
       type="xygrid"
       id="grid2464"
       empspacing="4" />
  </sodipodi:namedview>
  <defs
     id="defs4">
    <linearGradient
       id="linearGradient3764"
       y1="47"
       x2="0"
       y2="1"
       gradientUnits="userSpaceOnUse">
      <stop
         stop-color="#e5e5e5"
         stop-opacity="1"
         id="stop7" />
      <stop
         offset="1"
         stop-color="#efefef"
         stop-opacity="1"
         id="stop9" />
    </linearGradient>
    <clipPath
       id="clipPath-468622755">
      <g
         transform="translate(0,-1004.3622)"
         id="g12">
        <path
           d="m -24 13 c 0 1.105 -0.672 2 -1.5 2 -0.828 0 -1.5 -0.895 -1.5 -2 0 -1.105 0.672 -2 1.5 -2 0.828 0 1.5 0.895 1.5 2 z"
           transform="matrix(15.333333,0,0,11.5,414.99999,878.8622)"
           fill="#1890d0"
           id="path14" />
      </g>
    </clipPath>
    <clipPath
       id="clipPath-476930736">
      <g
         transform="translate(0,-1004.3622)"
         id="g17">
        <path
           d="m -24 13 c 0 1.105 -0.672 2 -1.5 2 -0.828 0 -1.5 -0.895 -1.5 -2 0 -1.105 0.672 -2 1.5 -2 0.828 0 1.5 0.895 1.5 2 z"
           transform="matrix(15.333333,0,0,11.5,414.99999,878.8622)"
           fill="#1890d0"
           id="path19" />
      </g>
    </clipPath>
  </defs>
  <g
     id="g21">
    <path
       d="m 36.31 5 c 5.859 4.062 9.688 10.831 9.688 18.5 c 0 12.426 -10.07 22.5 -22.5 22.5 c -7.669 0 -14.438 -3.828 -18.5 -9.688 c 1.037 1.822 2.306 3.499 3.781 4.969 c 4.085 3.712 9.514 5.969 15.469 5.969 c 12.703 0 23 -10.298 23 -23 c 0 -5.954 -2.256 -11.384 -5.969 -15.469 c -1.469 -1.475 -3.147 -2.744 -4.969 -3.781 z m 4.969 3.781 c 3.854 4.113 6.219 9.637 6.219 15.719 c 0 12.703 -10.297 23 -23 23 c -6.081 0 -11.606 -2.364 -15.719 -6.219 c 4.16 4.144 9.883 6.719 16.219 6.719 c 12.703 0 23 -10.298 23 -23 c 0 -6.335 -2.575 -12.06 -6.719 -16.219 z"
       opacity="0.05"
       id="path23" />
    <path
       d="m 41.28 8.781 c 3.712 4.085 5.969 9.514 5.969 15.469 c 0 12.703 -10.297 23 -23 23 c -5.954 0 -11.384 -2.256 -15.469 -5.969 c 4.113 3.854 9.637 6.219 15.719 6.219 c 12.703 0 23 -10.298 23 -23 c 0 -6.081 -2.364 -11.606 -6.219 -15.719 z"
       opacity="0.1"
       id="path25" />
    <path
       d="m 31.25 2.375 c 8.615 3.154 14.75 11.417 14.75 21.13 c 0 12.426 -10.07 22.5 -22.5 22.5 c -9.708 0 -17.971 -6.135 -21.12 -14.75 a 23 23 0 0 0 44.875 -7 a 23 23 0 0 0 -16 -21.875 z"
       opacity="0.2"
       id="path27" />
  </g>
  <g
     id="g29"
     style="fill:#1d709b;fill-opacity:1">
    <path
       d="m 24 1 c 12.703 0 23 10.297 23 23 c 0 12.703 -10.297 23 -23 23 -12.703 0 -23 -10.297 -23 -23 0 -12.703 10.297 -23 23 -23 z"
       fill="url(#linearGradient3764)"
       fill-opacity="1"
       id="path31"
       style="fill:#1d709b;fill-opacity:1" />
  </g>
  <g
     id="g65">
    <path
       d="m 40.03 7.531 c 3.712 4.084 5.969 9.514 5.969 15.469 0 12.703 -10.297 23 -23 23 c -5.954 0 -11.384 -2.256 -15.469 -5.969 4.178 4.291 10.01 6.969 16.469 6.969 c 12.703 0 23 -10.298 23 -23 0 -6.462 -2.677 -12.291 -6.969 -16.469 z"
       opacity="0.1"
       id="path67" />
  </g>
  <rect
     style="fill:#1d709b;fill-opacity:1"
     id="rect2488"
     width="4"
     height="4"
     x="15"
     y="15" />
  <rect
     style="fill:#1d709b;fill-opacity:1"
     id="rect2592"
     width="4"
     height="4"
     x="21"
     y="15" />
  <path
     id="rect2721-2"
     style="fill:#000000;fill-opacity:0.192157"
     d="M 13 12 L 13 27 L 13 35 L 13 36 L 37 36 L 37 35 L 37 27 L 30 27 L 30 25 L 35 25 L 35 23 L 30 23 L 30 21 L 35 21 L 35 19 L 30 19 L 30 17 L 35 17 L 35 15 L 30 15 L 30 12 L 13 12 z M 16 15 L 20 15 L 20 19 L 16 19 L 16 15 z M 23 15 L 27 15 L 27 19 L 23 19 L 23 15 z M 16 22 L 20 22 L 20 26 L 16 26 L 16 22 z M 23 22 L 27 22 L 27 26 L 23 26 L 23 22 z M 16 29 L 20 29 L 20 33 L 16 33 L 16 29 z M 23 29 L 27 29 L 27 33 L 23 33 L 23 29 z " />
  <path
     id="rect2721"
     style="fill:#a1ccd1;fill-opacity:1"
     d="M 12 11 L 12 26 L 12 34 L 12 35 L 36 35 L 36 34 L 36 26 L 29 26 L 29 24 L 34 24 L 34 22 L 29 22 L 29 20 L 34 20 L 34 18 L 29 18 L 29 16 L 34 16 L 34 14 L 29 14 L 29 11 L 12 11 z M 15 14 L 19 14 L 19 18 L 15 18 L 15 14 z M 22 14 L 26 14 L 26 18 L 22 18 L 22 14 z M 15 21 L 19 21 L 19 25 L 15 25 L 15 21 z M 22 21 L 26 21 L 26 25 L 22 25 L 22 21 z M 15 28 L 19 28 L 19 32 L 15 32 L 15 28 z M 22 28 L 26 28 L 26 32 L 22 32 L 22 28 z " />
  <rect
     style="fill:#4d989f;fill-opacity:1;stroke-width:0.935414"
     id="rect6881-5-3-6"
     width="7"
     height="2"
     x="27"
     y="14" />
  <rect
     style="fill:#4d989f;fill-opacity:1;stroke-width:0.935414"
     id="rect6881-5-3-6-0"
     width="7"
     height="2"
     x="27"
     y="18" />
  <rect
     style="fill:#4d989f;fill-opacity:1;stroke-width:0.935414"
     id="rect6881-5-3-6-6"
     width="7"
     height="2"
     x="27"
     y="22" />
</svg>
