<?xml version="1.0" encoding="UTF-8" standalone="no"?>
<svg
   xmlns:dc="http://purl.org/dc/elements/1.1/"
   xmlns:cc="http://creativecommons.org/ns#"
   xmlns:rdf="http://www.w3.org/1999/02/22-rdf-syntax-ns#"
   xmlns:svg="http://www.w3.org/2000/svg"
   xmlns="http://www.w3.org/2000/svg"
   xmlns:sodipodi="http://sodipodi.sourceforge.net/DTD/sodipodi-0.dtd"
   xmlns:inkscape="http://www.inkscape.org/namespaces/inkscape"
   viewBox="0 0 48 48"
   id="svg2"
   version="1.1"
   inkscape:version="0.92.3 (2405546, 2018-03-11)"
   width="100%"
   height="100%"
   sodipodi:docname="ru_yandex_rasp.svg"
   inkscape:export-filename="/home/shams/some/in-progress/2.png"
   inkscape:export-xdpi="93.957443"
   inkscape:export-ydpi="93.957443">
  <metadata
     id="metadata71">
    <rdf:RDF>
      <cc:Work
         rdf:about="">
        <dc:format>image/svg+xml</dc:format>
        <dc:type
           rdf:resource="http://purl.org/dc/dcmitype/StillImage" />
        <dc:title></dc:title>
      </cc:Work>
    </rdf:RDF>
  </metadata>
  <sodipodi:namedview
     pagecolor="#ffffff"
     bordercolor="#666666"
     borderopacity="1"
     objecttolerance="10"
     gridtolerance="10"
     guidetolerance="10"
     inkscape:pageopacity="0"
     inkscape:pageshadow="2"
     inkscape:window-width="3200"
     inkscape:window-height="1644"
     id="namedview69"
     showgrid="true"
     inkscape:zoom="27.161003"
     inkscape:cx="-1.8113014"
     inkscape:cy="23.578842"
     inkscape:window-x="0"
     inkscape:window-y="82"
     inkscape:window-maximized="1"
     inkscape:current-layer="g4217"
     inkscape:measure-start="0,0"
     inkscape:measure-end="0,0"
     showguides="false">
    <inkscape:grid
       type="xygrid"
       id="grid1624" />
  </sodipodi:namedview>
  <defs
     id="defs4">
    <inkscape:path-effect
       effect="bspline"
       id="path-effect1658"
       is_visible="true"
       weight="33.333333"
       steps="2"
       helper_size="0"
       apply_no_weight="true"
       apply_with_weight="true"
       only_selected="false" />
    <linearGradient
       id="linearGradient3764"
       y1="47"
       x2="0"
       y2="1"
       gradientUnits="userSpaceOnUse">
      <stop
         stop-color="#e5e5e5"
         stop-opacity="1"
         id="stop7"
         offset="0"
         style="stop-color:#ececec;stop-opacity:1;" />
      <stop
         offset="1"
         stop-color="#efefef"
         stop-opacity="1"
         id="stop9"
         style="stop-color:#f6f6f6;stop-opacity:1;" />
    </linearGradient>
    <clipPath
       id="clipPath-468622755">
      <g
         transform="translate(0,-1004.3622)"
         id="g12">
        <path
           d="m -24 13 c 0 1.105 -0.672 2 -1.5 2 -0.828 0 -1.5 -0.895 -1.5 -2 0 -1.105 0.672 -2 1.5 -2 0.828 0 1.5 0.895 1.5 2 z"
           transform="matrix(15.333333,0,0,11.5,414.99999,878.8622)"
           fill="#1890d0"
           id="path14" />
      </g>
    </clipPath>
    <clipPath
       id="clipPath-476930736">
      <g
         transform="translate(0,-1004.3622)"
         id="g17">
        <path
           d="m -24 13 c 0 1.105 -0.672 2 -1.5 2 -0.828 0 -1.5 -0.895 -1.5 -2 0 -1.105 0.672 -2 1.5 -2 0.828 0 1.5 0.895 1.5 2 z"
           transform="matrix(15.333333,0,0,11.5,414.99999,878.8622)"
           fill="#1890d0"
           id="path19" />
      </g>
    </clipPath>
  </defs>
  <g
     id="g21">
    <path
       d="m 36.31 5 c 5.859 4.062 9.688 10.831 9.688 18.5 c 0 12.426 -10.07 22.5 -22.5 22.5 c -7.669 0 -14.438 -3.828 -18.5 -9.688 c 1.037 1.822 2.306 3.499 3.781 4.969 c 4.085 3.712 9.514 5.969 15.469 5.969 c 12.703 0 23 -10.298 23 -23 c 0 -5.954 -2.256 -11.384 -5.969 -15.469 c -1.469 -1.475 -3.147 -2.744 -4.969 -3.781 z m 4.969 3.781 c 3.854 4.113 6.219 9.637 6.219 15.719 c 0 12.703 -10.297 23 -23 23 c -6.081 0 -11.606 -2.364 -15.719 -6.219 c 4.16 4.144 9.883 6.719 16.219 6.719 c 12.703 0 23 -10.298 23 -23 c 0 -6.335 -2.575 -12.06 -6.719 -16.219 z"
       opacity="0.05"
       id="path23" />
    <path
       d="m 41.28 8.781 c 3.712 4.085 5.969 9.514 5.969 15.469 c 0 12.703 -10.297 23 -23 23 c -5.954 0 -11.384 -2.256 -15.469 -5.969 c 4.113 3.854 9.637 6.219 15.719 6.219 c 12.703 0 23 -10.298 23 -23 c 0 -6.081 -2.364 -11.606 -6.219 -15.719 z"
       opacity="0.1"
       id="path25" />
    <path
       d="m 31.25 2.375 c 8.615 3.154 14.75 11.417 14.75 21.13 c 0 12.426 -10.07 22.5 -22.5 22.5 c -9.708 0 -17.971 -6.135 -21.12 -14.75 a 23 23 0 0 0 44.875 -7 a 23 23 0 0 0 -16 -21.875 z"
       opacity="0.2"
       id="path27" />
  </g>
  <g
     id="g29">
    <path
       d="m 24 1 c 12.703 0 23 10.297 23 23 c 0 12.703 -10.297 23 -23 23 -12.703 0 -23 -10.297 -23 -23 0 -12.703 10.297 -23 23 -23 z"
       id="path31"
       fill-opacity="1"
       fill="url(#linearGradient3764)" />
  </g>
  <g
     id="g65">
    <path
       d="m 40.03 7.531 c 3.712 4.084 5.969 9.514 5.969 15.469 0 12.703 -10.297 23 -23 23 c -5.954 0 -11.384 -2.256 -15.469 -5.969 4.178 4.291 10.01 6.969 16.469 6.969 c 12.703 0 23 -10.298 23 -23 0 -6.462 -2.677 -12.291 -6.969 -16.469 z"
       opacity="0.1"
       id="path67" />
  </g>
  <g
     id="g4217"
     transform="matrix(0.09611112,0,0,0.09713905,3.389371,-1.7386397)">
    <path
       style="opacity:1;fill:#1b5e20;fill-opacity:1;stroke:none;stroke-width:1;stroke-linecap:round;stroke-linejoin:round;stroke-miterlimit:4;stroke-dasharray:none;stroke-dashoffset:0;stroke-opacity:0.94117647"
       d="m 124.86853,131.1382 c -13.77774,0 -24.873552,11.09582 -24.873552,24.89183 v 199.3357 4.68482 2.1916 c 0,20.25217 9.280922,36.55359 20.809242,36.55359 h 187.28322 c 11.52832,0 20.80924,-16.30142 20.80924,-36.55359 v -2.1916 -4.68482 -199.3357 c 0,-13.79601 -11.09581,-24.89183 -24.87355,-24.89183 z"
       id="rect4200"
       inkscape:connector-curvature="0" />
    <path
       style="opacity:1;fill:#000000;fill-opacity:0.12941176;stroke:none;stroke-width:1;stroke-linecap:round;stroke-linejoin:round;stroke-miterlimit:4;stroke-dasharray:none;stroke-dashoffset:0;stroke-opacity:0.94117647"
       d="m 135.27315,141.43271 c -13.77774,0 -24.87355,11.09583 -24.87355,24.89184 v 199.3357 4.68482 2.1916 c 0,20.25218 9.28092,36.55359 20.80924,36.55359 h 187.28323 c 11.52831,0 20.80923,-16.30141 20.80923,-36.55359 v -2.1916 -4.68482 -199.3357 c 0,-13.79601 -11.09581,-24.89184 -24.87355,-24.89184 z"
       id="rect4200-3"
       inkscape:connector-curvature="0" />
    <rect
       y="192.90532"
       x="131.20885"
       height="51.472607"
       width="166.47397"
       id="rect4211"
       style="opacity:1;fill:#f9f9f9;fill-opacity:1;stroke:none;stroke-width:0.73156142;stroke-linecap:round;stroke-linejoin:round;stroke-miterlimit:4;stroke-dasharray:none;stroke-dashoffset:0;stroke-opacity:0.94117647" />
    <ellipse
       cy="362.7648"
       cx="141.61346"
       id="path4213"
       style="opacity:1;fill:#fff9c4;fill-opacity:1;stroke:none;stroke-width:0.82886916;stroke-linecap:round;stroke-linejoin:round;stroke-miterlimit:4;stroke-dasharray:none;stroke-dashoffset:0;stroke-opacity:0.94117647"
       rx="15.606935"
       ry="15.441782" />
    <ellipse
       style="opacity:1;fill:#fff9c4;fill-opacity:1;stroke:none;stroke-width:0.82891232;stroke-linecap:round;stroke-linejoin:round;stroke-miterlimit:4;stroke-dasharray:none;stroke-dashoffset:0;stroke-opacity:0.94117647"
       id="circle4215"
       cx="287.2782"
       cy="362.7648"
       rx="15.606935"
       ry="15.441782" />
    <ellipse
       cy="167.16902"
       cx="214.44583"
       id="path4213-3"
       style="opacity:1;fill:#fff9c4;fill-opacity:1;stroke:none;stroke-width:0.82886916;stroke-linecap:round;stroke-linejoin:round;stroke-miterlimit:4;stroke-dasharray:none;stroke-dashoffset:0;stroke-opacity:0.94117647"
       rx="15.606935"
       ry="15.441782"
       inkscape:export-filename="/home/shams/some/in-progress/ru_yandex_rasp.png"
       inkscape:export-xdpi="1472"
       inkscape:export-ydpi="1472" />
    <g
       id="g1708"
       style="fill:#1b5000;fill-opacity:0;stroke:#f44336;stroke-width:21.85610771;stroke-miterlimit:4;stroke-dasharray:none;stroke-opacity:1"
       transform="matrix(0.98145545,0,0,0.93081678,1.1066291,-62.84766)">
      <path
         inkscape:connector-curvature="0"
         id="path1660"
         d="m 132.56049,364.83754 h 54.68192"
         style="fill:#1b5000;fill-opacity:0;stroke:#f44336;stroke-width:22.40766144;stroke-linecap:butt;stroke-linejoin:miter;stroke-miterlimit:4;stroke-dasharray:none;stroke-opacity:1" />
      <path
         inkscape:connector-curvature="0"
         id="path1664"
         d="m 179.48098,365.85097 v -4.32651 m 41.6185,34.34477 h -2.39958 l -39.21891,-34.34477"
         style="fill:#1b5000;fill-opacity:0;stroke:#f44336;stroke-width:21.85610771;stroke-linecap:butt;stroke-linejoin:miter;stroke-miterlimit:4;stroke-dasharray:none;stroke-opacity:1"
         transform="translate(4.595036e-6,-2.7636066e-6)" />
      <path
         inkscape:connector-curvature="0"
         id="path1664-1"
         d="m 213.67883,393.12829 v 4.32651 m 41.6185,-34.34477 h -2.39958 l -39.21891,34.34477"
         style="fill:#1b5000;fill-opacity:0;stroke:#f44336;stroke-width:21.85610771;stroke-linecap:butt;stroke-linejoin:miter;stroke-miterlimit:4;stroke-dasharray:none;stroke-opacity:1" />
      <path
         inkscape:connector-curvature="0"
         id="path1660-2"
         d="m 250.15686,363.11003 h 52.02312"
         style="fill:#1b5000;fill-opacity:0;stroke:#f44336;stroke-width:21.85610771;stroke-linecap:butt;stroke-linejoin:miter;stroke-miterlimit:4;stroke-dasharray:none;stroke-opacity:1" />
      <path
         inkscape:connector-curvature="0"
         id="path1660-7"
         d="m 132.56049,408.51652 h 43.74553"
         style="fill:#1b5000;fill-opacity:0;stroke:#f44336;stroke-width:20.0420208;stroke-linecap:butt;stroke-linejoin:miter;stroke-miterlimit:4;stroke-dasharray:none;stroke-opacity:1" />
      <path
         inkscape:connector-curvature="0"
         id="path1660-7-0"
         d="m 258.35929,408.51652 h 43.74553"
         style="fill:#1b5000;fill-opacity:0;stroke:#f44336;stroke-width:20.0420208;stroke-linecap:butt;stroke-linejoin:miter;stroke-miterlimit:4;stroke-dasharray:none;stroke-opacity:1" />
    </g>
  </g>
</svg>
